<?xml version="1.0" encoding="utf-8"  standalone="no"?>
<svg 
 width="600" height="480"
 viewBox="0 0 600 480"
 xmlns="http://www.w3.org/2000/svg"
 xmlns:xlink="http://www.w3.org/1999/xlink"
>

<title>Gnuplot</title>
<desc>Produced by GNUPLOT 5.2 patchlevel 2 </desc>

<g id="gnuplot_canvas">

<rect x="0" y="0" width="600" height="480" fill="none"/>
<defs>

	<circle id='gpDot' r='0.5' stroke-width='0.5'/>
	<path id='gpPt0' stroke-width='0.222' stroke='currentColor' d='M-1,0 h2 M0,-1 v2'/>
	<path id='gpPt1' stroke-width='0.222' stroke='currentColor' d='M-1,-1 L1,1 M1,-1 L-1,1'/>
	<path id='gpPt2' stroke-width='0.222' stroke='currentColor' d='M-1,0 L1,0 M0,-1 L0,1 M-1,-1 L1,1 M-1,1 L1,-1'/>
	<rect id='gpPt3' stroke-width='0.222' stroke='currentColor' x='-1' y='-1' width='2' height='2'/>
	<rect id='gpPt4' stroke-width='0.222' stroke='currentColor' fill='currentColor' x='-1' y='-1' width='2' height='2'/>
	<circle id='gpPt5' stroke-width='0.222' stroke='currentColor' cx='0' cy='0' r='1'/>
	<use xlink:href='#gpPt5' id='gpPt6' fill='currentColor' stroke='none'/>
	<path id='gpPt7' stroke-width='0.222' stroke='currentColor' d='M0,-1.33 L-1.33,0.67 L1.33,0.67 z'/>
	<use xlink:href='#gpPt7' id='gpPt8' fill='currentColor' stroke='none'/>
	<use xlink:href='#gpPt7' id='gpPt9' stroke='currentColor' transform='rotate(180)'/>
	<use xlink:href='#gpPt9' id='gpPt10' fill='currentColor' stroke='none'/>
	<use xlink:href='#gpPt3' id='gpPt11' stroke='currentColor' transform='rotate(45)'/>
	<use xlink:href='#gpPt11' id='gpPt12' fill='currentColor' stroke='none'/>
	<path id='gpPt13' stroke-width='0.222' stroke='currentColor' d='M0,1.330 L1.265,0.411 L0.782,-1.067 L-0.782,-1.076 L-1.265,0.411 z'/>
	<use xlink:href='#gpPt13' id='gpPt14' fill='currentColor' stroke='none'/>
	<filter id='textbox' filterUnits='objectBoundingBox' x='0' y='0' height='1' width='1'>
	  <feFlood flood-color='white' flood-opacity='1' result='bgnd'/>
	  <feComposite in='SourceGraphic' in2='bgnd' operator='atop'/>
	</filter>
	<filter id='greybox' filterUnits='objectBoundingBox' x='0' y='0' height='1' width='1'>
	  <feFlood flood-color='lightgrey' flood-opacity='1' result='grey'/>
	  <feComposite in='SourceGraphic' in2='grey' operator='atop'/>
	</filter>
</defs>
<g fill="none" color="white" stroke="currentColor" stroke-width="1.00" stroke-linecap="butt" stroke-linejoin="miter">
</g>
<g fill="none" color="black" stroke="currentColor" stroke-width="1.00" stroke-linecap="butt" stroke-linejoin="miter">
	<path stroke='black'  d='M53.9,422.4 L62.9,422.4 M575.0,422.4 L566.0,422.4  '/>	<g transform="translate(45.6,426.3)" stroke="none" fill="black" font-family="Arial" font-size="12.00"  text-anchor="end">
		<text><tspan font-family="Arial" >-2</tspan></text>
	</g>
</g>
<g fill="none" color="black" stroke="currentColor" stroke-width="1.00" stroke-linecap="butt" stroke-linejoin="miter">
	<path stroke='black'  d='M53.9,371.9 L62.9,371.9 M575.0,371.9 L566.0,371.9  '/>	<g transform="translate(45.6,375.8)" stroke="none" fill="black" font-family="Arial" font-size="12.00"  text-anchor="end">
		<text><tspan font-family="Arial" >-1.5</tspan></text>
	</g>
</g>
<g fill="none" color="black" stroke="currentColor" stroke-width="1.00" stroke-linecap="butt" stroke-linejoin="miter">
	<path stroke='black'  d='M53.9,321.3 L62.9,321.3 M575.0,321.3 L566.0,321.3  '/>	<g transform="translate(45.6,325.2)" stroke="none" fill="black" font-family="Arial" font-size="12.00"  text-anchor="end">
		<text><tspan font-family="Arial" >-1</tspan></text>
	</g>
</g>
<g fill="none" color="black" stroke="currentColor" stroke-width="1.00" stroke-linecap="butt" stroke-linejoin="miter">
	<path stroke='black'  d='M53.9,270.8 L62.9,270.8 M575.0,270.8 L566.0,270.8  '/>	<g transform="translate(45.6,274.7)" stroke="none" fill="black" font-family="Arial" font-size="12.00"  text-anchor="end">
		<text><tspan font-family="Arial" >-0.5</tspan></text>
	</g>
</g>
<g fill="none" color="black" stroke="currentColor" stroke-width="1.00" stroke-linecap="butt" stroke-linejoin="miter">
	<path stroke='black'  d='M53.9,220.2 L62.9,220.2 M575.0,220.2 L566.0,220.2  '/>	<g transform="translate(45.6,224.1)" stroke="none" fill="black" font-family="Arial" font-size="12.00"  text-anchor="end">
		<text><tspan font-family="Arial" > 0</tspan></text>
	</g>
</g>
<g fill="none" color="black" stroke="currentColor" stroke-width="1.00" stroke-linecap="butt" stroke-linejoin="miter">
	<path stroke='black'  d='M53.9,169.7 L62.9,169.7 M575.0,169.7 L566.0,169.7  '/>	<g transform="translate(45.6,173.6)" stroke="none" fill="black" font-family="Arial" font-size="12.00"  text-anchor="end">
		<text><tspan font-family="Arial" > 0.5</tspan></text>
	</g>
</g>
<g fill="none" color="black" stroke="currentColor" stroke-width="1.00" stroke-linecap="butt" stroke-linejoin="miter">
	<path stroke='black'  d='M53.9,119.2 L62.9,119.2 M575.0,119.2 L566.0,119.2  '/>	<g transform="translate(45.6,123.1)" stroke="none" fill="black" font-family="Arial" font-size="12.00"  text-anchor="end">
		<text><tspan font-family="Arial" > 1</tspan></text>
	</g>
</g>
<g fill="none" color="black" stroke="currentColor" stroke-width="1.00" stroke-linecap="butt" stroke-linejoin="miter">
	<path stroke='black'  d='M53.9,68.6 L62.9,68.6 M575.0,68.6 L566.0,68.6  '/>	<g transform="translate(45.6,72.5)" stroke="none" fill="black" font-family="Arial" font-size="12.00"  text-anchor="end">
		<text><tspan font-family="Arial" > 1.5</tspan></text>
	</g>
</g>
<g fill="none" color="black" stroke="currentColor" stroke-width="1.00" stroke-linecap="butt" stroke-linejoin="miter">
	<path stroke='black'  d='M53.9,18.1 L62.9,18.1 M575.0,18.1 L566.0,18.1  '/>	<g transform="translate(45.6,22.0)" stroke="none" fill="black" font-family="Arial" font-size="12.00"  text-anchor="end">
		<text><tspan font-family="Arial" > 2</tspan></text>
	</g>
</g>
<g fill="none" color="black" stroke="currentColor" stroke-width="1.00" stroke-linecap="butt" stroke-linejoin="miter">
	<path stroke='black'  d='M53.9,422.4 L53.9,413.4 M53.9,18.1 L53.9,27.1  '/>	<g transform="translate(53.9,444.3)" stroke="none" fill="black" font-family="Arial" font-size="12.00"  text-anchor="middle">
		<text><tspan font-family="Arial" >-2</tspan></text>
	</g>
</g>
<g fill="none" color="black" stroke="currentColor" stroke-width="1.00" stroke-linecap="butt" stroke-linejoin="miter">
	<path stroke='black'  d='M119.0,422.4 L119.0,413.4 M119.0,18.1 L119.0,27.1  '/>	<g transform="translate(119.0,444.3)" stroke="none" fill="black" font-family="Arial" font-size="12.00"  text-anchor="middle">
		<text><tspan font-family="Arial" >-1.5</tspan></text>
	</g>
</g>
<g fill="none" color="black" stroke="currentColor" stroke-width="1.00" stroke-linecap="butt" stroke-linejoin="miter">
	<path stroke='black'  d='M184.2,422.4 L184.2,413.4 M184.2,18.1 L184.2,27.1  '/>	<g transform="translate(184.2,444.3)" stroke="none" fill="black" font-family="Arial" font-size="12.00"  text-anchor="middle">
		<text><tspan font-family="Arial" >-1</tspan></text>
	</g>
</g>
<g fill="none" color="black" stroke="currentColor" stroke-width="1.00" stroke-linecap="butt" stroke-linejoin="miter">
	<path stroke='black'  d='M249.3,422.4 L249.3,413.4 M249.3,18.1 L249.3,27.1  '/>	<g transform="translate(249.3,444.3)" stroke="none" fill="black" font-family="Arial" font-size="12.00"  text-anchor="middle">
		<text><tspan font-family="Arial" >-0.5</tspan></text>
	</g>
</g>
<g fill="none" color="black" stroke="currentColor" stroke-width="1.00" stroke-linecap="butt" stroke-linejoin="miter">
	<path stroke='black'  d='M314.5,422.4 L314.5,413.4 M314.5,18.1 L314.5,27.1  '/>	<g transform="translate(314.5,444.3)" stroke="none" fill="black" font-family="Arial" font-size="12.00"  text-anchor="middle">
		<text><tspan font-family="Arial" > 0</tspan></text>
	</g>
</g>
<g fill="none" color="black" stroke="currentColor" stroke-width="1.00" stroke-linecap="butt" stroke-linejoin="miter">
	<path stroke='black'  d='M379.6,422.4 L379.6,413.4 M379.6,18.1 L379.6,27.1  '/>	<g transform="translate(379.6,444.3)" stroke="none" fill="black" font-family="Arial" font-size="12.00"  text-anchor="middle">
		<text><tspan font-family="Arial" > 0.5</tspan></text>
	</g>
</g>
<g fill="none" color="black" stroke="currentColor" stroke-width="1.00" stroke-linecap="butt" stroke-linejoin="miter">
	<path stroke='black'  d='M444.7,422.4 L444.7,413.4 M444.7,18.1 L444.7,27.1  '/>	<g transform="translate(444.7,444.3)" stroke="none" fill="black" font-family="Arial" font-size="12.00"  text-anchor="middle">
		<text><tspan font-family="Arial" > 1</tspan></text>
	</g>
</g>
<g fill="none" color="black" stroke="currentColor" stroke-width="1.00" stroke-linecap="butt" stroke-linejoin="miter">
	<path stroke='black'  d='M509.9,422.4 L509.9,413.4 M509.9,18.1 L509.9,27.1  '/>	<g transform="translate(509.9,444.3)" stroke="none" fill="black" font-family="Arial" font-size="12.00"  text-anchor="middle">
		<text><tspan font-family="Arial" > 1.5</tspan></text>
	</g>
</g>
<g fill="none" color="black" stroke="currentColor" stroke-width="1.00" stroke-linecap="butt" stroke-linejoin="miter">
	<path stroke='black'  d='M575.0,422.4 L575.0,413.4 M575.0,18.1 L575.0,27.1  '/>	<g transform="translate(575.0,444.3)" stroke="none" fill="black" font-family="Arial" font-size="12.00"  text-anchor="middle">
		<text><tspan font-family="Arial" > 2</tspan></text>
	</g>
</g>
<g fill="none" color="black" stroke="currentColor" stroke-width="1.00" stroke-linecap="butt" stroke-linejoin="miter">
</g>
<g fill="none" color="black" stroke="currentColor" stroke-width="1.00" stroke-linecap="butt" stroke-linejoin="miter">
	<path stroke='black'  d='M53.9,18.1 L53.9,422.4 L575.0,422.4 L575.0,18.1 L53.9,18.1 Z  '/></g>
<g fill="none" color="black" stroke="currentColor" stroke-width="1.00" stroke-linecap="butt" stroke-linejoin="miter">
	<g transform="translate(314.4,471.3)" stroke="none" fill="black" font-family="Arial" font-size="12.00"  text-anchor="middle">
		<text><tspan font-family="Arial" >y</tspan></text>
	</g>
</g>
<g fill="none" color="black" stroke="currentColor" stroke-width="1.00" stroke-linecap="butt" stroke-linejoin="miter">
</g>
	<g id="gnuplot_plot_1" ><title>"data_file.txt"</title>
<g fill="none" color="black" stroke="currentColor" stroke-width="1.00" stroke-linecap="butt" stroke-linejoin="miter">
	<g transform="translate(507.9,40.0)" stroke="none" fill="black" font-family="Arial" font-size="12.00"  text-anchor="end">
		<text>"data_file.txt"</text>
	</g>
</g>
<g fill="none" color="black" stroke="currentColor" stroke-width="1.00" stroke-linecap="butt" stroke-linejoin="miter">
	<path stroke='rgb(  0,   0,   0)'  d='M516.2,36.1 L558.4,36.1 M384.8,135.2 L384.8,135.1 L384.8,134.9 L384.7,134.8 L384.7,134.7 L384.7,134.5
		L384.6,134.4 L384.6,134.3 L384.5,134.2 L384.5,134.1 L384.5,133.9 L384.4,133.8 L384.4,133.7 L384.4,133.6
		L384.3,133.4 L384.3,133.3 L384.2,133.2 L384.2,133.1 L384.2,132.9 L384.1,132.8 L384.1,132.7 L384.0,132.6
		L384.0,132.5 L384.0,132.3 L383.9,132.2 L383.9,132.1 L383.8,132.0 L383.8,131.8 L383.8,131.7 L383.7,131.6
		L383.7,131.5 L383.6,131.4 L383.6,131.2 L383.6,131.1 L383.5,131.0 L383.5,130.9 L383.4,130.7 L383.4,130.6
		L383.3,130.5 L383.3,130.4 L383.2,130.2 L383.2,130.1 L383.2,130.0 L383.1,129.9 L383.1,129.8 L383.0,129.6
		L383.0,129.5 L382.9,129.4 L382.9,129.3 L382.8,129.1 L382.8,129.0 L382.7,128.9 L382.7,128.8 L382.6,128.6
		L382.6,128.5 L382.5,128.4 L382.5,128.3 L382.4,128.2 L382.4,128.0 L382.3,127.9 L382.3,127.8 L382.2,127.7
		L382.2,127.5 L382.1,127.4 L382.1,127.3 L382.0,127.2 L382.0,127.1 L381.9,126.9 L381.9,126.8 L381.8,126.7
		L381.8,126.6 L381.7,126.4 L381.7,126.3 L381.6,126.2 L381.6,126.1 L381.5,125.9 L381.5,125.8 L381.4,125.7
		L381.4,125.6 L381.3,125.5 L381.2,125.3 L381.2,125.2 L381.1,125.1 L381.1,125.0 L381.0,124.8 L381.0,124.7
		L380.9,124.6 L380.9,124.5 L380.8,124.3 L380.7,124.2 L380.7,124.1 L380.6,124.0 L380.6,123.9 L380.5,123.7
		L380.5,123.6 L380.4,123.5 L380.3,123.4 L380.3,123.2 L380.2,123.1 L380.2,123.0 L380.1,122.9 L380.0,122.8
		L380.0,122.6 L379.9,122.5 L379.8,122.4 L379.8,122.3 L379.7,122.1 L379.7,122.0 L379.6,121.9 L379.5,121.8
		L379.5,121.7 L379.4,121.5 L379.3,121.4 L379.3,121.3 L379.2,121.2 L379.2,121.0 L379.1,120.9 L379.0,120.8
		L379.0,120.7 L378.9,120.6 L378.8,120.4 L378.8,120.3 L378.7,120.2 L378.6,120.1 L378.6,119.9 L378.5,119.8
		L378.4,119.7 L378.4,119.6 L378.3,119.5 L378.2,119.3 L378.2,119.2 L378.1,119.1 L378.0,119.0 L378.0,118.8
		L377.9,118.7 L377.8,118.6 L377.7,118.5 L377.7,118.4 L377.6,118.2 L377.5,118.1 L377.5,118.0 L377.4,117.9
		L377.3,117.7 L377.2,117.6 L377.2,117.5 L377.1,117.4 L377.0,117.3 L377.0,117.1 L376.9,117.0 L376.8,116.9
		L376.7,116.8 L376.7,116.7 L376.6,116.5 L376.5,116.4 L376.4,116.3 L376.4,116.2 L376.3,116.0 L376.2,115.9
		L376.1,115.8 L376.1,115.7 L376.0,115.6 L375.9,115.4 L375.8,115.3 L375.7,115.2 L375.7,115.1 L375.6,115.0
		L375.5,114.8 L375.4,114.7 L375.4,114.6 L375.3,114.5 L375.2,114.4 L375.1,114.2 L375.0,114.1 L375.0,114.0
		L374.9,113.9 L374.8,113.8 L374.7,113.6 L374.6,113.5 L374.6,113.4 L374.5,113.3 L374.4,113.2 L374.3,113.0
		L374.2,112.9 L374.1,112.8 L374.1,112.7 L374.0,112.6 L373.9,112.4 L373.8,112.3 L373.7,112.2 L373.6,112.1
		L373.6,112.0 L373.5,111.8 L373.4,111.7 L373.3,111.6 L373.2,111.5 L373.1,111.4 L373.0,111.2 L373.0,111.1
		L372.9,111.0 L372.8,110.9 L372.7,110.8 L372.6,110.6 L372.5,110.5 L372.4,110.4 L372.3,110.3 L372.2,110.2
		L372.2,110.0 L372.1,109.9 L372.0,109.8 L371.9,109.7 L371.8,109.6 L371.7,109.5 L371.6,109.3 L371.5,109.2
		L371.4,109.1 L371.3,109.0 L371.3,108.9 L371.2,108.7 L371.1,108.6 L371.0,108.5 L370.9,108.4 L370.8,108.3
		L370.7,108.2 L370.6,108.0 L370.5,107.9 L370.4,107.8 L370.3,107.7 L370.2,107.6 L370.1,107.4 L370.0,107.3
		L369.9,107.2 L369.8,107.1 L369.7,107.0 L369.6,106.9 L369.5,106.7 L369.4,106.6 L369.4,106.5 L369.3,106.4
		L369.2,106.3 L369.1,106.2 L369.0,106.0 L368.9,105.9 L368.8,105.8 L368.7,105.7 L368.6,105.6 L368.5,105.5
		L368.4,105.3 L368.3,105.2 L368.2,105.1 L368.1,105.0 L368.0,104.9 L367.9,104.8 L367.7,104.6 L367.6,104.5
		L367.5,104.4 L367.4,104.3 L367.3,104.2 L367.2,104.1 L367.1,104.0 L367.0,103.8 L366.9,103.7 L366.8,103.6
		L366.7,103.5 L366.6,103.4 L366.5,103.3 L366.4,103.1 L366.3,103.0 L366.2,102.9 L366.1,102.8 L366.0,102.7
		L365.9,102.6 L365.8,102.5 L365.6,102.3 L365.5,102.2 L365.4,102.1 L365.3,102.0 L365.2,101.9 L365.1,101.8
		L365.0,101.7 L364.9,101.5 L364.8,101.4 L364.7,101.3 L364.6,101.2 L364.4,101.1 L364.3,101.0 L364.2,100.9
		L364.1,100.8 L364.0,100.6 L363.9,100.5 L363.8,100.4 L363.7,100.3 L363.5,100.2 L363.4,100.1 L363.3,100.0
		L363.2,99.9 L363.1,99.7 L363.0,99.6 L362.9,99.5 L362.7,99.4 L362.6,99.3 L362.5,99.2 L362.4,99.1
		L362.3,99.0 L362.2,98.8 L362.1,98.7 L361.9,98.6 L361.8,98.5 L361.7,98.4 L361.6,98.3 L361.5,98.2
		L361.3,98.1 L361.2,98.0 L361.1,97.9 L361.0,97.7 L360.9,97.6 L360.8,97.5 L360.6,97.4 L360.5,97.3
		L360.4,97.2 L360.3,97.1 L360.1,97.0 L360.0,96.9 L359.9,96.8 L359.8,96.6 L359.7,96.5 L359.5,96.4
		L359.4,96.3 L359.3,96.2 L359.2,96.1 L359.0,96.0 L358.9,95.9 L358.8,95.8 L358.7,95.7 L358.5,95.6
		L358.4,95.4 L358.3,95.3 L358.2,95.2 L358.0,95.1 L357.9,95.0 L357.8,94.9 L357.7,94.8 L357.5,94.7
		L357.4,94.6 L357.3,94.5 L357.2,94.4 L357.0,94.3 L356.9,94.2 L356.8,94.0 L356.6,93.9 L356.5,93.8
		L356.4,93.7 L356.3,93.6 L356.1,93.5 L356.0,93.4 L355.9,93.3 L355.7,93.2 L355.6,93.1 L355.5,93.0
		L355.3,92.9 L355.2,92.8 L355.1,92.7 L354.9,92.6 L354.8,92.5 L354.7,92.4 L354.5,92.3 L354.4,92.1
		L354.3,92.0 L354.1,91.9 L354.0,91.8 L353.9,91.7 L353.7,91.6 L353.6,91.5 L353.5,91.4 L353.3,91.3
		L353.2,91.2 L353.1,91.1 L352.9,91.0 L352.8,90.9 L352.6,90.8 L352.5,90.7 L352.4,90.6 L352.2,90.5
		L352.1,90.4 L352.0,90.3 L351.8,90.2 L351.7,90.1 L351.5,90.0 L351.4,89.9 L351.3,89.8 L351.1,89.7
		L351.0,89.6 L350.8,89.5 L350.7,89.4 L350.6,89.3 L350.4,89.2 L350.3,89.1 L350.1,89.0 L350.0,88.9
		L349.8,88.8 L349.7,88.7 L349.6,88.6 L349.4,88.5 L349.3,88.4 L349.1,88.3 L349.0,88.2 L348.8,88.1
		L348.7,88.0 L348.6,87.9 L348.4,87.8 L348.3,87.7 L348.1,87.6 L348.0,87.5 L347.8,87.4 L347.7,87.3
		L347.5,87.2 L347.4,87.1 L347.2,87.0 L347.1,86.9 L346.9,86.8 L346.8,86.7 L346.6,86.6 L346.5,86.5
		L346.3,86.4 L346.2,86.3 L346.0,86.2 L345.9,86.1 L345.7,86.0 L345.6,85.9 L345.4,85.8 L345.3,85.7
		L345.1,85.6 L345.0,85.6 L344.8,85.5 L344.7,85.4 L344.5,85.3 L344.4,85.2 L344.2,85.1 L344.1,85.0
		L343.9,84.9 L343.8,84.8 L343.6,84.7 L343.5,84.6 L343.3,84.5 L343.2,84.4 L343.0,84.3 L342.8,84.2
		L342.7,84.1 L342.5,84.1 L342.4,84.0 L342.2,83.9 L342.1,83.8 L341.9,83.7 L341.8,83.6 L341.6,83.5
		L341.4,83.4 L341.3,83.3 L341.1,83.2 L341.0,83.1 L340.8,83.0 L340.7,83.0 L340.5,82.9 L340.3,82.8
		L340.2,82.7 L340.0,82.6 L339.9,82.5 L339.7,82.4 L339.5,82.3 L339.4,82.2 L339.2,82.1 L339.0,82.1
		L338.9,82.0 L338.7,81.9 L338.6,81.8 L338.4,81.7 L338.2,81.6 L338.1,81.5 L337.9,81.4 L337.8,81.4
		L337.6,81.3 L337.4,81.2 L337.3,81.1 L337.1,81.0 L336.9,80.9 L336.8,80.8 L336.6,80.7 L336.4,80.7
		L336.3,80.6 L336.1,80.5 L335.9,80.4 L335.8,80.3 L335.6,80.2 L335.4,80.1 L335.3,80.1 L335.1,80.0
		L334.9,79.9 L334.8,79.8 L334.6,79.7 L334.4,79.6 L334.3,79.6 L334.1,79.5 L333.9,79.4 L333.8,79.3
		L333.6,79.2 L333.4,79.1 L333.2,79.1 L333.1,79.0 L332.9,78.9 L332.7,78.8 L332.6,78.7 L332.4,78.7
		L332.2,78.6 L332.1,78.5 L331.9,78.4 L331.7,78.3 L331.5,78.2 L331.4,78.2 L331.2,78.1 L331.0,78.0
		L330.8,77.9 L330.7,77.8 L330.5,77.8 L330.3,77.7 L330.1,77.6 L330.0,77.5 L329.8,77.5 L329.6,77.4
		L329.4,77.3 L329.3,77.2 L329.1,77.1 L328.9,77.1 L328.7,77.0 L328.6,76.9 L328.4,76.8 L328.2,76.8
		L328.0,76.7 L327.9,76.6 L327.7,76.5 L327.5,76.5 L327.3,76.4 L327.1,76.3 L327.0,76.2 L326.8,76.1
		L326.6,76.1 L326.4,76.0 L326.3,75.9 L326.1,75.9 L325.9,75.8 L325.7,75.7 L325.5,75.6 L325.4,75.6
		L325.2,75.5 L325.0,75.4 L324.8,75.3 L324.6,75.3 L324.4,75.2 L324.3,75.1 L324.1,75.0 L323.9,75.0
		L323.7,74.9 L323.5,74.8 L323.4,74.8 L323.2,74.7 L323.0,74.6 L322.8,74.6 L322.6,74.5 L322.4,74.4
		L322.2,74.3 L322.1,74.3 L321.9,74.2 L321.7,74.1 L321.5,74.1 L321.3,74.0 L321.1,73.9 L320.9,73.9
		L320.8,73.8 L320.6,73.7 L320.4,73.7 L320.2,73.6 L320.0,73.5 L319.8,73.5 L319.6,73.4 L319.5,73.3
		L319.3,73.3 L319.1,73.2 L318.9,73.1 L318.7,73.1 L318.5,73.0 L318.3,72.9 L318.1,72.9 L317.9,72.8
		L317.8,72.7 L317.6,72.7 L317.4,72.6 L317.2,72.5 L317.0,72.5 L316.8,72.4 L316.6,72.4 L316.4,72.3
		L316.2,72.2 L316.0,72.2 L315.8,72.1 L315.7,72.0 L315.5,72.0 L315.3,71.9 L315.1,71.9 L314.9,71.8
		L314.7,71.7 L314.5,71.7 L314.3,71.6 L314.1,71.6 L313.9,71.5 L313.7,71.4 L313.5,71.4 L313.3,71.3
		L313.1,71.3 L312.9,71.2 L312.7,71.2 L312.6,71.1 L312.4,71.0 L312.2,71.0 L312.0,70.9 L311.8,70.9
		L311.6,70.8 L311.4,70.8 L311.2,70.7 L311.0,70.6 L310.8,70.6 L310.6,70.5 L310.4,70.5 L310.2,70.4
		L310.0,70.4 L309.8,70.3 L309.6,70.3 L309.4,70.2 L309.2,70.1 L309.0,70.1 L308.8,70.0 L308.6,70.0
		L308.4,69.9 L308.2,69.9 L308.0,69.8 L307.8,69.8 L307.6,69.7 L307.4,69.7 L307.2,69.6 L307.0,69.6
		L306.8,69.5 L306.6,69.5 L306.4,69.4 L306.2,69.4 L306.0,69.3 L305.8,69.3 L305.6,69.2 L305.4,69.2
		L305.2,69.1 L305.0,69.1 L304.8,69.0 L304.6,69.0 L304.4,68.9 L304.2,68.9 L304.0,68.8 L303.8,68.8
		L303.6,68.8 L303.4,68.7 L303.2,68.7 L303.0,68.6 L302.8,68.6 L302.6,68.5 L302.3,68.5 L302.1,68.4
		L301.9,68.4 L301.7,68.3 L301.5,68.3 L301.3,68.3 L301.1,68.2 L300.9,68.2 L300.7,68.1 L300.5,68.1
		L300.3,68.0 L300.1,68.0 L299.9,68.0 L299.7,67.9 L299.5,67.9 L299.3,67.8 L299.0,67.8 L298.8,67.8
		L298.6,67.7 L298.4,67.7 L298.2,67.6 L298.0,67.6 L297.8,67.6 L297.6,67.5 L297.4,67.5 L297.2,67.4
		L297.0,67.4 L296.8,67.4 L296.5,67.3 L296.3,67.3 L296.1,67.3 L295.9,67.2 L295.7,67.2 L295.5,67.2
		L295.3,67.1 L295.1,67.1 L294.9,67.0 L294.7,67.0 L294.4,67.0 L294.2,66.9 L294.0,66.9 L293.8,66.9
		L293.6,66.8 L293.4,66.8 L293.2,66.8 L293.0,66.7 L292.8,66.7 L292.5,66.7 L292.3,66.6 L292.1,66.6
		L291.9,66.6 L291.7,66.6 L291.5,66.5 L291.3,66.5 L291.1,66.5 L290.8,66.4 L290.6,66.4 L290.4,66.4
		L290.2,66.3 L290.0,66.3 L289.8,66.3 L289.6,66.3 L289.3,66.2 L289.1,66.2 L288.9,66.2 L288.7,66.2
		L288.5,66.1 L288.3,66.1 L288.1,66.1 L287.8,66.1 L287.6,66.0 L287.4,66.0 L287.2,66.0 L287.0,66.0
		L286.8,65.9 L286.5,65.9 L286.3,65.9 L286.1,65.9 L285.9,65.8 L285.7,65.8 L285.5,65.8 L285.3,65.8
		L285.0,65.7 L284.8,65.7 L284.6,65.7 L284.4,65.7 L284.2,65.7 L283.9,65.6 L283.7,65.6 L283.5,65.6
		L283.3,65.6 L283.1,65.6 L282.9,65.5 L282.6,65.5 L282.4,65.5 L282.2,65.5 L282.0,65.5 L281.8,65.5
		L281.6,65.4 L281.3,65.4 L281.1,65.4 L280.9,65.4 L280.7,65.4 L280.5,65.4 L280.2,65.3 L280.0,65.3
		L279.8,65.3 L279.6,65.3 L279.4,65.3 L279.1,65.3 L278.9,65.3 L278.7,65.3 L278.5,65.2 L278.3,65.2
		L278.0,65.2 L277.8,65.2 L277.6,65.2 L277.4,65.2 L277.2,65.2 L276.9,65.2 L276.7,65.1 L276.5,65.1
		L276.3,65.1 L276.1,65.1 L275.8,65.1 L275.6,65.1 L275.4,65.1 L275.2,65.1 L275.0,65.1 L274.7,65.1
		L274.5,65.1 L274.3,65.1 L274.1,65.1 L273.8,65.0 L273.6,65.0 L273.4,65.0 L273.2,65.0 L273.0,65.0
		L272.7,65.0 L272.5,65.0 L272.3,65.0 L272.1,65.0 L271.8,65.0 L271.6,65.0 L271.4,65.0 L271.2,65.0
		L271.0,65.0 L270.7,65.0 L270.5,65.0 L270.3,65.0 L270.1,65.0 L269.8,65.0 L269.6,65.0 L269.4,65.0
		L269.2,65.0 L268.9,65.0 L268.7,65.0 L268.5,65.0 L268.3,65.0 L268.1,65.0 L267.8,65.0 L267.6,65.0
		L267.4,65.0 L267.2,65.0 L266.9,65.0 L266.7,65.0 L266.5,65.0 L266.3,65.0 L266.0,65.0 L265.8,65.0
		L265.6,65.0 L265.4,65.1 L265.1,65.1 L264.9,65.1 L264.7,65.1 L264.5,65.1 L264.2,65.1 L264.0,65.1
		L263.8,65.1 L263.6,65.1 L263.4,65.1 L263.1,65.1 L262.9,65.1 L262.7,65.1 L262.5,65.2 L262.2,65.2
		L262.0,65.2 L261.8,65.2 L261.6,65.2 L261.3,65.2 L261.1,65.2 L260.9,65.2 L260.7,65.3 L260.4,65.3
		L260.2,65.3 L260.0,65.3 L259.8,65.3 L259.5,65.3 L259.3,65.3 L259.1,65.4 L258.9,65.4 L258.6,65.4
		L258.4,65.4 L258.2,65.4 L258.0,65.4 L257.7,65.5 L257.5,65.5 L257.3,65.5 L257.1,65.5 L256.8,65.5
		L256.6,65.5 L256.4,65.6 L256.2,65.6 L255.9,65.6 L255.7,65.6 L255.5,65.6 L255.3,65.7 L255.0,65.7
		L254.8,65.7 L254.6,65.7 L254.3,65.7 L254.1,65.8 L253.9,65.8 L253.7,65.8 L253.4,65.8 L253.2,65.9
		L253.0,65.9 L252.8,65.9 L252.5,65.9 L252.3,66.0 L252.1,66.0 L251.9,66.0 L251.6,66.0 L251.4,66.1
		L251.2,66.1 L251.0,66.1 L250.7,66.1 L250.5,66.2 L250.3,66.2 L250.1,66.2 L249.8,66.3 L249.6,66.3
		L249.4,66.3 L249.2,66.3 L248.9,66.4 L248.7,66.4 L248.5,66.4 L248.3,66.5 L248.0,66.5 L247.8,66.5
		L247.6,66.6 L247.4,66.6 L247.1,66.6 L246.9,66.7 L246.7,66.7 L246.5,66.7 L246.2,66.8 L246.0,66.8
		L245.8,66.8 L245.6,66.9 L245.3,66.9 L245.1,66.9 L244.9,67.0 L244.7,67.0 L244.4,67.1 L244.2,67.1
		L244.0,67.1 L243.8,67.2 L243.5,67.2 L243.3,67.2 L243.1,67.3 L242.9,67.3 L242.6,67.4 L242.4,67.4
		L242.2,67.4 L242.0,67.5 L241.8,67.5 L241.5,67.6 L241.3,67.6 L241.1,67.6 L240.9,67.7 L240.6,67.7
		L240.4,67.8 L240.2,67.8 L240.0,67.9 L239.7,67.9 L239.5,68.0 L239.3,68.0 L239.1,68.0 L238.8,68.1
		L238.6,68.1 L238.4,68.2 L238.2,68.2 L238.0,68.3 L237.7,68.3 L237.5,68.4 L237.3,68.4 L237.1,68.5
		L236.8,68.5 L236.6,68.6 L236.4,68.6 L236.2,68.7 L235.9,68.7 L235.7,68.8 L235.5,68.8 L235.3,68.9
		L235.1,68.9 L234.8,69.0 L234.6,69.0 L234.4,69.1 L234.2,69.1 L233.9,69.2 L233.7,69.2 L233.5,69.3
		L233.3,69.3 L233.1,69.4 L232.8,69.4 L232.6,69.5 L232.4,69.5 L232.2,69.6 L232.0,69.7 L231.7,69.7
		L231.5,69.8 L231.3,69.8 L231.1,69.9 L230.9,69.9 L230.6,70.0 L230.4,70.1 L230.2,70.1 L230.0,70.2
		L229.8,70.2 L229.5,70.3 L229.3,70.4 L229.1,70.4 L228.9,70.5 L228.7,70.5 L228.4,70.6 L228.2,70.7
		L228.0,70.7 L227.8,70.8 L227.6,70.8 L227.3,70.9 L227.1,71.0 L226.9,71.0 L226.7,71.1 L226.5,71.2
		L226.2,71.2 L226.0,71.3 L225.8,71.4 L225.6,71.4 L225.4,71.5 L225.2,71.6 L224.9,71.6 L224.7,71.7
		L224.5,71.8 L224.3,71.8 L224.1,71.9 L223.9,72.0 L223.6,72.0 L223.4,72.1 L223.2,72.2 L223.0,72.2
		L222.8,72.3 L222.6,72.4 L222.3,72.5 L222.1,72.5 L221.9,72.6 L221.7,72.7 L221.5,72.7 L221.3,72.8
		L221.0,72.9 L220.8,73.0 L220.6,73.0 L220.4,73.1 L220.2,73.2 L220.0,73.3 L219.8,73.3 L219.5,73.4
		L219.3,73.5 L219.1,73.6 L218.9,73.6 L218.7,73.7 L218.5,73.8 L218.3,73.9 L218.1,73.9 L217.8,74.0
		L217.6,74.1 L217.4,74.2 L217.2,74.3 L217.0,74.3 L216.8,74.4 L216.6,74.5 L216.4,74.6 L216.1,74.6
		L215.9,74.7 L215.7,74.8 L215.5,74.9 L215.3,75.0 L215.1,75.1 L214.9,75.1 L214.7,75.2 L214.5,75.3
		L214.2,75.4 L214.0,75.5 L213.8,75.6 L213.6,75.6 L213.4,75.7 L213.2,75.8 L213.0,75.9 L212.8,76.0
		L212.6,76.1 L212.4,76.2 L212.2,76.2 L211.9,76.3 L211.7,76.4 L211.5,76.5 L211.3,76.6 L211.1,76.7
		L210.9,76.8 L210.7,76.9 L210.5,76.9 L210.3,77.0 L210.1,77.1 L209.9,77.2 L209.7,77.3 L209.5,77.4
		L209.3,77.5 L209.1,77.6 L208.9,77.7 L208.6,77.8 L208.4,77.9 L208.2,77.9 L208.0,78.0 L207.8,78.1
		L207.6,78.2 L207.4,78.3 L207.2,78.4 L207.0,78.5 L206.8,78.6 L206.6,78.7 L206.4,78.8 L206.2,78.9
		L206.0,79.0 L205.8,79.1 L205.6,79.2 L205.4,79.3 L205.2,79.4 L205.0,79.5 L204.8,79.6 L204.6,79.7
		L204.4,79.8 L204.2,79.9 L204.0,80.0 L203.8,80.1 L203.6,80.2 L203.4,80.3 L203.2,80.4 L203.0,80.5
		L202.8,80.6 L202.6,80.7 L202.4,80.8 L202.2,80.9 L202.0,81.0 L201.8,81.1 L201.6,81.2 L201.4,81.3
		L201.2,81.4 L201.0,81.5 L200.8,81.6 L200.6,81.7 L200.4,81.8 L200.2,81.9 L200.0,82.0 L199.8,82.1
		L199.7,82.2 L199.5,82.3 L199.3,82.5 L199.1,82.6 L198.9,82.7 L198.7,82.8 L198.5,82.9 L198.3,83.0
		L198.1,83.1 L197.9,83.2 L197.7,83.3 L197.5,83.4 L197.3,83.5 L197.1,83.6 L197.0,83.8 L196.8,83.9
		L196.6,84.0 L196.4,84.1 L196.2,84.2 L196.0,84.3 L195.8,84.4 L195.6,84.5 L195.4,84.7 L195.2,84.8
		L195.1,84.9 L194.9,85.0 L194.7,85.1 L194.5,85.2 L194.3,85.3 L194.1,85.5 L193.9,85.6 L193.7,85.7
		L193.6,85.8 L193.4,85.9 L193.2,86.0 L193.0,86.2 L192.8,86.3 L192.6,86.4 L192.4,86.5 L192.3,86.6
		L192.1,86.7 L191.9,86.9 L191.7,87.0 L191.5,87.1 L191.3,87.2 L191.2,87.3 L191.0,87.5 L190.8,87.6
		L190.6,87.7 L190.4,87.8 L190.2,87.9 L190.1,88.1 L189.9,88.2 L189.7,88.3 L189.5,88.4 L189.3,88.5
		L189.2,88.7 L189.0,88.8 L188.8,88.9 L188.6,89.0 L188.4,89.2 L188.3,89.3 L188.1,89.4 L187.9,89.5
		L187.7,89.7 L187.6,89.8 L187.4,89.9 L187.2,90.0 L187.0,90.2 L186.9,90.3 L186.7,90.4 L186.5,90.6
		L186.3,90.7 L186.2,90.8 L186.0,90.9 L185.8,91.1 L185.6,91.2 L185.5,91.3 L185.3,91.4 L185.1,91.6
		L184.9,91.7 L184.8,91.8 L184.6,92.0 L184.4,92.1 L184.3,92.2 L184.1,92.4 L183.9,92.5 L183.7,92.6
		L183.6,92.8 L183.4,92.9 L183.2,93.0 L183.1,93.2 L182.9,93.3 L182.7,93.4 L182.6,93.6 L182.4,93.7
		L182.2,93.8 L182.1,94.0 L181.9,94.1 L181.7,94.2 L181.6,94.4 L181.4,94.5 L181.2,94.6 L181.1,94.8
		L180.9,94.9 L180.7,95.0 L180.6,95.2 L180.4,95.3 L180.3,95.4 L180.1,95.6 L179.9,95.7 L179.8,95.9
		L179.6,96.0 L179.4,96.1 L179.3,96.3 L179.1,96.4 L179.0,96.6 L178.8,96.7 L178.6,96.8 L178.5,97.0
		L178.3,97.1 L178.2,97.3 L178.0,97.4 L177.8,97.5 L177.7,97.7 L177.5,97.8 L177.4,98.0 L177.2,98.1
		L177.1,98.2 L176.9,98.4 L176.8,98.5 L176.6,98.7 L176.4,98.8 L176.3,99.0 L176.1,99.1 L176.0,99.2
		L175.8,99.4 L175.7,99.5 L175.5,99.7 L175.4,99.8 L175.2,100.0 L175.1,100.1 L174.9,100.3 L174.8,100.4
		L174.6,100.5 L174.5,100.7 L174.3,100.8 L174.2,101.0 L174.0,101.1 L173.9,101.3 L173.7,101.4 L173.6,101.6
		L173.4,101.7 L173.3,101.9 L173.1,102.0 L173.0,102.2 L172.8,102.3 L172.7,102.5 L172.6,102.6 L172.4,102.8
		L172.3,102.9 L172.1,103.1 L172.0,103.2 L171.8,103.4 L171.7,103.5 L171.5,103.7 L171.4,103.8 L171.3,104.0
		L171.1,104.1 L171.0,104.3 L170.8,104.4 L170.7,104.6 L170.6,104.7 L170.4,104.9 L170.3,105.0 L170.1,105.2
		L170.0,105.3 L169.9,105.5 L169.7,105.6 L169.6,105.8 L169.5,106.0 L169.3,106.1 L169.2,106.3 L169.1,106.4
		L168.9,106.6 L168.8,106.7 L168.6,106.9 L168.5,107.0 L168.4,107.2 L168.2,107.3 L168.1,107.5 L168.0,107.7
		L167.9,107.8 L167.7,108.0 L167.6,108.1 L167.5,108.3 L167.3,108.4 L167.2,108.6 L167.1,108.8 L166.9,108.9
		L166.8,109.1 L166.7,109.2 L166.6,109.4 L166.4,109.6 L166.3,109.7 L166.2,109.9 L166.1,110.0 L165.9,110.2
		L165.8,110.3 L165.7,110.5 L165.5,110.7 L165.4,110.8 L165.3,111.0 L165.2,111.2 L165.1,111.3 L164.9,111.5
		L164.8,111.6 L164.7,111.8 L164.6,112.0 L164.4,112.1 L164.3,112.3 L164.2,112.4 L164.1,112.6 L164.0,112.8
		L163.9,112.9 L163.7,113.1 L163.6,113.3 L163.5,113.4 L163.4,113.6 L163.3,113.7 L163.1,113.9 L163.0,114.1
		L162.9,114.2 L162.8,114.4 L162.7,114.6 L162.6,114.7 L162.5,114.9 L162.3,115.1 L162.2,115.2 L162.1,115.4
		L162.0,115.6 L161.9,115.7 L161.8,115.9 L161.7,116.1 L161.6,116.2 L161.5,116.4 L161.3,116.6 L161.2,116.7
		L161.1,116.9 L161.0,117.1 L160.9,117.2 L160.8,117.4 L160.7,117.6 L160.6,117.7 L160.5,117.9 L160.4,118.1
		L160.3,118.2 L160.2,118.4 L160.1,118.6 L160.0,118.7 L159.9,118.9 L159.8,119.1 L159.7,119.2 L159.6,119.4
		L159.5,119.6 L159.4,119.7 L159.3,119.9 L159.2,120.1 L159.1,120.3 L159.0,120.4 L158.9,120.6 L158.8,120.8
		L158.7,120.9 L158.6,121.1 L158.5,121.3 L158.4,121.4 L158.3,121.6 L158.2,121.8 L158.1,122.0 L158.0,122.1
		L157.9,122.3 L157.8,122.5 L157.7,122.6 L157.6,122.8 L157.5,123.0 L157.4,123.2 L157.3,123.3 L157.2,123.5
		L157.2,123.7 L157.1,123.9 L157.0,124.0 L156.9,124.2 L156.8,124.4 L156.7,124.5 L156.6,124.7 L156.5,124.9
		L156.4,125.1 L156.4,125.2 L156.3,125.4 L156.2,125.6 L156.1,125.8 L156.0,125.9 L155.9,126.1 L155.8,126.3
		L155.8,126.5 L155.7,126.6 L155.6,126.8 L155.5,127.0 L155.4,127.2 L155.3,127.3 L155.3,127.5 L155.2,127.7
		L155.1,127.9 L155.0,128.0 L154.9,128.2 L154.9,128.4 L154.8,128.6 L154.7,128.7 L154.6,128.9 L154.6,129.1
		L154.5,129.3 L154.4,129.5 L154.3,129.6 L154.3,129.8 L154.2,130.0 L154.1,130.2 L154.0,130.3 L154.0,130.5
		L153.9,130.7 L153.8,130.9 L153.7,131.0 L153.7,131.2 L153.6,131.4 L153.5,131.6 L153.5,131.8 L153.4,131.9
		L153.3,132.1 L153.3,132.3 L153.2,132.5 L153.1,132.6 L153.1,132.8 L153.0,133.0 L152.9,133.2 L152.9,133.4
		L152.8,133.5 L152.7,133.7 L152.7,133.9 L152.6,134.1 L152.5,134.3 L152.5,134.4 L152.4,134.6 L152.3,134.8
		L152.3,135.0 L152.2,135.2 L152.2,135.3 L152.1,135.5 L152.0,135.7 L152.0,135.9 L151.9,136.1 L151.9,136.2
		L151.8,136.4 L151.8,136.6 L151.7,136.8 L151.6,137.0 L151.6,137.1 L151.5,137.3 L151.5,137.5 L151.4,137.7
		L151.4,137.9 L151.3,138.0 L151.3,138.2 L151.2,138.4 L151.2,138.6 L151.1,138.8 L151.0,138.9 L151.0,139.1
		L150.9,139.3 L150.9,139.5 L150.8,139.7 L150.8,139.9 L150.8,140.0 L150.7,140.2 L150.7,140.4 L150.6,140.6
		L150.6,140.8 L150.5,140.9 L150.5,141.1 L150.4,141.3 L150.4,141.5 L150.3,141.7 L150.3,141.9 L150.3,142.0
		L150.2,142.2 L150.2,142.4 L150.1,142.6 L150.1,142.8 L150.0,142.9 L150.0,143.1 L150.0,143.3 L149.9,143.5
		L149.9,143.7 L149.8,143.9 L149.8,144.0 L149.8,144.2 L149.7,144.4 L149.7,144.6 L149.7,144.8 L149.6,145.0
		L149.6,145.1 L149.6,145.3 L149.5,145.5 L149.5,145.7 L149.5,145.9 L149.4,146.0 L149.4,146.2 L149.4,146.4
		L149.3,146.6 L149.3,146.8 L149.3,147.0 L149.2,147.1 L149.2,147.3 L149.2,147.5 L149.1,147.7 L149.1,147.9
		L149.1,148.1 L149.1,148.2 L149.0,148.4 L149.0,148.6 L149.0,148.8 L149.0,149.0 L148.9,149.2 L148.9,149.3
		L148.9,149.5 L148.9,149.7 L148.8,149.9 L148.8,150.1 L148.8,150.3 L148.8,150.4 L148.8,150.6 L148.7,150.8
		L148.7,151.0 L148.7,151.2 L148.7,151.4 L148.7,151.5 L148.6,151.7 L148.6,151.9 L148.6,152.1 L148.6,152.3
		L148.6,152.5 L148.6,152.6 L148.5,152.8 L148.5,153.0 L148.5,153.2 L148.5,153.4 L148.5,153.6 L148.5,153.7
		L148.5,153.9 L148.4,154.1 L148.4,154.3 L148.4,154.5 L148.4,154.7 L148.4,154.8 L148.4,155.0 L148.4,155.2
		L148.4,155.4 L148.4,155.6 L148.4,155.8 L148.3,156.0 L148.3,156.1 L148.3,156.3 L148.3,156.5 L148.3,156.7
		L148.3,156.9 L148.3,157.1 L148.3,157.2 L148.3,157.4 L148.3,157.6 L148.3,157.8 L148.3,158.0 L148.3,158.1
		L148.3,158.3 L148.3,158.5 L148.3,158.7 L148.3,158.9 L148.3,159.1 L148.3,159.2 L148.3,159.4 L148.3,159.6
		L148.3,159.8 L148.3,160.0 L148.3,160.2 L148.3,160.3 L148.3,160.5 L148.3,160.7 L148.3,160.9 L148.3,161.1
		L148.3,161.3 L148.3,161.4 L148.4,161.6 L148.4,161.8 L148.4,162.0 L148.4,162.2 L148.4,162.4 L148.4,162.5
		L148.4,162.7 L148.4,162.9 L148.4,163.1 L148.4,163.3 L148.5,163.4 L148.5,163.6 L148.5,163.8 L148.5,164.0
		L148.5,164.2 L148.5,164.4 L148.5,164.5 L148.6,164.7 L148.6,164.9 L148.6,165.1 L148.6,165.3 L148.6,165.4
		L148.6,165.6 L148.7,165.8 L148.7,166.0 L148.7,166.2 L148.7,166.4 L148.7,166.5 L148.7,166.7 L148.8,166.9
		L148.8,167.1 L148.8,167.3 L148.8,167.4 L148.9,167.6 L148.9,167.8 L148.9,168.0 L148.9,168.2 L149.0,168.3
		L149.0,168.5 L149.0,168.7 L149.0,168.9 L149.1,169.1 L149.1,169.3 L149.1,169.4 L149.1,169.6 L149.2,169.8
		L149.2,170.0 L149.2,170.2 L149.3,170.3 L149.3,170.5 L149.3,170.7 L149.3,170.9 L149.4,171.0 L149.4,171.2
		L149.4,171.4 L149.5,171.6 L149.5,171.8 L149.5,171.9 L149.6,172.1 L149.6,172.3 L149.6,172.5 L149.7,172.7
		L149.7,172.8 L149.7,173.0 L149.8,173.2 L149.8,173.4 L149.9,173.6 L149.9,173.7 L149.9,173.9 L150.0,174.1
		L150.0,174.3 L150.1,174.4 L150.1,174.6 L150.1,174.8 L150.2,175.0 L150.2,175.2 L150.3,175.3 L150.3,175.5
		L150.3,175.7 L150.4,175.9 L150.4,176.0 L150.5,176.2 L150.5,176.4 L150.6,176.6 L150.6,176.8 L150.7,176.9
		L150.7,177.1 L150.8,177.3 L150.8,177.5 L150.8,177.6 L150.9,177.8 L150.9,178.0 L151.0,178.2 L151.0,178.3
		L151.1,178.5 L151.1,178.7 L151.2,178.9 L151.2,179.0 L151.3,179.2 L151.3,179.4 L151.4,179.6 L151.5,179.7
		L151.5,179.9 L151.6,180.1 L151.6,180.3 L151.7,180.4 L151.7,180.6 L151.8,180.8 L151.8,181.0 L151.9,181.1
		L152.0,181.3 L152.0,181.5 L152.1,181.7 L152.1,181.8 L152.2,182.0 L152.2,182.2 L152.3,182.3 L152.4,182.5
		L152.4,182.7 L152.5,182.9 L152.5,183.0 L152.6,183.2 L152.7,183.4 L152.7,183.6 L152.8,183.7 L152.9,183.9
		L152.9,184.1 L153.0,184.2 L153.1,184.4 L153.1,184.6 L153.2,184.8 L153.3,184.9 L153.3,185.1 L153.4,185.3
		L153.5,185.4 L153.5,185.6 L153.6,185.8 L153.7,186.0 L153.7,186.1 L153.8,186.3 L153.9,186.5 L153.9,186.6
		L154.0,186.8 L154.1,187.0 L154.1,187.1 L154.2,187.3 L154.3,187.5 L154.4,187.6 L154.4,187.8 L154.5,188.0
		L154.6,188.2 L154.7,188.3 L154.7,188.5 L154.8,188.7 L154.9,188.8 L155.0,189.0 L155.0,189.2 L155.1,189.3
		L155.2,189.5 L155.3,189.7 L155.3,189.8 L155.4,190.0 L155.5,190.2 L155.6,190.3 L155.7,190.5 L155.7,190.7
		L155.8,190.8 L155.9,191.0 L156.0,191.2 L156.1,191.3 L156.2,191.5 L156.2,191.7 L156.3,191.8 L156.4,192.0
		L156.5,192.1 L156.6,192.3 L156.7,192.5 L156.7,192.6 L156.8,192.8 L156.9,193.0 L157.0,193.1 L157.1,193.3
		L157.2,193.5 L157.3,193.6 L157.3,193.8 L157.4,193.9 L157.5,194.1 L157.6,194.3 L157.7,194.4 L157.8,194.6
		L157.9,194.8 L158.0,194.9 L158.1,195.1 L158.2,195.2 L158.2,195.4 L158.3,195.6 L158.4,195.7 L158.5,195.9
		L158.6,196.0 L158.7,196.2 L158.8,196.4 L158.9,196.5 L159.0,196.7 L159.1,196.8 L159.2,197.0 L159.3,197.2
		L159.4,197.3 L159.5,197.5 L159.6,197.6 L159.7,197.8 L159.8,198.0 L159.9,198.1 L160.0,198.3 L160.1,198.4
		L160.2,198.6 L160.3,198.8 L160.4,198.9 L160.5,199.1 L160.6,199.2 L160.7,199.4 L160.8,199.5 L160.9,199.7
		L161.0,199.8 L161.1,200.0 L161.2,200.2 L161.3,200.3 L161.4,200.5 L161.5,200.6 L161.6,200.8 L161.7,200.9
		L161.8,201.1 L161.9,201.2 L162.0,201.4 L162.1,201.6 L162.2,201.7 L162.3,201.9 L162.4,202.0 L162.6,202.2
		L162.7,202.3 L162.8,202.5 L162.9,202.6 L163.0,202.8 L163.1,202.9 L163.2,203.1 L163.3,203.2 L163.4,203.4
		L163.5,203.5 L163.7,203.7 L163.8,203.8 L163.9,204.0 L164.0,204.1 L164.1,204.3 L164.2,204.4 L164.3,204.6
		L164.4,204.7 L164.6,204.9 L164.7,205.0 L164.8,205.2 L164.9,205.3 L165.0,205.5 L165.1,205.6 L165.3,205.8
		L165.4,205.9 L165.5,206.1 L165.6,206.2 L165.7,206.4 L165.8,206.5 L166.0,206.7 L166.1,206.8 L166.2,207.0
		L166.3,207.1 L166.4,207.2 L166.6,207.4 L166.7,207.5 L166.8,207.7 L166.9,207.8 L167.0,208.0 L167.2,208.1
		L167.3,208.3 L167.4,208.4 L167.5,208.5 L167.7,208.7 L167.8,208.8 L167.9,209.0 L168.0,209.1 L168.2,209.3
		L168.3,209.4 L168.4,209.6 L168.5,209.7 L168.7,209.8 L168.8,210.0 L168.9,210.1 L169.0,210.3 L169.2,210.4
		L169.3,210.5 L169.4,210.7 L169.5,210.8 L169.7,211.0 L169.8,211.1 L169.9,211.2 L170.1,211.4 L170.2,211.5
		L170.3,211.7 L170.5,211.8 L170.6,211.9 L170.7,212.1 L170.8,212.2 L171.0,212.3 L171.1,212.5 L171.2,212.6
		L171.4,212.8 L171.5,212.9 L171.6,213.0 L171.8,213.2 L171.9,213.3 L172.0,213.4 L172.2,213.6 L172.3,213.7
		L172.5,213.8 L172.6,214.0 L172.7,214.1 L172.9,214.2 L173.0,214.4 L173.1,214.5 L173.3,214.7 L173.4,214.8
		L173.5,214.9 L173.7,215.0 L173.8,215.2 L174.0,215.3 L174.1,215.4 L174.2,215.6 L174.4,215.7 L174.5,215.8
		L174.7,216.0 L174.8,216.1 L174.9,216.2 L175.1,216.4 L175.2,216.5 L175.4,216.6 L175.5,216.8 L175.6,216.9
		L175.8,217.0 L175.9,217.1 L176.1,217.3 L176.2,217.4 L176.4,217.5 L176.5,217.7 L176.7,217.8 L176.8,217.9
		L176.9,218.0 L177.1,218.2 L177.2,218.3 L177.4,218.4 L177.5,218.5 L177.7,218.7 L177.8,218.8 L178.0,218.9
		L178.1,219.0 L178.3,219.2 L178.4,219.3 L178.6,219.4 L178.7,219.5 L178.8,219.7 L179.0,219.8 L179.1,219.9
		L179.3,220.0 L179.4,220.2 L179.6,220.3 L179.7,220.4 L179.9,220.5 L180.0,220.6 L180.2,220.8 L180.3,220.9
		L180.5,221.0 L180.6,221.1 L180.8,221.2 L181.0,221.4 L181.1,221.5 L181.3,221.6 L181.4,221.7 L181.6,221.8
		L181.7,222.0 L181.9,222.1 L182.0,222.2 L182.2,222.3 L182.3,222.4 L182.5,222.5 L182.6,222.7 L182.8,222.8
		L183.0,222.9 L183.1,223.0 L183.3,223.1 L183.4,223.2 L183.6,223.4 L183.7,223.5 L183.9,223.6 L184.0,223.7
		L184.2,223.8 L184.4,223.9 L184.5,224.0 L184.7,224.2 L184.8,224.3 L185.0,224.4 L185.2,224.5 L185.3,224.6
		L185.5,224.7 L185.6,224.8 L185.8,224.9 L186.0,225.1 L186.1,225.2 L186.3,225.3 L186.4,225.4 L186.6,225.5
		L186.8,225.6 L186.9,225.7 L187.1,225.8 L187.2,225.9 L187.4,226.0 L187.6,226.1 L187.7,226.3 L187.9,226.4
		L188.1,226.5 L188.2,226.6 L188.4,226.7 L188.5,226.8 L188.7,226.9 L188.9,227.0 L189.0,227.1 L189.2,227.2
		L189.4,227.3 L189.5,227.4 L189.7,227.5 L189.9,227.6 L190.0,227.7 L190.2,227.8 L190.4,227.9 L190.5,228.0
		L190.7,228.1 L190.9,228.3 L191.0,228.4 L191.2,228.5 L191.4,228.6 L191.5,228.7 L191.7,228.8 L191.9,228.9
		L192.0,229.0 L192.2,229.1 L192.4,229.2 L192.5,229.3 L192.7,229.4 L192.9,229.5 L193.0,229.6 L193.2,229.7
		L193.4,229.8 L193.6,229.9 L193.7,229.9 L193.9,230.0 L194.1,230.1 L194.2,230.2 L194.4,230.3 L194.6,230.4
		L194.8,230.5 L194.9,230.6 L195.1,230.7 L195.3,230.8 L195.4,230.9 L195.6,231.0 L195.8,231.1 L196.0,231.2
		L196.1,231.3 L196.3,231.4 L196.5,231.5 L196.6,231.6 L196.8,231.7 L197.0,231.7 L197.2,231.8 L197.3,231.9
		L197.5,232.0 L197.7,232.1 L197.9,232.2 L198.0,232.3 L198.2,232.4 L198.4,232.5 L198.6,232.6 L198.7,232.6
		L198.9,232.7 L199.1,232.8 L199.3,232.9 L199.4,233.0 L199.6,233.1 L199.8,233.2 L200.0,233.3 L200.2,233.3
		L200.3,233.4 L200.5,233.5 L200.7,233.6 L200.9,233.7 L201.0,233.8 L201.2,233.9 L201.4,233.9 L201.6,234.0
		L201.7,234.1 L201.9,234.2 L202.1,234.3 L202.3,234.4 L202.5,234.4 L202.6,234.5 L202.8,234.6 L203.0,234.7
		L203.2,234.8 L203.4,234.9 L203.5,234.9 L203.7,235.0 L203.9,235.1 L204.1,235.2 L204.3,235.3 L204.4,235.3
		L204.6,235.4 L204.8,235.5 L205.0,235.6 L205.2,235.6 L205.3,235.7 L205.5,235.8 L205.7,235.9 L205.9,236.0
		L206.1,236.0 L206.2,236.1 L206.4,236.2 L206.6,236.3 L206.8,236.3 L207.0,236.4 L207.2,236.5 L207.3,236.6
		L207.5,236.6 L207.7,236.7 L207.9,236.8 L208.1,236.9 L208.3,236.9 L208.4,237.0 L208.6,237.1 L208.8,237.1
		L209.0,237.2 L209.2,237.3 L209.4,237.4 L209.5,237.4 L209.7,237.5 L209.9,237.6 L210.1,237.6 L210.3,237.7
		L210.5,237.8 L210.6,237.8 L210.8,237.9 L211.0,238.0 L211.2,238.0 L211.4,238.1 L211.6,238.2 L211.8,238.2
		L211.9,238.3 L212.1,238.4 L212.3,238.4 L212.5,238.5 L212.7,238.6 L212.9,238.6 L213.1,238.7 L213.2,238.8
		L213.4,238.8 L213.6,238.9 L213.8,239.0 L214.0,239.0 L214.2,239.1 L214.4,239.1 L214.5,239.2 L214.7,239.3
		L214.9,239.3 L215.1,239.4 L215.3,239.5 L215.5,239.5 L215.7,239.6 L215.9,239.6 L216.0,239.7 L216.2,239.8
		L216.4,239.8 L216.6,239.9 L216.8,239.9 L217.0,240.0 L217.2,240.0 L217.4,240.1 L217.5,240.2 L217.7,240.2
		L217.9,240.3 L218.1,240.3 L218.3,240.4 L218.5,240.4 L218.7,240.5 L218.9,240.6 L219.0,240.6 L219.2,240.7
		L219.4,240.7 L219.6,240.8 L219.8,240.8 L220.0,240.9 L220.2,240.9 L220.4,241.0 L220.6,241.0 L220.7,241.1
		L220.9,241.1 L221.1,241.2 L221.3,241.2 L221.5,241.3 L221.7,241.3 L221.9,241.4 L222.1,241.4 L222.3,241.5
		L222.4,241.5 L222.6,241.6 L222.8,241.6 L223.0,241.7 L223.2,241.7 L223.4,241.8 L223.6,241.8 L223.8,241.9
		L224.0,241.9 L224.2,242.0 L224.3,242.0 L224.5,242.0 L224.7,242.1 L224.9,242.1 L225.1,242.2 L225.3,242.2
		L225.5,242.3 L225.7,242.3 L225.9,242.4 L226.1,242.4 L226.2,242.4 L226.4,242.5 L226.6,242.5 L226.8,242.6
		L227.0,242.6 L227.2,242.6 L227.4,242.7 L227.6,242.7 L227.8,242.8 L228.0,242.8 L228.1,242.8 L228.3,242.9
		L228.5,242.9 L228.7,243.0 L228.9,243.0 L229.1,243.0 L229.3,243.1 L229.5,243.1 L229.7,243.2 L229.9,243.2
		L230.1,243.2 L230.2,243.3 L230.4,243.3 L230.6,243.3 L230.8,243.4 L231.0,243.4 L231.2,243.4 L231.4,243.5
		L231.6,243.5 L231.8,243.5 L232.0,243.6 L232.1,243.6 L232.3,243.6 L232.5,243.7 L232.7,243.7 L232.9,243.7
		L233.1,243.8 L233.3,243.8 L233.5,243.8 L233.7,243.9 L233.9,243.9 L234.1,243.9 L234.2,243.9 L234.4,244.0
		L234.6,244.0 L234.8,244.0 L235.0,244.1 L235.2,244.1 L235.4,244.1 L235.6,244.1 L235.8,244.2 L236.0,244.2
		L236.2,244.2 L236.3,244.2 L236.5,244.3 L236.7,244.3 L236.9,244.3 L237.1,244.3 L237.3,244.4 L237.5,244.4
		L237.7,244.4 L237.9,244.4 L238.1,244.5 L238.2,244.5 L238.4,244.5 L238.6,244.5 L238.8,244.5 L239.0,244.6
		L239.2,244.6 L239.4,244.6 L239.6,244.6 L239.8,244.7 L240.0,244.7 L240.1,244.7 L240.3,244.7 L240.5,244.7
		L240.7,244.7 L240.9,244.8 L241.1,244.8 L241.3,244.8 L241.5,244.8 L241.7,244.8 L241.9,244.9 L242.0,244.9
		L242.2,244.9 L242.4,244.9 L242.6,244.9 L242.8,244.9 L243.0,244.9 L243.2,245.0 L243.4,245.0 L243.6,245.0
		L243.7,245.0 L243.9,245.0 L244.1,245.0 L244.3,245.0 L244.5,245.1 L244.7,245.1 L244.9,245.1 L245.1,245.1
		L245.3,245.1 L245.4,245.1 L245.6,245.1 L245.8,245.1 L246.0,245.1 L246.2,245.2 L246.4,245.2 L246.6,245.2
		L246.8,245.2 L246.9,245.2 L247.1,245.2 L247.3,245.2 L247.5,245.2 L247.7,245.2 L247.9,245.2 L248.1,245.2
		L248.3,245.2 L248.4,245.2 L248.6,245.3 L248.8,245.3 L249.0,245.3 L249.2,245.3 L249.4,245.3 L249.6,245.3
		L249.8,245.3 L249.9,245.3 L250.1,245.3 L250.3,245.3 L250.5,245.3 L250.7,245.3 L250.9,245.3 L251.1,245.3
		L251.2,245.3 L251.4,245.3 L251.6,245.3 L251.8,245.3 L252.0,245.3 L252.2,245.3 L252.4,245.3 L252.5,245.3
		L252.7,245.3 L252.9,245.3 L253.1,245.3 L253.3,245.3 L253.5,245.3 L253.7,245.3 L253.8,245.3 L254.0,245.3
		L254.2,245.3 L254.4,245.3 L254.6,245.3 L254.8,245.3 L254.9,245.3 L255.1,245.3 L255.3,245.3 L255.5,245.3
		L255.7,245.2 L255.9,245.2 L256.0,245.2 L256.2,245.2 L256.4,245.2 L256.6,245.2 L256.8,245.2 L257.0,245.2
		L257.1,245.2 L257.3,245.2 L257.5,245.2 L257.7,245.2 L257.9,245.2 L258.0,245.1 L258.2,245.1 L258.4,245.1
		L258.6,245.1 L258.8,245.1 L259.0,245.1 L259.1,245.1 L259.3,245.1 L259.5,245.1 L259.7,245.0 L259.9,245.0
		L260.0,245.0 L260.2,245.0 L260.4,245.0 L260.6,245.0 L260.8,245.0 L260.9,245.0 L261.1,244.9 L261.3,244.9
		L261.5,244.9 L261.7,244.9 L261.8,244.9 L262.0,244.9 L262.2,244.9 L262.4,244.8 L262.5,244.8 L262.7,244.8
		L262.9,244.8 L263.1,244.8 L263.3,244.8 L263.4,244.7 L263.6,244.7 L263.8,244.7 L264.0,244.7 L264.1,244.7
		L264.3,244.6 L264.5,244.6 L264.7,244.6 L264.9,244.6 L265.0,244.6 L265.2,244.5 L265.4,244.5 L265.6,244.5
		L265.7,244.5 L265.9,244.5 L266.1,244.4 L266.3,244.4 L266.4,244.4 L266.6,244.4 L266.8,244.3 L267.0,244.3
		L267.1,244.3 L267.3,244.3 L267.5,244.2 L267.6,244.2 L267.8,244.2 L268.0,244.2 L268.2,244.1 L268.3,244.1
		L268.5,244.1 L268.7,244.1 L268.9,244.0 L269.0,244.0 L269.2,244.0 L269.4,244.0 L269.5,243.9 L269.7,243.9
		L269.9,243.9 L270.1,243.8 L270.2,243.8 L270.4,243.8 L270.6,243.8 L270.7,243.7 L270.9,243.7 L271.1,243.7
		L271.3,243.6 L271.4,243.6 L271.6,243.6 L271.8,243.6 L271.9,243.5 L272.1,243.5 L272.3,243.5 L272.4,243.4
		L272.6,243.4 L272.8,243.4 L272.9,243.3 L273.1,243.3 L273.3,243.3 L273.4,243.2 L273.6,243.2 L273.8,243.2
		L273.9,243.1 L274.1,243.1 L274.3,243.1 L274.4,243.0 L274.6,243.0 L274.8,243.0 L274.9,242.9 L275.1,242.9
		L275.3,242.8 L275.4,242.8 L275.6,242.8 L275.8,242.7 L275.9,242.7 L276.1,242.7 L276.2,242.6 L276.4,242.6
		L276.6,242.5 L276.7,242.5 L276.9,242.5 L277.1,242.4 L277.2,242.4 L277.4,242.4 L277.5,242.3 L277.7,242.3
		L277.9,242.2 L278.0,242.2 L278.2,242.2 L278.4,242.1 L278.5,242.1 L278.7,242.0 L278.8,242.0 L279.0,241.9
		L279.2,241.9 L279.3,241.9 L279.5,241.8 L279.6,241.8 L279.8,241.7 L279.9,241.7 L280.1,241.6 L280.3,241.6
		L280.4,241.6 L280.6,241.5 L280.7,241.5 L280.9,241.4 L281.1,241.4 L281.2,241.3 L281.4,241.3 L281.5,241.2
		L281.7,241.2 L281.8,241.1 L282.0,241.1 L282.1,241.1 L282.3,241.0 L282.4,241.0 L282.6,240.9 L282.8,240.9
		L282.9,240.8 L283.1,240.8 L283.2,240.7 L283.4,240.7 L283.5,240.6 L283.7,240.6 L283.8,240.5 L284.0,240.5
		L284.1,240.4 L284.3,240.4 L284.4,240.3 L284.6,240.3 L284.7,240.2 L284.9,240.2 L285.0,240.1 L285.2,240.1
		L285.3,240.0 L285.5,240.0 L285.6,239.9 L285.8,239.9 L285.9,239.8 L286.1,239.8 L286.2,239.7 L286.4,239.7
		L286.5,239.6 L286.7,239.6 L286.8,239.5 L287.0,239.4 L287.1,239.4 L287.3,239.3 L287.4,239.3 L287.5,239.2
		L287.7,239.2 L287.8,239.1 L288.0,239.1 L288.1,239.0 L288.3,239.0 L288.4,238.9 L288.6,238.8 L288.7,238.8
		L288.8,238.7 L289.0,238.7 L289.1,238.6 L289.3,238.6 L289.4,238.5 L289.6,238.5 L289.7,238.4 L289.8,238.3
		L290.0,238.3 L290.1,238.2 L290.3,238.2 L290.4,238.1 L290.5,238.0 L290.7,238.0 L290.8,237.9 L291.0,237.9
		L291.1,237.8 L291.2,237.7 L291.4,237.7 L291.5,237.6 L291.6,237.6 L291.8,237.5 L291.9,237.4 L292.1,237.4
		L292.2,237.3 L292.3,237.3 L292.5,237.2 L292.6,237.1 L292.7,237.1 L292.9,237.0 L293.0,237.0 L293.1,236.9
		L293.3,236.8 L293.4,236.8 L293.5,236.7 L293.7,236.6 L293.8,236.6 L293.9,236.5 L294.1,236.5 L294.2,236.4
		L294.3,236.3 L294.5,236.3 L294.6,236.2 L294.7,236.1 L294.9,236.1 L295.0,236.0 L295.1,235.9 L295.2,235.9
		L295.4,235.8 L295.5,235.7 L295.6,235.7 L295.8,235.6 L295.9,235.5 L296.0,235.5 L296.1,235.4 L296.3,235.3
		L296.4,235.3 L296.5,235.2 L296.6,235.1 L296.8,235.1 L296.9,235.0 L297.0,234.9 L297.1,234.9 L297.3,234.8
		L297.4,234.7 L297.5,234.7 L297.6,234.6 L297.8,234.5 L297.9,234.5 L298.0,234.4 L298.1,234.3 L298.3,234.3
		L298.4,234.2 L298.5,234.1 L298.6,234.1 L298.7,234.0 L298.9,233.9 L299.0,233.8 L299.1,233.8 L299.2,233.7
		L299.3,233.6 L299.5,233.6 L299.6,233.5 L299.7,233.4 L299.8,233.4 L299.9,233.3 L300.0,233.2 L300.2,233.1
		L300.3,233.1 L300.4,233.0 L300.5,232.9 L300.6,232.9 L300.7,232.8 L300.9,232.7 L301.0,232.6 L301.1,232.6
		L301.2,232.5 L301.3,232.4 L301.4,232.3 L301.5,232.3 L301.6,232.2 L301.8,232.1 L301.9,232.1 L302.0,232.0
		L302.1,231.9 L302.2,231.8 L302.3,231.8 L302.4,231.7 L302.5,231.6 L302.6,231.5 L302.7,231.5 L302.9,231.4
		L303.0,231.3 L303.1,231.2 L303.2,231.2 L303.3,231.1 L303.4,231.0 L303.5,230.9 L303.6,230.9 L303.7,230.8
		L303.8,230.7 L303.9,230.6 L304.0,230.6 L304.1,230.5 L304.2,230.4 L304.3,230.3 L304.4,230.3 L304.5,230.2
		L304.6,230.1 L304.7,230.0 L304.9,230.0 L305.0,229.9 L305.1,229.8 L305.2,229.7 L305.3,229.6 L305.4,229.6
		L305.5,229.5 L305.6,229.4 L305.7,229.3 L305.8,229.3 L305.9,229.2 L305.9,229.1 L306.0,229.0 L306.1,229.0
		L306.2,228.9 L306.3,228.8 L306.4,228.7 L306.5,228.6 L306.6,228.6 L306.7,228.5 L306.8,228.4 L306.9,228.3
		L307.0,228.2 L307.1,228.2 L307.2,228.1 L307.3,228.0 L307.4,227.9 L307.5,227.9 L307.6,227.8 L307.7,227.7
		L307.7,227.6 L307.8,227.5 L307.9,227.5 L308.0,227.4 L308.1,227.3 L308.2,227.2 L308.3,227.1 L308.4,227.1
		L308.5,227.0 L308.5,226.9 L308.6,226.8 L308.7,226.7 L308.8,226.7 L308.9,226.6 L309.0,226.5 L309.1,226.4
		L309.2,226.3 L309.3,226.2 L309.4,226.1 L309.5,226.0 L309.6,225.9 L309.7,225.8 L309.8,225.7 L309.9,225.6
		L310.0,225.5 L310.1,225.4 L310.2,225.4 L310.2,225.3 L310.3,225.2 L310.4,225.1 L310.5,225.0 L310.6,224.9
		L310.7,224.8 L310.8,224.7 L310.9,224.6 L310.9,224.5 L311.0,224.5 L311.1,224.4 L311.2,224.3 L311.2,224.2
		L311.3,224.1 L311.4,224.1 L311.5,224.0 L311.5,223.9 L311.6,223.8 L311.7,223.7 L311.8,223.6 L311.9,223.5
		L312.0,223.4 L312.1,223.3 L312.1,223.2 L312.2,223.1 L312.3,223.1 L312.3,223.0 L312.4,222.9 L312.5,222.8
		L312.5,222.7 L312.6,222.7 L312.7,222.6 L312.8,222.5 L312.8,222.4 L312.9,222.3 L313.0,222.2 L313.1,222.1
		L313.2,222.0 L313.2,221.9 L313.3,221.8 L313.3,221.7 L313.4,221.7 L313.5,221.6 L313.5,221.5 L313.6,221.4
		L313.7,221.3 L313.7,221.2 L313.8,221.2 L313.9,221.1 L313.9,221.0 L314.0,220.9 L314.0,220.8 L314.1,220.7
		L314.2,220.7 L314.2,220.6 L314.3,220.5 L314.3,220.4 L314.4,220.3 L314.5,220.2 L314.6,220.1 L314.6,220.0
		L314.7,219.9 L314.7,219.8 L314.8,219.8 L314.8,219.7 L314.9,219.6 L315.0,219.5 L315.0,219.4 L315.1,219.3
		L315.2,219.2 L315.2,219.1 L315.3,219.0 L315.3,218.9 L315.4,218.8 L315.5,218.7 L315.5,218.6 L315.6,218.5
		L315.6,218.4 L315.7,218.3 L315.8,218.2 L315.8,218.1 L315.9,218.0 L315.9,217.9 L316.0,217.9 L316.0,217.8
		L316.1,217.7 L316.1,217.6 L316.2,217.5 L316.2,217.4 L316.3,217.3 L316.3,217.2 L316.4,217.1 L316.4,217.0
		L316.5,216.9 L316.5,216.8 L316.6,216.7 L316.6,216.6 L316.7,216.5 L316.8,216.4 L316.8,216.3 L316.8,216.2
		L316.9,216.1 L316.9,216.0 L317.0,215.9 L317.0,215.8 L317.1,215.7 L317.1,215.6 L317.2,215.5 L317.2,215.4
		L317.2,215.3 L317.3,215.2 L317.3,215.1 L317.4,215.0 L317.4,214.9 L317.4,214.8 L317.5,214.8 L317.5,214.7
		L317.5,214.6 L317.6,214.5 L317.6,214.4 L317.7,214.3 L317.7,214.2 L317.7,214.1 L317.8,214.0 L317.8,213.9
		L317.9,213.8 L317.9,213.7 L317.9,213.6 L318.0,213.5 L318.0,213.4 L318.0,213.3 L318.0,213.2 L318.1,213.2
		L318.1,213.1 L318.1,213.0 L318.1,212.9 L318.2,212.8 L318.2,212.7 L318.2,212.6 L318.3,212.5 L318.3,212.4
		L318.3,212.3 L318.4,212.2 L318.4,212.1 L318.4,212.0 L318.4,211.9 L318.5,211.8 L318.5,211.7 L318.5,211.6
		L318.5,211.5 L318.5,211.4 L318.6,211.4 L318.6,211.3 L318.6,211.2 L318.6,211.1 L318.6,211.0 L318.7,210.9
		L318.7,210.8 L318.7,210.7 L318.7,210.6 L318.7,210.5 L318.8,210.5 L318.8,210.4 L318.8,210.3 L318.8,210.2
		L318.8,210.1 L318.8,210.0 L318.8,209.9 L318.9,209.8 L318.9,209.7 L318.9,209.6 L318.9,209.5 L318.9,209.4
		L318.9,209.3 L318.9,209.2 L318.9,209.1 L319.0,209.0 L319.0,208.9 L319.0,208.8 L319.0,208.7 L319.0,208.6
		L319.0,208.5 L319.0,208.4 L319.0,208.3 L319.0,208.2 L319.0,208.1 L319.0,208.0 L319.0,207.9 L319.0,207.8
		L319.0,207.7 L319.0,207.6 L319.0,207.5 L319.0,207.4 L319.0,207.3 L319.0,207.2 L319.0,207.1 L319.0,207.0
		L319.0,206.9 L319.0,206.8 L319.0,206.7 L319.0,206.6 L319.0,206.5 L319.0,206.4 L319.0,206.3 L319.0,206.2
		L319.0,206.1 L318.9,206.1 L318.9,206.0 L318.9,205.9 L318.9,205.8 L318.9,205.7 L318.9,205.6 L318.9,205.5
		L318.9,205.4 L318.8,205.3 L318.8,205.2 L318.8,205.1 L318.8,205.0 L318.8,204.9 L318.8,204.8 L318.7,204.7
		L318.7,204.6 L318.7,204.5 L318.7,204.4 L318.6,204.3 L318.6,204.2 L318.6,204.1 L318.6,204.0 L318.5,203.9
		L318.5,203.8 L318.5,203.7 L318.5,203.6 L318.4,203.6 L318.4,203.5 L318.4,203.4 L318.4,203.3 L318.3,203.3
		L318.3,203.2 L318.3,203.1 L318.2,203.0 L318.2,202.9 L318.2,202.8 L318.1,202.7 L318.1,202.6 L318.0,202.5
		L318.0,202.4 L317.9,202.3 L317.9,202.2 L317.9,202.1 L317.8,202.1 L317.8,202.0 L317.8,201.9 L317.7,201.9
		L317.7,201.8 L317.6,201.7 L317.6,201.6 L317.5,201.5 L317.5,201.4 L317.4,201.3 L317.4,201.2 L317.3,201.2
		L317.3,201.1 L317.2,201.0 L317.2,200.9 L317.1,200.9 L317.1,200.8 L317.0,200.7 L317.0,200.6 L316.9,200.6
		L316.9,200.5 L316.8,200.5 L316.8,200.4 L316.7,200.3 L316.6,200.2 L316.6,200.1 L316.5,200.1 L316.5,200.0
		L316.4,200.0 L316.4,199.9 L316.3,199.9 L316.3,199.8 L316.2,199.8 L316.2,199.7 L316.1,199.7 L316.1,199.6
		L316.0,199.5 L315.9,199.5 L315.9,199.4 L315.8,199.4 L315.8,199.3 L315.7,199.3 L315.7,199.2 L315.6,199.2
		L315.6,199.1 L315.5,199.1 L315.5,199.0 L315.4,199.0 L315.3,199.0 L315.3,198.9 L315.2,198.9 L315.2,198.8
		L315.1,198.8 L315.0,198.7 L314.9,198.7 L314.9,198.6 L314.8,198.6 L314.7,198.5 L314.6,198.5 L314.6,198.4
		L314.5,198.4 L314.4,198.3 L314.3,198.3 L314.2,198.3 L314.2,198.2 L314.1,198.2 L314.0,198.1 L313.9,198.1
		L313.8,198.0 L313.7,198.0 L313.6,198.0 L313.6,197.9 L313.5,197.9 L313.4,197.9 L313.3,197.9 L313.3,197.8
		L313.2,197.8 L313.1,197.8 L313.0,197.8 L313.0,197.7 L312.9,197.7 L312.8,197.7 L312.7,197.7 L312.6,197.6
		L312.5,197.6 L312.4,197.6 L312.3,197.6 L312.2,197.6 L312.1,197.5 L312.0,197.5 L311.9,197.5 L311.8,197.5
		L311.7,197.5 L311.6,197.5 L311.5,197.5 L311.4,197.5 L311.3,197.5 L311.2,197.5 L311.1,197.5 L311.0,197.5
		L310.9,197.5 L310.8,197.5 L310.7,197.5 L310.6,197.5 L310.5,197.5 L310.4,197.5 L310.3,197.5 L310.2,197.6
		L310.1,197.6 L310.0,197.6 L309.9,197.6 L309.8,197.6 L309.7,197.7 L309.6,197.7 L309.5,197.7 L309.4,197.7
		L309.4,197.8 L309.3,197.8 L309.2,197.8 L309.1,197.8 L309.1,197.9 L309.0,197.9 L308.9,197.9 L308.9,198.0
		L308.8,198.0 L308.7,198.0 L308.6,198.1 L308.5,198.1 L308.4,198.2 L308.3,198.2 L308.3,198.3 L308.2,198.3
		L308.1,198.3 L308.1,198.4 L308.0,198.4 L307.9,198.5 L307.8,198.5 L307.8,198.6 L307.7,198.6 L307.6,198.7
		L307.5,198.8 L307.4,198.8 L307.4,198.9 L307.3,198.9 L307.3,199.0 L307.2,199.0 L307.2,199.1 L307.1,199.1
		L307.1,199.2 L307.0,199.2 L307.0,199.3 L306.9,199.3 L306.9,199.4 L306.8,199.4 L306.8,199.5 L306.7,199.5
		L306.7,199.6 L306.6,199.6 L306.6,199.7 L306.5,199.7 L306.5,199.8 L306.5,199.9 L306.4,199.9 L306.4,200.0
		L306.3,200.0 L306.3,200.1 L306.2,200.2 L306.2,200.3 L306.1,200.3 L306.1,200.4 L306.1,200.5 L306.0,200.5
		L306.0,200.6 L305.9,200.7 L305.9,200.8 L305.8,200.9 L305.8,201.0 L305.7,201.1 L305.7,201.2 L305.6,201.3
		L305.6,201.4 L305.6,201.5 L305.5,201.6 L305.5,201.7 L305.5,201.8 L305.4,201.8 L305.4,201.9 L305.4,202.0
		L305.4,202.1 L305.3,202.1 L305.3,202.2 L305.3,202.3 L305.3,202.4 L305.2,202.5 L305.2,202.6 L305.2,202.7
		L305.2,202.8 L305.2,202.9 L305.1,203.0 L305.1,203.1 L305.1,203.2 L305.1,203.3 L305.1,203.4 L305.1,203.5
		L305.1,203.6 L305.1,203.7 L305.0,203.7 L305.0,203.8 L305.0,203.9 L305.0,204.0 L305.0,204.1 L305.0,204.2
		L305.0,204.3 L305.0,204.4 L305.0,204.5 L305.0,204.6 L305.0,204.7 L305.0,204.8 L305.0,204.9 L305.0,205.0
		L305.0,205.1 L305.0,205.2 L305.0,205.3 L305.0,205.4 L305.0,205.5 L305.0,205.6 L305.1,205.7 L305.1,205.8
		L305.1,205.9 L305.1,206.0 L305.1,206.1 L305.1,206.2 L305.1,206.3 L305.1,206.4 L305.2,206.5 L305.2,206.6
		L305.2,206.7 L305.2,206.8 L305.2,206.9 L305.3,207.0 L305.3,207.1 L305.3,207.2 L305.3,207.3 L305.3,207.4
		L305.4,207.5 L305.4,207.6 L305.4,207.7 L305.4,207.8 L305.5,207.9 L305.5,208.0 L305.5,208.1 L305.5,208.2
		L305.6,208.3 L305.6,208.4 L305.6,208.5 L305.7,208.6 L305.7,208.7 L305.7,208.8 L305.8,208.8 L305.8,208.9
		L305.8,209.0 L305.8,209.1 L305.9,209.1 L305.9,209.2 L305.9,209.3 L305.9,209.4 L306.0,209.4 L306.0,209.5
		L306.0,209.6 L306.1,209.7 L306.1,209.8 L306.2,209.9 L306.2,210.0 L306.2,210.1 L306.3,210.2 L306.3,210.3
		L306.4,210.4 L306.4,210.5 L306.5,210.6 L306.5,210.7 L306.6,210.8 L306.6,210.9 L306.7,211.0 L306.7,211.1
		L306.8,211.2 L306.8,211.3 L306.9,211.4 L306.9,211.5 L307.0,211.6 L307.0,211.7 L307.1,211.8 L307.1,211.9
		L307.2,211.9 L307.2,212.0 L307.3,212.1 L307.3,212.2 L307.4,212.3 L307.4,212.4 L307.5,212.5 L307.5,212.6
		L307.6,212.6 L307.6,212.7 L307.7,212.8 L307.7,212.9 L307.8,213.0 L307.9,213.1 L307.9,213.2 L308.0,213.3
		L308.1,213.4 L308.1,213.5 L308.2,213.6 L308.2,213.7 L308.3,213.7 L308.4,213.8 L308.4,213.9 L308.5,214.0
		L308.5,214.1 L308.6,214.1 L308.6,214.2 L308.7,214.3 L308.8,214.4 L308.8,214.5 L308.9,214.5 L308.9,214.6
		L309.0,214.7 L309.1,214.8 L309.1,214.9 L309.2,214.9 L309.2,215.0 L309.3,215.1 L309.4,215.2 L309.4,215.3
		L309.5,215.3 L309.6,215.4 L309.6,215.5 L309.7,215.6 L309.8,215.7 L309.9,215.8 L310.0,215.9 L310.0,216.0
		L310.1,216.1 L310.2,216.1 L310.2,216.2 L310.3,216.3 L310.4,216.4 L310.5,216.5 L310.6,216.6 L310.7,216.7
		L310.7,216.8 L310.8,216.9 L310.9,216.9 L311.0,217.0 L311.0,217.1 L311.1,217.2 L311.2,217.3 L311.3,217.3
		L311.3,217.4 L311.4,217.5 L311.5,217.6 L311.6,217.7 L311.7,217.7 L311.7,217.8 L311.8,217.9 L311.9,218.0
		L312.0,218.0 L312.1,218.1 L312.1,218.2 L312.2,218.3 L312.3,218.4 L312.4,218.4 L312.5,218.5 L312.6,218.6
		L312.7,218.7 L312.7,218.8 L312.8,218.8 L312.9,218.9 L313.0,219.0 L313.1,219.1 L313.2,219.2 L313.3,219.2
		L313.4,219.3 L313.4,219.4 L313.5,219.5 L313.6,219.6 L313.7,219.6 L313.8,219.7 L313.9,219.8 L314.0,219.9
		L314.1,220.0 L314.2,220.0 L314.3,220.1 L314.4,220.2 L314.5,220.3 L314.6,220.3 L314.7,220.4 L314.8,220.5
		L314.9,220.6 L315.0,220.7 L315.1,220.7 L315.2,220.8 L315.3,220.9 L315.4,221.0 L315.5,221.0 L315.6,221.1
		L315.7,221.2 L315.8,221.3 L315.9,221.4 L316.0,221.4 L316.1,221.5 L316.2,221.6 L316.3,221.7 L316.4,221.7
		L316.5,221.8 L316.6,221.9 L316.7,222.0 L316.8,222.0 L316.9,222.1 L317.0,222.2 L317.1,222.3 L317.2,222.4
		L317.4,222.4 L317.5,222.5 L317.6,222.6 L317.7,222.7 L317.8,222.7 L317.9,222.8 L318.0,222.9 L318.1,223.0
		L318.3,223.0 L318.4,223.1 L318.5,223.2 L318.6,223.3 L318.7,223.3 L318.8,223.4 L318.9,223.5 L319.1,223.6
		L319.2,223.6 L319.3,223.7 L319.4,223.8 L319.5,223.8 L319.7,223.9 L319.8,224.0 L319.9,224.1 L320.0,224.1
		L320.1,224.2 L320.3,224.3 L320.4,224.4 L320.5,224.4 L320.6,224.5 L320.8,224.6 L320.9,224.6 L321.0,224.7
		L321.1,224.8 L321.3,224.9 L321.4,224.9 L321.5,225.0 L321.6,225.1 L321.8,225.1 L321.9,225.2 L322.0,225.3
		L322.2,225.4 L322.3,225.4 L322.4,225.5 L322.6,225.6 L322.7,225.6 L322.8,225.7 L322.9,225.8 L323.1,225.8
		L323.2,225.9 L323.3,226.0 L323.5,226.1 L323.6,226.1 L323.8,226.2 L323.9,226.3 L324.0,226.3 L324.2,226.4
		L324.3,226.5 L324.4,226.5 L324.6,226.6 L324.7,226.7 L324.9,226.7 L325.0,226.8 L325.1,226.9 L325.3,226.9
		L325.4,227.0 L325.6,227.1 L325.7,227.1 L325.8,227.2 L326.0,227.3 L326.1,227.3 L326.3,227.4 L326.4,227.4
		L326.6,227.5 L326.7,227.6 L326.9,227.6 L327.0,227.7 L327.2,227.8 L327.3,227.8 L327.5,227.9 L327.6,228.0
		L327.7,228.0 L327.9,228.1 L328.0,228.1 L328.2,228.2 L328.3,228.3 L328.5,228.3 L328.7,228.4 L328.8,228.4
		L329.0,228.5 L329.1,228.6 L329.3,228.6 L329.4,228.7 L329.6,228.7 L329.7,228.8 L329.9,228.9 L330.0,228.9
		L330.2,229.0 L330.4,229.0 L330.5,229.1 L330.7,229.2 L330.8,229.2 L331.0,229.3 L331.1,229.3 L331.3,229.4
		L331.5,229.4 L331.6,229.5 L331.8,229.5 L331.9,229.6 L332.1,229.7 L332.3,229.7 L332.4,229.8 L332.6,229.8
		L332.8,229.9 L332.9,229.9 L333.1,230.0 L333.3,230.0 L333.4,230.1 L333.6,230.1 L333.8,230.2 L333.9,230.2
		L334.1,230.3 L334.3,230.4 L334.4,230.4 L334.6,230.5 L334.8,230.5 L334.9,230.6 L335.1,230.6 L335.3,230.7
		L335.4,230.7 L335.6,230.8 L335.8,230.8 L336.0,230.9 L336.1,230.9 L336.3,231.0 L336.5,231.0 L336.6,231.0
		L336.8,231.1 L337.0,231.1 L337.2,231.2 L337.3,231.2 L337.5,231.3 L337.7,231.3 L337.9,231.4 L338.0,231.4
		L338.2,231.5 L338.4,231.5 L338.6,231.5 L338.8,231.6 L338.9,231.6 L339.1,231.7 L339.3,231.7 L339.5,231.8
		L339.7,231.8 L339.8,231.8 L340.0,231.9 L340.2,231.9 L340.4,232.0 L340.6,232.0 L340.7,232.1 L340.9,232.1
		L341.1,232.1 L341.3,232.2 L341.5,232.2 L341.7,232.2 L341.9,232.3 L342.0,232.3 L342.2,232.4 L342.4,232.4
		L342.6,232.4 L342.8,232.5 L343.0,232.5 L343.2,232.5 L343.3,232.6 L343.5,232.6 L343.7,232.6 L343.9,232.7
		L344.1,232.7 L344.3,232.7 L344.5,232.8 L344.7,232.8 L344.9,232.8 L345.1,232.9 L345.3,232.9 L345.4,232.9
		L345.6,233.0 L345.8,233.0 L346.0,233.0 L346.2,233.1 L346.4,233.1 L346.6,233.1 L346.8,233.2 L347.0,233.2
		L347.2,233.2 L347.4,233.2 L347.6,233.3 L347.8,233.3 L348.0,233.3 L348.2,233.3 L348.4,233.4 L348.6,233.4
		L348.8,233.4 L349.0,233.4 L349.2,233.5 L349.4,233.5 L349.6,233.5 L349.8,233.5 L350.0,233.6 L350.2,233.6
		L350.4,233.6 L350.6,233.6 L350.8,233.6 L351.0,233.7 L351.2,233.7 L351.4,233.7 L351.6,233.7 L351.8,233.7
		L352.0,233.8 L352.2,233.8 L352.4,233.8 L352.6,233.8 L352.8,233.8 L353.0,233.9 L353.2,233.9 L353.4,233.9
		L353.6,233.9 L353.8,233.9 L354.0,233.9 L354.2,233.9 L354.5,234.0 L354.7,234.0 L354.9,234.0 L355.1,234.0
		L355.3,234.0 L355.5,234.0 L355.7,234.0 L355.9,234.0 L356.1,234.0 L356.3,234.1 L356.5,234.1 L356.8,234.1
		L357.0,234.1 L357.2,234.1 L357.4,234.1 L357.6,234.1 L357.8,234.1 L358.0,234.1 L358.2,234.1 L358.5,234.1
		L358.7,234.1 L358.9,234.1 L359.1,234.1 L359.3,234.2 L359.5,234.2 L359.7,234.2 L359.9,234.2 L360.2,234.2
		L360.4,234.2 L360.6,234.2 L360.8,234.2 L361.0,234.2 L361.2,234.2 L361.5,234.2 L361.7,234.2 L361.9,234.2
		L362.1,234.2 L362.3,234.2 L362.5,234.2 L362.8,234.1 L363.0,234.1 L363.2,234.1 L363.4,234.1 L363.6,234.1
		L363.9,234.1 L364.1,234.1 L364.3,234.1 L364.5,234.1 L364.7,234.1 L365.0,234.1 L365.2,234.1 L365.4,234.1
		L365.6,234.1 L365.8,234.1 L366.1,234.0 L366.3,234.0 L366.5,234.0 L366.7,234.0 L366.9,234.0 L367.2,234.0
		L367.4,234.0 L367.6,234.0 L367.8,233.9 L368.1,233.9 L368.3,233.9 L368.5,233.9 L368.7,233.9 L369.0,233.9
		L369.2,233.8 L369.4,233.8 L369.6,233.8 L369.8,233.8 L370.1,233.8 L370.3,233.7 L370.5,233.7 L370.7,233.7
		L371.0,233.7 L371.2,233.7 L371.4,233.6 L371.6,233.6 L371.9,233.6 L372.1,233.6 L372.3,233.5 L372.6,233.5
		L372.8,233.5 L373.0,233.5 L373.2,233.4 L373.5,233.4 L373.7,233.4 L373.9,233.4 L374.1,233.3 L374.4,233.3
		L374.6,233.3 L374.8,233.3 L375.1,233.2 L375.3,233.2 L375.5,233.2 L375.7,233.1 L376.0,233.1 L376.2,233.1
		L376.4,233.0 L376.7,233.0 L376.9,233.0 L377.1,232.9 L377.3,232.9 L377.6,232.9 L377.8,232.8 L378.0,232.8
		L378.3,232.7 L378.5,232.7 L378.7,232.7 L379.0,232.6 L379.2,232.6 L379.4,232.6 L379.6,232.5 L379.9,232.5
		L380.1,232.4 L380.3,232.4 L380.6,232.3 L380.8,232.3 L381.0,232.3 L381.3,232.2 L381.5,232.2 L381.7,232.1
		L382.0,232.1 L382.2,232.0 L382.4,232.0 L382.6,231.9 L382.9,231.9 L383.1,231.8 L383.3,231.8 L383.6,231.7
		L383.8,231.7 L384.0,231.6 L384.3,231.6 L384.5,231.5 L384.7,231.5 L385.0,231.4 L385.2,231.4 L385.4,231.3
		L385.7,231.3 L385.9,231.2 L386.1,231.2 L386.4,231.1 L386.6,231.1 L386.8,231.0 L387.1,230.9 L387.3,230.9
		L387.5,230.8 L387.8,230.8 L388.0,230.7 L388.2,230.6 L388.5,230.6 L388.7,230.5 L388.9,230.5 L389.1,230.4
		L389.4,230.3 L389.6,230.3 L389.8,230.2 L390.1,230.1 L390.3,230.1 L390.5,230.0 L390.8,229.9 L391.0,229.9
		L391.2,229.8 L391.5,229.7 L391.7,229.7 L391.9,229.6 L392.2,229.5 L392.4,229.5 L392.6,229.4 L392.9,229.3
		L393.1,229.3 L393.3,229.2 L393.6,229.1 L393.8,229.0 L394.0,229.0 L394.3,228.9 L394.5,228.8 L394.7,228.7
		L395.0,228.7 L395.2,228.6 L395.4,228.5 L395.7,228.4 L395.9,228.4 L396.1,228.3 L396.4,228.2 L396.6,228.1
		L396.8,228.0 L397.0,228.0 L397.3,227.9 L397.5,227.8 L397.7,227.7 L398.0,227.6 L398.2,227.5 L398.4,227.5
		L398.7,227.4 L398.9,227.3 L399.1,227.2 L399.4,227.1 L399.6,227.0 L399.8,226.9 L400.1,226.9 L400.3,226.8
		L400.5,226.7 L400.7,226.6 L401.0,226.5 L401.2,226.4 L401.4,226.3 L401.7,226.2 L401.9,226.1 L402.1,226.0
		L402.4,225.9 L402.6,225.8 L402.8,225.7 L403.0,225.7 L403.3,225.6 L403.5,225.5 L403.7,225.4 L404.0,225.3
		L404.2,225.2 L404.4,225.1 L404.6,225.0 L404.9,224.9 L405.1,224.8 L405.3,224.7 L405.6,224.6 L405.8,224.5
		L406.0,224.4 L406.2,224.3 L406.5,224.2 L406.7,224.0 L406.9,223.9 L407.1,223.8 L407.4,223.7 L407.6,223.6
		L407.8,223.5 L408.0,223.4 L408.3,223.3 L408.5,223.2 L408.7,223.1 L408.9,223.0 L409.2,222.9 L409.4,222.7
		L409.6,222.6 L409.8,222.5 L410.1,222.4 L410.3,222.3 L410.5,222.2 L410.7,222.1 L411.0,221.9 L411.2,221.8
		L411.4,221.7 L411.6,221.6 L411.9,221.5 L412.1,221.4 L412.3,221.2 L412.5,221.1 L412.7,221.0 L413.0,220.9
		L413.2,220.8 L413.4,220.6 L413.6,220.5 L413.8,220.4 L414.1,220.3 L414.3,220.1 L414.5,220.0 L414.7,219.9
		L414.9,219.8 L415.2,219.6 L415.4,219.5 L415.6,219.4 L415.8,219.3 L416.0,219.1 L416.3,219.0 L416.5,218.9
		L416.7,218.7 L416.9,218.6 L417.1,218.5 L417.3,218.4 L417.6,218.2 L417.8,218.1 L418.0,218.0 L418.2,217.8
		L418.4,217.7 L418.6,217.5 L418.8,217.4 L419.1,217.3 L419.3,217.1 L419.5,217.0 L419.7,216.9 L419.9,216.7
		L420.1,216.6 L420.3,216.4 L420.5,216.3 L420.8,216.2 L421.0,216.0 L421.2,215.9 L421.4,215.7 L421.6,215.6
		L421.8,215.5 L422.0,215.3 L422.2,215.2 L422.4,215.0 L422.6,214.9 L422.9,214.7 L423.1,214.6 L423.3,214.4
		L423.5,214.3 L423.7,214.1 L423.9,214.0 L424.1,213.8 L424.3,213.7 L424.5,213.5 L424.7,213.4 L424.9,213.2
		L425.1,213.1 L425.3,212.9 L425.5,212.8 L425.7,212.6 L425.9,212.5 L426.1,212.3 L426.3,212.1 L426.5,212.0
		L426.7,211.8 L426.9,211.7 L427.1,211.5 L427.3,211.4 L427.5,211.2 L427.7,211.0 L427.9,210.9 L428.1,210.7
		L428.3,210.6 L428.5,210.4 L428.7,210.2 L428.9,210.1 L429.1,209.9 L429.3,209.7 L429.5,209.6 L429.7,209.4
		L429.9,209.2 L430.1,209.1 L430.3,208.9 L430.5,208.7 L430.7,208.6 L430.9,208.4 L431.0,208.2 L431.2,208.1
		L431.4,207.9 L431.6,207.7 L431.8,207.6 L432.0,207.4 L432.2,207.2 L432.4,207.0 L432.6,206.9 L432.8,206.7
		L432.9,206.5 L433.1,206.3 L433.3,206.2 L433.5,206.0 L433.7,205.8 L433.9,205.6 L434.1,205.5 L434.2,205.3
		L434.4,205.1 L434.6,204.9 L434.8,204.7 L435.0,204.6 L435.1,204.4 L435.3,204.2 L435.5,204.0 L435.7,203.8
		L435.9,203.7 L436.0,203.5 L436.2,203.3 L436.4,203.1 L436.6,202.9 L436.8,202.7 L436.9,202.5 L437.1,202.4
		L437.3,202.2 L437.5,202.0 L437.6,201.8 L437.8,201.6 L438.0,201.4 L438.1,201.2 L438.3,201.0 L438.5,200.8
		L438.7,200.7 L438.8,200.5 L439.0,200.3 L439.2,200.1 L439.3,199.9 L439.5,199.7 L439.7,199.5 L439.8,199.3
		L440.0,199.1 L440.2,198.9 L440.3,198.7 L440.5,198.5 L440.7,198.3 L440.8,198.1 L441.0,197.9 L441.1,197.7
		L441.3,197.5 L441.5,197.3 L441.6,197.1 L441.8,196.9 L441.9,196.7 L442.1,196.5 L442.3,196.3 L442.4,196.1
		L442.6,195.9 L442.7,195.7 L442.9,195.5 L443.0,195.3 L443.2,195.1 L443.4,194.9 L443.5,194.7 L443.7,194.5
		L443.8,194.3 L444.0,194.1 L444.1,193.8 L444.3,193.6 L444.4,193.4 L444.6,193.2 L444.7,193.0 L444.8,192.8
		L445.0,192.6 L445.1,192.4 L445.3,192.2 L445.4,192.0 L445.6,191.7 L445.7,191.5 L445.9,191.3 L446.0,191.1
		L446.1,190.9 L446.3,190.7 L446.4,190.5 L446.6,190.2 L446.7,190.0 L446.8,189.8 L447.0,189.6 L447.1,189.4
		L447.2,189.1 L447.4,188.9 L447.5,188.7 L447.6,188.5 L447.8,188.3 L447.9,188.0 L448.0,187.8 L448.2,187.6
		L448.3,187.4 L448.4,187.2 L448.6,186.9 L448.7,186.7 L448.8,186.5 L448.9,186.3 L449.1,186.0 L449.2,185.8
		L449.3,185.6 L449.4,185.4 L449.6,185.1 L449.7,184.9 L449.8,184.7 L449.9,184.5 L450.0,184.2 L450.2,184.0
		L450.3,183.8 L450.4,183.5 L450.5,183.3 L450.6,183.1 L450.7,182.9 L450.9,182.6 L451.0,182.4 L451.1,182.2
		L451.2,181.9 L451.3,181.7 L451.4,181.5 L451.5,181.2 L451.6,181.0 L451.7,180.8 L451.8,180.5 L451.9,180.3
		L452.1,180.1 L452.2,179.8 L452.3,179.6 L452.4,179.3 L452.5,179.1 L452.6,178.9 L452.7,178.6 L452.8,178.4
		L452.9,178.2 L453.0,177.9 L453.1,177.7 L453.2,177.4 L453.3,177.2 L453.4,177.0 L453.4,176.7 L453.5,176.5
		L453.6,176.2 L453.7,176.0 L453.8,175.7 L453.9,175.5 L454.0,175.3 L454.1,175.0 L454.2,174.8 L454.3,174.5
		L454.3,174.3 L454.4,174.0 L454.5,173.8 L454.6,173.5 L454.7,173.3 L454.8,173.1 L454.8,172.8 L454.9,172.6
		L455.0,172.3 L455.1,172.1 L455.1,171.8 L455.2,171.6 L455.3,171.3 L455.4,171.1 L455.4,170.8 L455.5,170.6
		L455.6,170.3 L455.7,170.1 L455.7,169.8 L455.8,169.6 L455.9,169.3 L455.9,169.1 L456.0,168.8 L456.1,168.6
		L456.1,168.3 L456.2,168.1 L456.3,167.8 L456.3,167.5 L456.4,167.3 L456.4,167.0 L456.5,166.8 L456.6,166.5
		L456.6,166.3 L456.7,166.0 L456.7,165.8 L456.8,165.5 L456.8,165.3 L456.9,165.0 L456.9,164.7 L457.0,164.5
		L457.0,164.2 L457.1,164.0 L457.1,163.7 L457.2,163.5 L457.2,163.2 L457.3,162.9 L457.3,162.7 L457.4,162.4
		L457.4,162.2 L457.5,161.9 L457.5,161.6 L457.5,161.4 L457.6,161.1 L457.6,160.9 L457.6,160.6 L457.7,160.3
		L457.7,160.1 L457.7,159.8 L457.8,159.5 L457.8,159.3 L457.8,159.0 L457.9,158.8 L457.9,158.5 L457.9,158.2
		L458.0,158.0 L458.0,157.7 L458.0,157.4 L458.0,157.2 L458.1,156.9 L458.1,156.6 L458.1,156.4 L458.1,156.1
		L458.1,155.9 L458.2,155.6 L458.2,155.3 L458.2,155.1 L458.2,154.8 L458.2,154.5 L458.2,154.3 L458.2,154.0
		L458.3,153.7 L458.3,153.5 L458.3,153.2 L458.3,152.9 L458.3,152.6 L458.3,152.4 L458.3,152.1 L458.3,151.8
		L458.3,151.6 L458.3,151.3 L458.3,151.0 L458.3,150.8 L458.3,150.5 L458.3,150.2 L458.3,150.0 L458.3,149.7
		L458.3,149.4 L458.3,149.2 L458.3,148.9 L458.3,148.6 L458.3,148.3 L458.2,148.1 L458.2,147.8 L458.2,147.5
		L458.2,147.3 L458.2,147.0 L458.2,146.7 L458.2,146.4 L458.1,146.2 L458.1,145.9 L458.1,145.6 L458.1,145.4
		L458.1,145.1 L458.0,144.8 L458.0,144.5 L458.0,144.3 L458.0,144.0 L457.9,143.7 L457.9,143.5 L457.9,143.2
		L457.8,142.9 L457.8,142.6 L457.8,142.4 L457.7,142.1 L457.7,141.8 L457.7,141.5 L457.6,141.3 L457.6,141.0
		L457.5,140.7 L457.5,140.4 L457.5,140.2 L457.4,139.9 L457.4,139.6 L457.3,139.4 L457.3,139.1 L457.2,138.8
		L457.2,138.5 L457.1,138.3 L457.1,138.0 L457.0,137.7 L457.0,137.4 L456.9,137.2 L456.9,136.9 L456.8,136.6
		L456.8,136.3 L456.7,136.1 L456.6,135.8 L456.6,135.5 L456.5,135.2 L456.5,135.0 L456.4,134.7 L456.3,134.4
		L456.3,134.1 L456.2,133.9 L456.1,133.6 L456.1,133.3 L456.0,133.0 L455.9,132.8 L455.8,132.5 L455.8,132.2
		L455.7,132.0 L455.6,131.7 L455.5,131.4 L455.5,131.1 L455.4,130.9 L455.3,130.6 L455.2,130.3 L455.1,130.0
		L455.1,129.8 L455.0,129.5 L454.9,129.2 L454.8,128.9 L454.7,128.7 L454.6,128.4 L454.5,128.1 L454.4,127.8
		L454.3,127.6 L454.2,127.3 L454.2,127.0 L454.1,126.7 L454.0,126.5 L453.9,126.2 L453.8,125.9 L453.7,125.7
		L453.6,125.4 L453.5,125.1 L453.3,124.8 L453.2,124.6 L453.1,124.3 L453.0,124.0 L452.9,123.7 L452.8,123.5
		L452.7,123.2 L452.6,122.9 L452.5,122.7 L452.4,122.4 L452.2,122.1 L452.1,121.8 L452.0,121.6 L451.9,121.3
		L451.8,121.0 L451.6,120.8 L451.5,120.5 L451.4,120.2 L451.3,119.9 L451.1,119.7 L451.0,119.4 L450.9,119.1
		L450.8,118.9 L450.6,118.6 L450.5,118.3 L450.4,118.1 L450.2,117.8 L450.1,117.5 L450.0,117.3 L449.8,117.0
		L449.7,116.7 L449.5,116.4 L449.4,116.2 L449.3,115.9 L449.1,115.6 L449.0,115.4 L448.8,115.1 L448.7,114.8
		L448.5,114.6 L448.4,114.3 L448.2,114.0 L448.1,113.8 L447.9,113.5 L447.8,113.2 L447.6,113.0 L447.5,112.7
		L447.3,112.5 L447.1,112.2 L447.0,111.9 L446.8,111.7 L446.7,111.4 L446.5,111.1 L446.3,110.9 L446.2,110.6
		L446.0,110.3 L445.8,110.1 L445.7,109.8 L445.5,109.6 L445.3,109.3 L445.1,109.0 L445.0,108.8 L444.8,108.5
		L444.6,108.2 L444.4,108.0 L444.3,107.7 L444.1,107.5 L443.9,107.2 L443.7,107.0 L443.5,106.7 L443.4,106.4
		L443.2,106.2 L443.0,105.9 L442.8,105.7 L442.6,105.4 L442.4,105.1 L442.2,104.9 L442.0,104.6 L441.8,104.4
		L441.6,104.1 L441.4,103.9 L441.3,103.6 L441.1,103.4 L440.9,103.1 L440.7,102.9 L440.5,102.6 L440.3,102.3
		L440.0,102.1 L439.8,101.8 L439.6,101.6 L439.4,101.3 L439.2,101.1 L439.0,100.8 L438.8,100.6 L438.6,100.3
		L438.4,100.1 L438.2,99.8 L438.0,99.6 L437.7,99.3 L437.5,99.1 L437.3,98.9 L437.1,98.6 L436.9,98.4
		L436.6,98.1 L436.4,97.9 L436.2,97.6 L436.0,97.4 L435.7,97.1 L435.5,96.9 L435.3,96.6 L435.1,96.4
		L434.8,96.2 L434.6,95.9 L434.4,95.7 L434.1,95.4 L433.9,95.2 L433.7,95.0 L433.4,94.7 L433.2,94.5
		L432.9,94.2 L432.7,94.0 L432.5,93.8 L432.2,93.5 L432.0,93.3 L431.7,93.1 L431.5,92.8 L431.2,92.6
		L431.0,92.4 L430.7,92.1 L430.5,91.9 L430.2,91.7 L430.0,91.4 L429.7,91.2 L429.5,91.0 L429.2,90.7
		L429.0,90.5 L428.7,90.3 L428.5,90.0 L428.2,89.8 L427.9,89.6 L427.7,89.4 L427.4,89.1 L427.1,88.9
		L426.9,88.7 L426.6,88.5 L426.3,88.2 L426.1,88.0 L425.8,87.8 L425.5,87.6 L425.3,87.3 L425.0,87.1
		L424.7,86.9 L424.4,86.7 L424.2,86.5 L423.9,86.2 L423.6,86.0 L423.3,85.8 L423.1,85.6 L422.8,85.4
		L422.5,85.2 L422.2,84.9 L421.9,84.7 L421.6,84.5 L421.4,84.3 L421.1,84.1 L420.8,83.9 L420.5,83.7
		L420.2,83.5 L419.9,83.2 L419.6,83.0 L419.3,82.8 L419.0,82.6 L418.7,82.4 L418.5,82.2 L418.2,82.0
		L417.9,81.8 L417.6,81.6 L417.3,81.4 L417.0,81.2 L416.7,81.0 L416.4,80.8 L416.1,80.6 L415.7,80.4
		L415.4,80.2 L415.1,80.0 L414.8,79.8 L414.5,79.6 L414.2,79.4 L413.9,79.2 L413.6,79.0 L413.3,78.8
		L413.0,78.6 L412.7,78.4 L412.3,78.2 L412.0,78.0 L411.7,77.8 L411.4,77.6 L411.1,77.5 L410.7,77.3
		L410.4,77.1 L410.1,76.9 L409.8,76.7 L409.5,76.5 L409.1,76.3 L408.8,76.2 L408.5,76.0 L408.2,75.8
		L407.8,75.6 L407.5,75.4 L407.2,75.2 L406.8,75.1 L406.5,74.9 L406.2,74.7 L405.9,74.5 L405.5,74.4
		L405.2,74.2 L404.8,74.0 L404.5,73.8 L404.2,73.7 L403.8,73.5 L403.5,73.3 L403.2,73.1 L402.8,73.0
		L402.5,72.8 L402.1,72.6 L401.8,72.5 L401.4,72.3 L401.1,72.1 L400.8,72.0 L400.4,71.8 L400.1,71.6
		L399.7,71.5 L399.4,71.3 L399.0,71.2 L398.7,71.0 L398.3,70.8 L398.0,70.7 L397.6,70.5 L397.3,70.4
		L396.9,70.2 L396.6,70.1 L396.2,69.9 L395.8,69.8 L395.5,69.6 L395.1,69.5 L394.8,69.3 L394.4,69.2
		L394.1,69.0 L393.7,68.9 L393.3,68.7 L393.0,68.6 L392.6,68.4 L392.2,68.3 L391.9,68.1 L391.5,68.0
		L391.1,67.9 L390.8,67.7 L390.4,67.6 L390.0,67.4 L389.7,67.3 L389.3,67.2 L388.9,67.0 L388.6,66.9
		L388.2,66.8 L387.8,66.6 L387.5,66.5 L387.1,66.4 L386.7,66.2 L386.3,66.1 L386.0,66.0 L385.6,65.9
		L385.2,65.7 L384.8,65.6 L384.4,65.5 L384.1,65.4 L383.7,65.2 L383.3,65.1 L382.9,65.0 L382.6,64.9
		L382.2,64.8 L381.8,64.6 L381.4,64.5 L381.0,64.4 L380.6,64.3 L380.3,64.2 L379.9,64.1 L379.5,64.0
		L379.1,63.8 L378.7,63.7 L378.3,63.6 L377.9,63.5 L377.6,63.4 L377.2,63.3 L376.8,63.2 L376.4,63.1
		L376.0,63.0 L375.6,62.9 L375.2,62.8 L374.8,62.7 L374.4,62.6 L374.0,62.5 L373.6,62.4 L373.2,62.3
		L372.9,62.2 L372.5,62.1 L372.1,62.0 L371.7,61.9 L371.3,61.8 L370.9,61.8 L370.5,61.7 L370.1,61.6
		L369.7,61.5 L369.3,61.4 L368.9,61.3 L368.5,61.2 L368.1,61.2 L367.7,61.1 L367.3,61.0 L366.9,60.9
		L366.5,60.8 L366.1,60.8 L365.7,60.7 L365.3,60.6 L364.9,60.5 L364.5,60.5 L364.1,60.4 L363.7,60.3
		L363.3,60.3 L362.9,60.2 L362.5,60.1 L362.1,60.1 L361.6,60.0 L361.2,59.9 L360.8,59.9 L360.4,59.8
		L360.0,59.7 L359.6,59.7 L359.2,59.6 L358.8,59.6 L358.4,59.5 L358.0,59.5 L357.6,59.4 L357.2,59.3
		L356.8,59.3 L356.3,59.2 L355.9,59.2 L355.5,59.1 L355.1,59.1 L354.7,59.0 L354.3,59.0 L353.9,59.0
		L353.5,58.9 L353.1,58.9 L352.7,58.8 L352.2,58.8 L351.8,58.7 L351.4,58.7 L351.0,58.7 L350.6,58.6
		L350.2,58.6 L349.8,58.6 L349.4,58.5 L348.9,58.5 L348.5,58.5 L348.1,58.4 L347.7,58.4 L347.3,58.4
		L346.9,58.4 L346.5,58.3 L346.0,58.3 L345.6,58.3 L345.2,58.3 L344.8,58.2 L344.4,58.2 L344.0,58.2
		L343.6,58.2 L343.1,58.2 L342.7,58.2 L342.3,58.1 L341.9,58.1 L341.5,58.1 L341.1,58.1 L340.6,58.1
		L340.2,58.1 L339.8,58.1 L339.4,58.1 L339.0,58.1 L338.6,58.1 L338.2,58.1 L337.7,58.1 L337.3,58.1
		L336.9,58.1 L336.5,58.1 L336.1,58.1 L335.7,58.1 L335.2,58.1 L334.8,58.1 L334.4,58.1 L334.0,58.1
		L333.6,58.1 L333.2,58.1 L332.7,58.1 L332.3,58.1 L331.9,58.2 L331.5,58.2 L331.1,58.2 L330.7,58.2
		L330.3,58.2 L329.8,58.2 L329.4,58.3 L329.0,58.3 L328.6,58.3 L328.2,58.3 L327.8,58.3 L327.4,58.4
		L326.9,58.4 L326.5,58.4 L326.1,58.5 L325.7,58.5 L325.3,58.5 L324.9,58.5 L324.5,58.6 L324.0,58.6
		L323.6,58.7 L323.2,58.7 L322.8,58.7 L322.4,58.8 L322.0,58.8 L321.6,58.8 L321.2,58.9 L320.7,58.9
		L320.3,59.0 L319.9,59.0 L319.5,59.1 L319.1,59.1 L318.7,59.2 L318.3,59.2 L317.9,59.3 L317.5,59.3
		L317.1,59.4 L316.6,59.4 L316.2,59.5 L315.8,59.5 L315.4,59.6 L315.0,59.6 L314.6,59.7 L314.2,59.8
		L313.8,59.8 L313.4,59.9 L313.0,60.0 L312.6,60.0 L312.2,60.1 L311.8,60.2 L311.3,60.2 L310.9,60.3
		L310.5,60.4 L310.1,60.4 L309.7,60.5 L309.3,60.6 L308.9,60.6 L308.5,60.7 L308.1,60.8 L307.7,60.9
		L307.3,61.0 L306.9,61.0 L306.5,61.1 L306.1,61.2 L305.7,61.3 L305.3,61.4 L304.9,61.5 L304.5,61.5
		L304.1,61.6 L303.7,61.7 L303.3,61.8 L302.9,61.9 L302.5,62.0 L302.1,62.1 L301.7,62.2 L301.3,62.3
		L300.9,62.4 L300.5,62.5 L300.2,62.6 L299.8,62.6 L299.4,62.7 L299.0,62.8 L298.6,63.0 L298.2,63.1
		L297.8,63.2 L297.4,63.3 L297.0,63.4 L296.6,63.5 L296.2,63.6 L295.9,63.7 L295.5,63.8 L295.1,63.9
		L294.7,64.0 L294.3,64.1 L293.9,64.2 L293.5,64.4 L293.1,64.5 L292.8,64.6 L292.4,64.7 L292.0,64.8
		L291.6,65.0 L291.2,65.1 L290.9,65.2 L290.5,65.3 L290.1,65.4 L289.7,65.6 L289.3,65.7 L289.0,65.8
		L288.6,65.9 L288.2,66.1 L287.8,66.2 L287.5,66.3 L287.1,66.5 L286.7,66.6 L286.3,66.7 L286.0,66.9
		L285.6,67.0 L285.2,67.1 L284.8,67.3 L284.5,67.4 L284.1,67.5 L283.7,67.7 L283.4,67.8 L283.0,68.0
		L282.6,68.1 L282.3,68.3 L281.9,68.4 L281.5,68.5 L281.2,68.7 L280.8,68.8 L280.4,69.0 L280.1,69.1
		L279.7,69.3 L279.4,69.4 L279.0,69.6 L278.6,69.7 L278.3,69.9 L277.9,70.1 L277.6,70.2 L277.2,70.4
		L276.9,70.5 L276.5,70.7 L276.2,70.8 L275.8,71.0 L275.5,71.2 L275.1,71.3 L274.8,71.5 L274.4,71.7
		L274.1,71.8 L273.7,72.0 L273.4,72.2 L273.0,72.3 L272.7,72.5 L272.3,72.7 L272.0,72.8 L271.6,73.0
		L271.3,73.2 L271.0,73.3 L270.6,73.5 L270.3,73.7 L269.9,73.9 L269.6,74.0 L269.3,74.2 L268.9,74.4
		L268.6,74.6 L268.3,74.8 L267.9,74.9 L267.6,75.1 L267.3,75.3 L266.9,75.5 L266.6,75.7 L266.3,75.8
		L265.9,76.0 L265.6,76.2 L265.3,76.4 L265.0,76.6 L264.6,76.8 L264.3,77.0 L264.0,77.2 L263.7,77.3
		L263.4,77.5 L263.0,77.7 L262.7,77.9 L262.4,78.1 L262.1,78.3 L261.8,78.5 L261.4,78.7 L261.1,78.9
		L260.8,79.1 L260.5,79.3 L260.2,79.5 L259.9,79.7 L259.6,79.9 L259.3,80.1 L259.0,80.3 L258.7,80.5
		L258.3,80.7 L258.0,80.9 L257.7,81.1 L257.4,81.3 L257.1,81.5 L256.8,81.7 L256.5,81.9 L256.2,82.2
		L255.9,82.4 L255.6,82.6 L255.3,82.8 L255.0,83.0 L254.8,83.2 L254.5,83.4 L254.2,83.6 L253.9,83.8
		L253.6,84.1 L253.3,84.3 L253.0,84.5 L252.7,84.7 L252.4,84.9 L252.2,85.2 L251.9,85.4 L251.6,85.6
		L251.3,85.8 L251.0,86.0 L250.8,86.3 L250.5,86.5 L250.2,86.7 L249.9,86.9 L249.6,87.1 L249.4,87.4
		L249.1,87.6 L248.8,87.8 L248.6,88.1 L248.3,88.3 L248.0,88.5 L247.8,88.7 L247.5,89.0 L247.2,89.2
		L247.0,89.4 L246.7,89.7 L246.4,89.9 L246.2,90.1 L245.9,90.4 L245.7,90.6 L245.4,90.8 L245.1,91.1
		L244.9,91.3 L244.6,91.5 L244.4,91.8 L244.1,92.0 L243.9,92.2 L243.6,92.5 L243.4,92.7 L243.1,93.0
		L242.9,93.2 L242.6,93.4 L242.4,93.7 L242.1,93.9 L241.9,94.2 L241.7,94.4 L241.4,94.7 L241.2,94.9
		L241.0,95.1 L240.7,95.4 L240.5,95.6 L240.2,95.9 L240.0,96.1 L239.8,96.4 L239.6,96.6 L239.3,96.9
		L239.1,97.1 L238.9,97.4 L238.6,97.6 L238.4,97.9 L238.2,98.1 L238.0,98.4 L237.7,98.6 L237.5,98.9
		L237.3,99.1 L237.1,99.4 L236.9,99.6 L236.7,99.9 L236.4,100.1 L236.2,100.4 L236.0,100.6 L235.8,100.9
		L235.6,101.2 L235.4,101.4 L235.2,101.7 L235.0,101.9 L234.8,102.2 L234.6,102.4 L234.4,102.7 L234.2,103.0
		L234.0,103.2 L233.8,103.5 L233.6,103.7 L233.4,104.0 L233.2,104.3 L233.0,104.5 L232.8,104.8 L232.6,105.0
		L232.4,105.3 L232.2,105.6 L232.0,105.8 L231.9,106.1 L231.7,106.4 L231.5,106.6 L231.3,106.9 L231.1,107.2
		L230.9,107.4 L230.8,107.7 L230.6,108.0 L230.4,108.2 L230.2,108.5 L230.1,108.8 L229.9,109.0 L229.7,109.3
		L229.5,109.6 L229.4,109.8 L229.2,110.1 L229.0,110.4 L228.9,110.6 L228.7,110.9 L228.5,111.2 L228.4,111.4
		L228.2,111.7 L228.1,112.0 L227.9,112.3 L227.7,112.5 L227.6,112.8 L227.4,113.1 L227.3,113.3 L227.1,113.6
		L227.0,113.9 L226.8,114.2 L226.7,114.4 L226.5,114.7 L226.4,115.0 L226.2,115.3 L226.1,115.5 L226.0,115.8
		L225.8,116.1 L225.7,116.4 L225.5,116.6 L225.4,116.9 L225.3,117.2 L225.1,117.5 L225.0,117.7 L224.9,118.0
		L224.7,118.3 L224.6,118.6 L224.5,118.9 L224.3,119.1 L224.2,119.4 L224.1,119.7 L224.0,120.0 L223.8,120.2
		L223.7,120.5 L223.6,120.8 L223.5,121.1 L223.4,121.4 L223.2,121.6 L223.1,121.9 L223.0,122.2 L222.9,122.5
		L222.8,122.8 L222.7,123.0 L222.6,123.3 L222.5,123.6 L222.4,123.9 L222.3,124.2 L222.2,124.4 L222.0,124.7
		L221.9,125.0 L221.8,125.3 L221.7,125.6 L221.7,125.8 L221.6,126.1 L221.5,126.4 L221.4,126.7 L221.3,127.0
		L221.2,127.3 L221.1,127.5 L221.0,127.8 L220.9,128.1 L220.8,128.4 L220.7,128.7 L220.7,128.9 L220.6,129.2
		L220.5,129.5 L220.4,129.8 L220.3,130.1 L220.3,130.4 L220.2,130.6 L220.1,130.9 L220.0,131.2 L220.0,131.5
		L219.9,131.8 L219.8,132.1 L219.8,132.3 L219.7,132.6 L219.6,132.9 L219.6,133.2 L219.5,133.5 L219.4,133.8
		L219.4,134.0 L219.3,134.3 L219.2,134.6 L219.2,134.9 L219.1,135.2 L219.1,135.5 L219.0,135.7 L219.0,136.0
		L218.9,136.3 L218.9,136.6 L218.8,136.9 L218.8,137.2 L218.7,137.4 L218.7,137.7 L218.6,138.0 L218.6,138.3
		L218.5,138.6 L218.5,138.8 L218.5,139.1 L218.4,139.4 L218.4,139.7 L218.4,140.0 L218.3,140.3 L218.3,140.5
		L218.3,140.8 L218.2,141.1 L218.2,141.4 L218.2,141.7 L218.1,142.0 L218.1,142.2 L218.1,142.5 L218.1,142.8
		L218.0,143.1 L218.0,143.4 L218.0,143.6 L218.0,143.9 L218.0,144.2 L217.9,144.5 L217.9,144.8 L217.9,145.1
		L217.9,145.3 L217.9,145.6 L217.9,145.9 L217.9,146.2 L217.9,146.5 L217.9,146.7 L217.8,147.0 L217.8,147.3
		L217.8,147.6 L217.8,147.9 L217.8,148.1 L217.8,148.4 L217.8,148.7 L217.8,149.0 L217.8,149.3 L217.9,149.5
		L217.9,149.8 L217.9,150.1 L217.9,150.4 L217.9,150.6 L217.9,150.9 L217.9,151.2 L217.9,151.5 L217.9,151.8
		L217.9,152.0 L218.0,152.3 L218.0,152.6 L218.0,152.9 L218.0,153.0  '/></g>
	</g>
<g fill="none" color="white" stroke="rgb(  0,   0,   0)" stroke-width="2.00" stroke-linecap="butt" stroke-linejoin="miter">
</g>
<g fill="none" color="black" stroke="currentColor" stroke-width="2.00" stroke-linecap="butt" stroke-linejoin="miter">
</g>
<g fill="none" color="black" stroke="black" stroke-width="1.00" stroke-linecap="butt" stroke-linejoin="miter">
</g>
<g fill="none" color="black" stroke="currentColor" stroke-width="1.00" stroke-linecap="butt" stroke-linejoin="miter">
	<path stroke='black'  d='M53.9,18.1 L53.9,422.4 L575.0,422.4 L575.0,18.1 L53.9,18.1 Z  '/></g>
<g fill="none" color="black" stroke="currentColor" stroke-width="1.00" stroke-linecap="butt" stroke-linejoin="miter">
</g>
</g>
</svg>

