<?xml version="1.0" encoding="utf-8"  standalone="no"?>
<svg 
 width="600" height="480"
 viewBox="0 0 600 480"
 xmlns="http://www.w3.org/2000/svg"
 xmlns:xlink="http://www.w3.org/1999/xlink"
>

<title>Gnuplot</title>
<desc>Produced by GNUPLOT 5.2 patchlevel 2 </desc>

<g id="gnuplot_canvas">

<rect x="0" y="0" width="600" height="480" fill="none"/>
<defs>

	<circle id='gpDot' r='0.5' stroke-width='0.5'/>
	<path id='gpPt0' stroke-width='0.222' stroke='currentColor' d='M-1,0 h2 M0,-1 v2'/>
	<path id='gpPt1' stroke-width='0.222' stroke='currentColor' d='M-1,-1 L1,1 M1,-1 L-1,1'/>
	<path id='gpPt2' stroke-width='0.222' stroke='currentColor' d='M-1,0 L1,0 M0,-1 L0,1 M-1,-1 L1,1 M-1,1 L1,-1'/>
	<rect id='gpPt3' stroke-width='0.222' stroke='currentColor' x='-1' y='-1' width='2' height='2'/>
	<rect id='gpPt4' stroke-width='0.222' stroke='currentColor' fill='currentColor' x='-1' y='-1' width='2' height='2'/>
	<circle id='gpPt5' stroke-width='0.222' stroke='currentColor' cx='0' cy='0' r='1'/>
	<use xlink:href='#gpPt5' id='gpPt6' fill='currentColor' stroke='none'/>
	<path id='gpPt7' stroke-width='0.222' stroke='currentColor' d='M0,-1.33 L-1.33,0.67 L1.33,0.67 z'/>
	<use xlink:href='#gpPt7' id='gpPt8' fill='currentColor' stroke='none'/>
	<use xlink:href='#gpPt7' id='gpPt9' stroke='currentColor' transform='rotate(180)'/>
	<use xlink:href='#gpPt9' id='gpPt10' fill='currentColor' stroke='none'/>
	<use xlink:href='#gpPt3' id='gpPt11' stroke='currentColor' transform='rotate(45)'/>
	<use xlink:href='#gpPt11' id='gpPt12' fill='currentColor' stroke='none'/>
	<path id='gpPt13' stroke-width='0.222' stroke='currentColor' d='M0,1.330 L1.265,0.411 L0.782,-1.067 L-0.782,-1.076 L-1.265,0.411 z'/>
	<use xlink:href='#gpPt13' id='gpPt14' fill='currentColor' stroke='none'/>
	<filter id='textbox' filterUnits='objectBoundingBox' x='0' y='0' height='1' width='1'>
	  <feFlood flood-color='white' flood-opacity='1' result='bgnd'/>
	  <feComposite in='SourceGraphic' in2='bgnd' operator='atop'/>
	</filter>
	<filter id='greybox' filterUnits='objectBoundingBox' x='0' y='0' height='1' width='1'>
	  <feFlood flood-color='lightgrey' flood-opacity='1' result='grey'/>
	  <feComposite in='SourceGraphic' in2='grey' operator='atop'/>
	</filter>
</defs>
<g fill="none" color="white" stroke="black" stroke-width="1.00" stroke-linecap="butt" stroke-linejoin="miter">
</g>
<g fill="none" color="black" stroke="currentColor" stroke-width="1.00" stroke-linecap="butt" stroke-linejoin="miter">
	<path stroke='black'  d='M80.2,422.4 L89.2,422.4 M575.0,422.4 L566.0,422.4  '/>	<g transform="translate(71.9,426.3)" stroke="none" fill="black" font-family="Arial" font-size="12.00"  text-anchor="end">
		<text><tspan font-family="Arial" > 0</tspan></text>
	</g>
</g>
<g fill="none" color="black" stroke="currentColor" stroke-width="1.00" stroke-linecap="butt" stroke-linejoin="miter">
	<path stroke='black'  d='M80.2,355.0 L89.2,355.0 M575.0,355.0 L566.0,355.0  '/>	<g transform="translate(71.9,358.9)" stroke="none" fill="black" font-family="Arial" font-size="12.00"  text-anchor="end">
		<text><tspan font-family="Arial" > 0.05</tspan></text>
	</g>
</g>
<g fill="none" color="black" stroke="currentColor" stroke-width="1.00" stroke-linecap="butt" stroke-linejoin="miter">
	<path stroke='black'  d='M80.2,287.6 L89.2,287.6 M575.0,287.6 L566.0,287.6  '/>	<g transform="translate(71.9,291.5)" stroke="none" fill="black" font-family="Arial" font-size="12.00"  text-anchor="end">
		<text><tspan font-family="Arial" > 0.1</tspan></text>
	</g>
</g>
<g fill="none" color="black" stroke="currentColor" stroke-width="1.00" stroke-linecap="butt" stroke-linejoin="miter">
	<path stroke='black'  d='M80.2,220.2 L89.2,220.2 M575.0,220.2 L566.0,220.2  '/>	<g transform="translate(71.9,224.1)" stroke="none" fill="black" font-family="Arial" font-size="12.00"  text-anchor="end">
		<text><tspan font-family="Arial" > 0.15</tspan></text>
	</g>
</g>
<g fill="none" color="black" stroke="currentColor" stroke-width="1.00" stroke-linecap="butt" stroke-linejoin="miter">
	<path stroke='black'  d='M80.2,152.9 L89.2,152.9 M575.0,152.9 L566.0,152.9  '/>	<g transform="translate(71.9,156.8)" stroke="none" fill="black" font-family="Arial" font-size="12.00"  text-anchor="end">
		<text><tspan font-family="Arial" > 0.2</tspan></text>
	</g>
</g>
<g fill="none" color="black" stroke="currentColor" stroke-width="1.00" stroke-linecap="butt" stroke-linejoin="miter">
	<path stroke='black'  d='M80.2,85.5 L89.2,85.5 M575.0,85.5 L566.0,85.5  '/>	<g transform="translate(71.9,89.4)" stroke="none" fill="black" font-family="Arial" font-size="12.00"  text-anchor="end">
		<text><tspan font-family="Arial" > 0.25</tspan></text>
	</g>
</g>
<g fill="none" color="black" stroke="currentColor" stroke-width="1.00" stroke-linecap="butt" stroke-linejoin="miter">
	<path stroke='black'  d='M80.2,18.1 L89.2,18.1 M575.0,18.1 L566.0,18.1  '/>	<g transform="translate(71.9,22.0)" stroke="none" fill="black" font-family="Arial" font-size="12.00"  text-anchor="end">
		<text><tspan font-family="Arial" > 0.3</tspan></text>
	</g>
</g>
<g fill="none" color="black" stroke="currentColor" stroke-width="1.00" stroke-linecap="butt" stroke-linejoin="miter">
	<path stroke='black'  d='M80.2,422.4 L80.2,413.4 M80.2,18.1 L80.2,27.1  '/>	<g transform="translate(80.2,444.3)" stroke="none" fill="black" font-family="Arial" font-size="12.00"  text-anchor="middle">
		<text><tspan font-family="Arial" > 10</tspan></text>
	</g>
</g>
<g fill="none" color="black" stroke="currentColor" stroke-width="1.00" stroke-linecap="butt" stroke-linejoin="miter">
	<path stroke='black'  d='M142.1,422.4 L142.1,413.4 M142.1,18.1 L142.1,27.1  '/>	<g transform="translate(142.1,444.3)" stroke="none" fill="black" font-family="Arial" font-size="12.00"  text-anchor="middle">
		<text><tspan font-family="Arial" > 15</tspan></text>
	</g>
</g>
<g fill="none" color="black" stroke="currentColor" stroke-width="1.00" stroke-linecap="butt" stroke-linejoin="miter">
	<path stroke='black'  d='M203.9,422.4 L203.9,413.4 M203.9,18.1 L203.9,27.1  '/>	<g transform="translate(203.9,444.3)" stroke="none" fill="black" font-family="Arial" font-size="12.00"  text-anchor="middle">
		<text><tspan font-family="Arial" > 20</tspan></text>
	</g>
</g>
<g fill="none" color="black" stroke="currentColor" stroke-width="1.00" stroke-linecap="butt" stroke-linejoin="miter">
	<path stroke='black'  d='M265.8,422.4 L265.8,413.4 M265.8,18.1 L265.8,27.1  '/>	<g transform="translate(265.8,444.3)" stroke="none" fill="black" font-family="Arial" font-size="12.00"  text-anchor="middle">
		<text><tspan font-family="Arial" > 25</tspan></text>
	</g>
</g>
<g fill="none" color="black" stroke="currentColor" stroke-width="1.00" stroke-linecap="butt" stroke-linejoin="miter">
	<path stroke='black'  d='M327.6,422.4 L327.6,413.4 M327.6,18.1 L327.6,27.1  '/>	<g transform="translate(327.6,444.3)" stroke="none" fill="black" font-family="Arial" font-size="12.00"  text-anchor="middle">
		<text><tspan font-family="Arial" > 30</tspan></text>
	</g>
</g>
<g fill="none" color="black" stroke="currentColor" stroke-width="1.00" stroke-linecap="butt" stroke-linejoin="miter">
	<path stroke='black'  d='M389.5,422.4 L389.5,413.4 M389.5,18.1 L389.5,27.1  '/>	<g transform="translate(389.5,444.3)" stroke="none" fill="black" font-family="Arial" font-size="12.00"  text-anchor="middle">
		<text><tspan font-family="Arial" > 35</tspan></text>
	</g>
</g>
<g fill="none" color="black" stroke="currentColor" stroke-width="1.00" stroke-linecap="butt" stroke-linejoin="miter">
	<path stroke='black'  d='M451.3,422.4 L451.3,413.4 M451.3,18.1 L451.3,27.1  '/>	<g transform="translate(451.3,444.3)" stroke="none" fill="black" font-family="Arial" font-size="12.00"  text-anchor="middle">
		<text><tspan font-family="Arial" > 40</tspan></text>
	</g>
</g>
<g fill="none" color="black" stroke="currentColor" stroke-width="1.00" stroke-linecap="butt" stroke-linejoin="miter">
	<path stroke='black'  d='M513.2,422.4 L513.2,413.4 M513.2,18.1 L513.2,27.1  '/>	<g transform="translate(513.2,444.3)" stroke="none" fill="black" font-family="Arial" font-size="12.00"  text-anchor="middle">
		<text><tspan font-family="Arial" > 45</tspan></text>
	</g>
</g>
<g fill="none" color="black" stroke="currentColor" stroke-width="1.00" stroke-linecap="butt" stroke-linejoin="miter">
	<path stroke='black'  d='M575.0,422.4 L575.0,413.4 M575.0,18.1 L575.0,27.1  '/>	<g transform="translate(575.0,444.3)" stroke="none" fill="black" font-family="Arial" font-size="12.00"  text-anchor="middle">
		<text><tspan font-family="Arial" > 50</tspan></text>
	</g>
</g>
<g fill="none" color="black" stroke="currentColor" stroke-width="1.00" stroke-linecap="butt" stroke-linejoin="miter">
</g>
<g fill="none" color="black" stroke="currentColor" stroke-width="1.00" stroke-linecap="butt" stroke-linejoin="miter">
	<path stroke='black'  d='M80.2,18.1 L80.2,422.4 L575.0,422.4 L575.0,18.1 L80.2,18.1 Z  '/></g>
<g fill="none" color="black" stroke="currentColor" stroke-width="1.00" stroke-linecap="butt" stroke-linejoin="miter">
	<g transform="translate(16.3,220.3) rotate(270)" stroke="none" fill="black" font-family="Arial" font-size="12.00"  text-anchor="middle">
		<text><tspan font-family="Arial" >integral of ' sin(8*x)exp(-x) - spline ' on [0,1.82] </tspan></text>
	</g>
</g>
<g fill="none" color="black" stroke="currentColor" stroke-width="1.00" stroke-linecap="butt" stroke-linejoin="miter">
	<g transform="translate(327.6,471.3)" stroke="none" fill="black" font-family="Arial" font-size="12.00"  text-anchor="middle">
		<text><tspan font-family="Arial" >N ( N points in interval [0,1.82])</tspan></text>
	</g>
</g>
<g fill="none" color="black" stroke="currentColor" stroke-width="1.00" stroke-linecap="butt" stroke-linejoin="miter">
</g>
	<g id="gnuplot_plot_1" ><title>"integral_data.io.txt"</title>
<g fill="none" color="black" stroke="currentColor" stroke-width="1.00" stroke-linecap="butt" stroke-linejoin="miter">
	<g transform="translate(507.9,40.0)" stroke="none" fill="black" font-family="Arial" font-size="12.00"  text-anchor="end">
		<text>"integral_data.io.txt"</text>
	</g>
</g>
<g fill="none" color="black" stroke="currentColor" stroke-width="1.00" stroke-linecap="butt" stroke-linejoin="miter">
	<path stroke='rgb(  0,   0,   0)'  d='M516.2,36.1 L558.4,36.1 M80.2,310.7 L92.6,301.8 L104.9,293.1 L117.3,285.1 L129.7,279.9 L142.1,276.7
		L154.4,272.9 L166.8,269.7 L179.2,267.5 L191.5,265.9 L203.9,264.0 L216.3,262.4 L228.6,261.3 L241.0,260.3
		L253.4,259.2 L265.8,258.3 L278.1,257.7 L290.5,257.0 L302.9,256.3 L315.2,255.8 L327.6,255.4 L340.0,254.9
		L352.3,254.5 L364.7,254.2 L377.1,253.9 L389.5,253.5 L401.8,253.3 L414.2,253.1 L426.6,252.8 L438.9,252.6
		L451.3,252.4 L463.7,252.2 L476.0,252.0 L488.4,251.9 L500.8,251.7 L513.2,251.6 L525.5,251.5 L537.9,251.3
		L550.3,251.2 L562.6,251.1 L575.0,251.0  '/></g>
	</g>
	<g id="gnuplot_plot_2" ><title>"trueval.io.txt"</title>
<g fill="none" color="black" stroke="currentColor" stroke-width="1.00" stroke-linecap="butt" stroke-linejoin="miter">
	<g transform="translate(507.9,58.0)" stroke="none" fill="black" font-family="Arial" font-size="12.00"  text-anchor="end">
		<text>"trueval.io.txt"</text>
	</g>
</g>
<g fill="none" color="black" stroke="currentColor" stroke-width="1.00" stroke-linecap="butt" stroke-linejoin="miter">
	<path stroke='rgb(255,   0,   0)' stroke-dasharray='2.5,4.0'  d='M516.2,54.1 L558.4,54.1 M80.2,248.6 L82.7,248.6 L86.4,248.6 L90.1,248.6 L93.8,248.6 L97.5,248.6
		L101.2,248.6 L104.9,248.6 L108.7,248.6 L112.4,248.6 L116.1,248.6 L119.8,248.6 L123.5,248.6 L127.2,248.6
		L130.9,248.6 L134.6,248.6 L138.3,248.6 L142.1,248.6 L145.8,248.6 L149.5,248.6 L153.2,248.6 L156.9,248.6
		L160.6,248.6 L164.3,248.6 L168.0,248.6 L171.7,248.6 L175.4,248.6 L179.2,248.6 L182.9,248.6 L186.6,248.6
		L190.3,248.6 L194.0,248.6 L197.7,248.6 L201.4,248.6 L205.1,248.6 L208.8,248.6 L212.6,248.6 L216.3,248.6
		L220.0,248.6 L223.7,248.6 L227.4,248.6 L231.1,248.6 L234.8,248.6 L238.5,248.6 L242.2,248.6 L246.0,248.6
		L249.7,248.6 L253.4,248.6 L257.1,248.6 L260.8,248.6 L264.5,248.6 L268.2,248.6 L271.9,248.6 L275.6,248.6
		L279.4,248.6 L283.1,248.6 L286.8,248.6 L290.5,248.6 L294.2,248.6 L297.9,248.6 L301.6,248.6 L305.3,248.6
		L309.0,248.6 L312.8,248.6 L316.5,248.6 L320.2,248.6 L323.9,248.6 L327.6,248.6 L331.3,248.6 L335.0,248.6
		L338.7,248.6 L342.4,248.6 L346.2,248.6 L349.9,248.6 L353.6,248.6 L357.3,248.6 L361.0,248.6 L364.7,248.6
		L368.4,248.6 L372.1,248.6 L375.8,248.6 L379.6,248.6 L383.3,248.6 L387.0,248.6 L390.7,248.6 L394.4,248.6
		L398.1,248.6 L401.8,248.6 L405.5,248.6 L409.2,248.6 L413.0,248.6 L416.7,248.6 L420.4,248.6 L424.1,248.6
		L427.8,248.6 L431.5,248.6 L435.2,248.6 L438.9,248.6 L442.6,248.6 L446.4,248.6 L450.1,248.6 L453.8,248.6
		L457.5,248.6 L461.2,248.6 L464.9,248.6 L468.6,248.6 L472.3,248.6 L476.0,248.6 L479.8,248.6 L483.5,248.6
		L487.2,248.6 L490.9,248.6 L494.6,248.6 L498.3,248.6 L502.0,248.6 L505.7,248.6 L509.4,248.6 L513.2,248.6
		L516.9,248.6 L520.6,248.6 L524.3,248.6 L528.0,248.6 L531.7,248.6 L535.4,248.6 L539.1,248.6 L542.8,248.6
		L546.5,248.6 L550.3,248.6 L554.0,248.6 L557.7,248.6 L561.4,248.6 L565.1,248.6 L568.8,248.6 L572.5,248.6
		L575.0,248.6  '/></g>
	</g>
<g fill="none" color="white" stroke="rgb(255,   0,   0)" stroke-width="2.00" stroke-linecap="butt" stroke-linejoin="miter">
</g>
<g fill="none" color="black" stroke="currentColor" stroke-width="2.00" stroke-linecap="butt" stroke-linejoin="miter">
</g>
<g fill="none" color="black" stroke="black" stroke-width="1.00" stroke-linecap="butt" stroke-linejoin="miter">
</g>
<g fill="none" color="black" stroke="currentColor" stroke-width="1.00" stroke-linecap="butt" stroke-linejoin="miter">
	<path stroke='black'  d='M80.2,18.1 L80.2,422.4 L575.0,422.4 L575.0,18.1 L80.2,18.1 Z  '/></g>
<g fill="none" color="black" stroke="currentColor" stroke-width="1.00" stroke-linecap="butt" stroke-linejoin="miter">
</g>
</g>
</svg>

