<?xml version="1.0" encoding="utf-8"  standalone="no"?>
<svg 
 width="600" height="480"
 viewBox="0 0 600 480"
 xmlns="http://www.w3.org/2000/svg"
 xmlns:xlink="http://www.w3.org/1999/xlink"
>

<title>Gnuplot</title>
<desc>Produced by GNUPLOT 5.2 patchlevel 2 </desc>

<g id="gnuplot_canvas">

<rect x="0" y="0" width="600" height="480" fill="none"/>
<defs>

	<circle id='gpDot' r='0.5' stroke-width='0.5'/>
	<path id='gpPt0' stroke-width='0.222' stroke='currentColor' d='M-1,0 h2 M0,-1 v2'/>
	<path id='gpPt1' stroke-width='0.222' stroke='currentColor' d='M-1,-1 L1,1 M1,-1 L-1,1'/>
	<path id='gpPt2' stroke-width='0.222' stroke='currentColor' d='M-1,0 L1,0 M0,-1 L0,1 M-1,-1 L1,1 M-1,1 L1,-1'/>
	<rect id='gpPt3' stroke-width='0.222' stroke='currentColor' x='-1' y='-1' width='2' height='2'/>
	<rect id='gpPt4' stroke-width='0.222' stroke='currentColor' fill='currentColor' x='-1' y='-1' width='2' height='2'/>
	<circle id='gpPt5' stroke-width='0.222' stroke='currentColor' cx='0' cy='0' r='1'/>
	<use xlink:href='#gpPt5' id='gpPt6' fill='currentColor' stroke='none'/>
	<path id='gpPt7' stroke-width='0.222' stroke='currentColor' d='M0,-1.33 L-1.33,0.67 L1.33,0.67 z'/>
	<use xlink:href='#gpPt7' id='gpPt8' fill='currentColor' stroke='none'/>
	<use xlink:href='#gpPt7' id='gpPt9' stroke='currentColor' transform='rotate(180)'/>
	<use xlink:href='#gpPt9' id='gpPt10' fill='currentColor' stroke='none'/>
	<use xlink:href='#gpPt3' id='gpPt11' stroke='currentColor' transform='rotate(45)'/>
	<use xlink:href='#gpPt11' id='gpPt12' fill='currentColor' stroke='none'/>
	<path id='gpPt13' stroke-width='0.222' stroke='currentColor' d='M0,1.330 L1.265,0.411 L0.782,-1.067 L-0.782,-1.076 L-1.265,0.411 z'/>
	<use xlink:href='#gpPt13' id='gpPt14' fill='currentColor' stroke='none'/>
	<filter id='textbox' filterUnits='objectBoundingBox' x='0' y='0' height='1' width='1'>
	  <feFlood flood-color='white' flood-opacity='1' result='bgnd'/>
	  <feComposite in='SourceGraphic' in2='bgnd' operator='atop'/>
	</filter>
	<filter id='greybox' filterUnits='objectBoundingBox' x='0' y='0' height='1' width='1'>
	  <feFlood flood-color='lightgrey' flood-opacity='1' result='grey'/>
	  <feComposite in='SourceGraphic' in2='grey' operator='atop'/>
	</filter>
</defs>
<g fill="none" color="white" stroke="currentColor" stroke-width="1.00" stroke-linecap="butt" stroke-linejoin="miter">
</g>
<g fill="none" color="black" stroke="currentColor" stroke-width="1.00" stroke-linecap="butt" stroke-linejoin="miter">
	<path stroke='black'  d='M53.9,422.4 L62.9,422.4 M575.0,422.4 L566.0,422.4  '/>	<g transform="translate(45.6,426.3)" stroke="none" fill="black" font-family="Arial" font-size="12.00"  text-anchor="end">
		<text><tspan font-family="Arial" >-1</tspan></text>
	</g>
</g>
<g fill="none" color="black" stroke="currentColor" stroke-width="1.00" stroke-linecap="butt" stroke-linejoin="miter">
	<path stroke='black'  d='M53.9,321.3 L62.9,321.3 M575.0,321.3 L566.0,321.3  '/>	<g transform="translate(45.6,325.2)" stroke="none" fill="black" font-family="Arial" font-size="12.00"  text-anchor="end">
		<text><tspan font-family="Arial" >-0.5</tspan></text>
	</g>
</g>
<g fill="none" color="black" stroke="currentColor" stroke-width="1.00" stroke-linecap="butt" stroke-linejoin="miter">
	<path stroke='black'  d='M53.9,220.2 L62.9,220.2 M575.0,220.2 L566.0,220.2  '/>	<g transform="translate(45.6,224.1)" stroke="none" fill="black" font-family="Arial" font-size="12.00"  text-anchor="end">
		<text><tspan font-family="Arial" > 0</tspan></text>
	</g>
</g>
<g fill="none" color="black" stroke="currentColor" stroke-width="1.00" stroke-linecap="butt" stroke-linejoin="miter">
	<path stroke='black'  d='M53.9,119.2 L62.9,119.2 M575.0,119.2 L566.0,119.2  '/>	<g transform="translate(45.6,123.1)" stroke="none" fill="black" font-family="Arial" font-size="12.00"  text-anchor="end">
		<text><tspan font-family="Arial" > 0.5</tspan></text>
	</g>
</g>
<g fill="none" color="black" stroke="currentColor" stroke-width="1.00" stroke-linecap="butt" stroke-linejoin="miter">
	<path stroke='black'  d='M53.9,18.1 L62.9,18.1 M575.0,18.1 L566.0,18.1  '/>	<g transform="translate(45.6,22.0)" stroke="none" fill="black" font-family="Arial" font-size="12.00"  text-anchor="end">
		<text><tspan font-family="Arial" > 1</tspan></text>
	</g>
</g>
<g fill="none" color="black" stroke="currentColor" stroke-width="1.00" stroke-linecap="butt" stroke-linejoin="miter">
	<path stroke='black'  d='M53.9,422.4 L53.9,413.4 M53.9,18.1 L53.9,27.1  '/>	<g transform="translate(53.9,444.3)" stroke="none" fill="black" font-family="Arial" font-size="12.00"  text-anchor="middle">
		<text><tspan font-family="Arial" > 0</tspan></text>
	</g>
</g>
<g fill="none" color="black" stroke="currentColor" stroke-width="1.00" stroke-linecap="butt" stroke-linejoin="miter">
	<path stroke='black'  d='M136.9,422.4 L136.9,413.4 M136.9,18.1 L136.9,27.1  '/>	<g transform="translate(136.9,444.3)" stroke="none" fill="black" font-family="Arial" font-size="12.00"  text-anchor="middle">
		<text><tspan font-family="Arial" > 0.5</tspan></text>
	</g>
</g>
<g fill="none" color="black" stroke="currentColor" stroke-width="1.00" stroke-linecap="butt" stroke-linejoin="miter">
	<path stroke='black'  d='M219.9,422.4 L219.9,413.4 M219.9,18.1 L219.9,27.1  '/>	<g transform="translate(219.9,444.3)" stroke="none" fill="black" font-family="Arial" font-size="12.00"  text-anchor="middle">
		<text><tspan font-family="Arial" > 1</tspan></text>
	</g>
</g>
<g fill="none" color="black" stroke="currentColor" stroke-width="1.00" stroke-linecap="butt" stroke-linejoin="miter">
	<path stroke='black'  d='M302.8,422.4 L302.8,413.4 M302.8,18.1 L302.8,27.1  '/>	<g transform="translate(302.8,444.3)" stroke="none" fill="black" font-family="Arial" font-size="12.00"  text-anchor="middle">
		<text><tspan font-family="Arial" > 1.5</tspan></text>
	</g>
</g>
<g fill="none" color="black" stroke="currentColor" stroke-width="1.00" stroke-linecap="butt" stroke-linejoin="miter">
	<path stroke='black'  d='M385.8,422.4 L385.8,413.4 M385.8,18.1 L385.8,27.1  '/>	<g transform="translate(385.8,444.3)" stroke="none" fill="black" font-family="Arial" font-size="12.00"  text-anchor="middle">
		<text><tspan font-family="Arial" > 2</tspan></text>
	</g>
</g>
<g fill="none" color="black" stroke="currentColor" stroke-width="1.00" stroke-linecap="butt" stroke-linejoin="miter">
	<path stroke='black'  d='M468.8,422.4 L468.8,413.4 M468.8,18.1 L468.8,27.1  '/>	<g transform="translate(468.8,444.3)" stroke="none" fill="black" font-family="Arial" font-size="12.00"  text-anchor="middle">
		<text><tspan font-family="Arial" > 2.5</tspan></text>
	</g>
</g>
<g fill="none" color="black" stroke="currentColor" stroke-width="1.00" stroke-linecap="butt" stroke-linejoin="miter">
	<path stroke='black'  d='M551.8,422.4 L551.8,413.4 M551.8,18.1 L551.8,27.1  '/>	<g transform="translate(551.8,444.3)" stroke="none" fill="black" font-family="Arial" font-size="12.00"  text-anchor="middle">
		<text><tspan font-family="Arial" > 3</tspan></text>
	</g>
</g>
<g fill="none" color="black" stroke="currentColor" stroke-width="1.00" stroke-linecap="butt" stroke-linejoin="miter">
</g>
<g fill="none" color="black" stroke="currentColor" stroke-width="1.00" stroke-linecap="butt" stroke-linejoin="miter">
	<path stroke='black'  d='M53.9,18.1 L53.9,422.4 L575.0,422.4 L575.0,18.1 L53.9,18.1 Z  '/></g>
<g fill="none" color="black" stroke="currentColor" stroke-width="1.00" stroke-linecap="butt" stroke-linejoin="miter">
	<g transform="translate(314.4,471.3)" stroke="none" fill="black" font-family="Arial" font-size="12.00"  text-anchor="middle">
		<text><tspan font-family="Arial" >sin(8*x)exp(-x) - lsplin</tspan></text>
	</g>
</g>
<g fill="none" color="black" stroke="currentColor" stroke-width="1.00" stroke-linecap="butt" stroke-linejoin="miter">
</g>
	<g id="gnuplot_plot_1" ><title>"f_se.io.txt"</title>
<g fill="none" color="black" stroke="currentColor" stroke-width="1.00" stroke-linecap="butt" stroke-linejoin="miter">
	<g transform="translate(507.9,40.0)" stroke="none" fill="black" font-family="Arial" font-size="12.00"  text-anchor="end">
		<text>"f_se.io.txt"</text>
	</g>
</g>
<g fill="none" color="black" stroke="currentColor" stroke-width="1.00" stroke-linecap="butt" stroke-linejoin="miter">
	<path stroke='rgb(  0,   0,   0)'  d='M516.2,36.1 L558.4,36.1 M53.9,220.2 L55.6,204.3 L57.2,188.7 L58.9,173.6 L60.5,159.2 L62.2,145.4
		L63.9,132.3 L65.5,120.1 L67.2,108.8 L68.8,98.4 L70.5,89.0 L72.2,80.7 L73.8,73.4 L75.5,67.2
		L77.1,62.1 L78.8,58.1 L80.5,55.2 L82.1,53.5 L83.8,52.8 L85.4,53.3 L87.1,54.8 L88.8,57.4
		L90.4,60.9 L92.1,65.4 L93.7,70.8 L95.4,77.1 L97.0,84.2 L98.7,92.0 L100.4,100.4 L102.0,109.5
		L103.7,119.1 L105.3,129.2 L107.0,139.6 L108.7,150.4 L110.3,161.4 L112.0,172.5 L113.6,183.8 L115.3,195.0
		L117.0,206.2 L118.6,217.3 L120.3,228.2 L121.9,238.8 L123.6,249.0 L125.3,258.9 L126.9,268.3 L128.6,277.3
		L130.2,285.7 L131.9,293.5 L133.6,300.7 L135.2,307.2 L136.9,313.0 L138.5,318.2 L140.2,322.6 L141.9,326.2
		L143.5,329.1 L145.2,331.2 L146.8,332.6 L148.5,333.2 L150.2,333.1 L151.8,332.3 L153.5,330.8 L155.1,328.5
		L156.8,325.7 L158.5,322.2 L160.1,318.1 L161.8,313.5 L163.4,308.3 L165.1,302.7 L166.7,296.7 L168.4,290.3
		L170.1,283.6 L171.7,276.6 L173.4,269.4 L175.0,262.0 L176.7,254.5 L178.4,246.9 L180.0,239.3 L181.7,231.8
		L183.3,224.3 L185.0,216.9 L186.7,209.7 L188.3,202.7 L190.0,195.9 L191.6,189.5 L193.3,183.3 L195.0,177.6
		L196.6,172.2 L198.3,167.2 L199.9,162.7 L201.6,158.6 L203.3,155.0 L204.9,151.9 L206.6,149.3 L208.2,147.2
		L209.9,145.6 L211.6,144.6 L213.2,144.0 L214.9,144.0 L216.5,144.4 L218.2,145.3 L219.9,146.7 L221.5,148.5
		L223.2,150.7 L224.8,153.4 L226.5,156.4 L228.2,159.8 L229.8,163.5 L231.5,167.5 L233.1,171.7 L234.8,176.2
		L236.5,180.9 L238.1,185.7 L239.8,190.7 L241.4,195.7 L243.1,200.8 L244.7,206.0 L246.4,211.1 L248.1,216.2
		L249.7,221.2 L251.4,226.1 L253.0,230.9 L254.7,235.5 L256.4,239.9 L258.0,244.1 L259.7,248.1 L261.3,251.8
		L263.0,255.2 L264.7,258.3 L266.3,261.2 L268.0,263.7 L269.6,265.9 L271.3,267.7 L273.0,269.2 L274.6,270.4
		L276.3,271.2 L277.9,271.7 L279.6,271.8 L281.3,271.6 L282.9,271.1 L284.6,270.2 L286.2,269.1 L287.9,267.6
		L289.6,265.9 L291.2,263.9 L292.9,261.7 L294.5,259.3 L296.2,256.6 L297.9,253.8 L299.5,250.8 L301.2,247.7
		L302.8,244.5 L304.5,241.1 L306.2,237.7 L307.8,234.3 L309.5,230.8 L311.1,227.4 L312.8,223.9 L314.5,220.5
		L316.1,217.2 L317.8,213.9 L319.4,210.8 L321.1,207.8 L322.7,204.9 L324.4,202.2 L326.1,199.6 L327.7,197.3
		L329.4,195.1 L331.0,193.1 L332.7,191.4 L334.4,189.8 L336.0,188.5 L337.7,187.4 L339.3,186.6 L341.0,186.0
		L342.7,185.6 L344.3,185.5 L346.0,185.5 L347.6,185.8 L349.3,186.3 L351.0,187.1 L352.6,188.0 L354.3,189.1
		L355.9,190.4 L357.6,191.8 L359.3,193.4 L360.9,195.2 L362.6,197.1 L364.2,199.1 L365.9,201.1 L367.6,203.3
		L369.2,205.5 L370.9,207.8 L372.5,210.1 L374.2,212.5 L375.9,214.8 L377.5,217.2 L379.2,219.5 L380.8,221.7
		L382.5,223.9 L384.2,226.1 L385.8,228.1 L387.5,230.1 L389.1,232.0 L390.8,233.7 L392.4,235.4 L394.1,236.9
		L395.8,238.2 L397.4,239.4 L399.1,240.5 L400.7,241.5 L402.4,242.2 L404.1,242.8 L405.7,243.3 L407.4,243.6
		L409.0,243.7 L410.7,243.7 L412.4,243.6 L414.0,243.3 L415.7,242.8 L417.3,242.2 L419.0,241.5 L420.7,240.7
		L422.3,239.7 L424.0,238.7 L425.6,237.5 L427.3,236.3 L429.0,234.9 L430.6,233.5 L432.3,232.1 L433.9,230.6
		L435.6,229.1 L437.3,227.5 L438.9,225.9 L440.6,224.3 L442.2,222.8 L443.9,221.2 L445.6,219.7 L447.2,218.2
		L448.9,216.7 L450.5,215.3 L452.2,214.0 L453.9,212.7 L455.5,211.5 L457.2,210.3 L458.8,209.3 L460.5,208.4
		L462.2,207.5 L463.8,206.7 L465.5,206.1 L467.1,205.5 L468.8,205.1 L470.4,204.8 L472.1,204.5 L473.8,204.4
		L475.4,204.4 L477.1,204.5 L478.7,204.7 L480.4,204.9 L482.1,205.3 L483.7,205.8 L485.4,206.3 L487.0,206.9
		L488.7,207.6 L490.4,208.4 L492.0,209.2 L493.7,210.1 L495.3,211.0 L497.0,212.0 L498.7,213.0 L500.3,214.0
		L502.0,215.1 L503.6,216.1 L505.3,217.2 L507.0,218.3 L508.6,219.3 L510.3,220.4 L511.9,221.4 L513.6,222.4
		L515.3,223.3 L516.9,224.3 L518.6,225.1 L520.2,226.0 L521.9,226.7 L523.6,227.5 L525.2,228.1 L526.9,228.7
		L528.5,229.2 L530.2,229.7 L531.9,230.1 L533.5,230.4 L535.2,230.7 L536.8,230.8 L538.5,230.9 L540.1,231.0
		L541.8,230.9 L543.5,230.8 L545.1,230.7 L546.8,230.4 L548.4,230.1 L550.1,229.8 L551.8,229.4 L553.4,228.9
		L555.1,228.4 L556.7,227.9 L558.4,227.3 L560.1,226.7 L561.7,226.0 L563.4,225.3 L565.0,224.6 L566.7,223.9
		L568.4,223.2 L570.0,222.5 L571.7,221.8 L573.3,221.1 L575.0,220.4  '/></g>
	</g>
	<g id="gnuplot_plot_2" ><title>"se.io.txt"</title>
<g fill="none" color="black" stroke="currentColor" stroke-width="1.00" stroke-linecap="butt" stroke-linejoin="miter">
	<g transform="translate(507.9,58.0)" stroke="none" fill="black" font-family="Arial" font-size="12.00"  text-anchor="end">
		<text>"se.io.txt"</text>
	</g>
</g>
<g fill="none" color="black" stroke="currentColor" stroke-width="1.00" stroke-linecap="butt" stroke-linejoin="miter">
	<use xlink:href='#gpPt1' transform='translate(53.9,220.2) scale(4.50)' color='rgb(  0, 158, 115)'/>
	<use xlink:href='#gpPt1' transform='translate(70.5,89.0) scale(4.50)' color='rgb(  0, 158, 115)'/>
	<use xlink:href='#gpPt1' transform='translate(87.1,54.8) scale(4.50)' color='rgb(  0, 158, 115)'/>
	<use xlink:href='#gpPt1' transform='translate(103.7,119.1) scale(4.50)' color='rgb(  0, 158, 115)'/>
	<use xlink:href='#gpPt1' transform='translate(120.3,228.2) scale(4.50)' color='rgb(  0, 158, 115)'/>
	<use xlink:href='#gpPt1' transform='translate(136.9,313.0) scale(4.50)' color='rgb(  0, 158, 115)'/>
	<use xlink:href='#gpPt1' transform='translate(153.5,330.8) scale(4.50)' color='rgb(  0, 158, 115)'/>
	<use xlink:href='#gpPt1' transform='translate(170.1,283.6) scale(4.50)' color='rgb(  0, 158, 115)'/>
	<use xlink:href='#gpPt1' transform='translate(186.7,209.7) scale(4.50)' color='rgb(  0, 158, 115)'/>
	<use xlink:href='#gpPt1' transform='translate(203.3,155.0) scale(4.50)' color='rgb(  0, 158, 115)'/>
	<use xlink:href='#gpPt1' transform='translate(219.9,146.7) scale(4.50)' color='rgb(  0, 158, 115)'/>
	<use xlink:href='#gpPt1' transform='translate(236.5,180.9) scale(4.50)' color='rgb(  0, 158, 115)'/>
	<use xlink:href='#gpPt1' transform='translate(253.0,230.9) scale(4.50)' color='rgb(  0, 158, 115)'/>
	<use xlink:href='#gpPt1' transform='translate(269.6,265.9) scale(4.50)' color='rgb(  0, 158, 115)'/>
	<use xlink:href='#gpPt1' transform='translate(286.2,269.1) scale(4.50)' color='rgb(  0, 158, 115)'/>
	<use xlink:href='#gpPt1' transform='translate(302.8,244.5) scale(4.50)' color='rgb(  0, 158, 115)'/>
	<use xlink:href='#gpPt1' transform='translate(319.4,210.8) scale(4.50)' color='rgb(  0, 158, 115)'/>
	<use xlink:href='#gpPt1' transform='translate(336.0,188.5) scale(4.50)' color='rgb(  0, 158, 115)'/>
	<use xlink:href='#gpPt1' transform='translate(352.6,188.0) scale(4.50)' color='rgb(  0, 158, 115)'/>
	<use xlink:href='#gpPt1' transform='translate(369.2,205.5) scale(4.50)' color='rgb(  0, 158, 115)'/>
	<use xlink:href='#gpPt1' transform='translate(385.8,228.1) scale(4.50)' color='rgb(  0, 158, 115)'/>
	<use xlink:href='#gpPt1' transform='translate(402.4,242.2) scale(4.50)' color='rgb(  0, 158, 115)'/>
	<use xlink:href='#gpPt1' transform='translate(419.0,241.5) scale(4.50)' color='rgb(  0, 158, 115)'/>
	<use xlink:href='#gpPt1' transform='translate(435.6,229.1) scale(4.50)' color='rgb(  0, 158, 115)'/>
	<use xlink:href='#gpPt1' transform='translate(452.2,214.0) scale(4.50)' color='rgb(  0, 158, 115)'/>
	<use xlink:href='#gpPt1' transform='translate(468.8,205.1) scale(4.50)' color='rgb(  0, 158, 115)'/>
	<use xlink:href='#gpPt1' transform='translate(485.4,206.3) scale(4.50)' color='rgb(  0, 158, 115)'/>
	<use xlink:href='#gpPt1' transform='translate(502.0,215.1) scale(4.50)' color='rgb(  0, 158, 115)'/>
	<use xlink:href='#gpPt1' transform='translate(518.6,225.1) scale(4.50)' color='rgb(  0, 158, 115)'/>
	<use xlink:href='#gpPt1' transform='translate(535.2,230.7) scale(4.50)' color='rgb(  0, 158, 115)'/>
	<use xlink:href='#gpPt1' transform='translate(551.8,229.4) scale(4.50)' color='rgb(  0, 158, 115)'/>
	<use xlink:href='#gpPt1' transform='translate(568.4,223.2) scale(4.50)' color='rgb(  0, 158, 115)'/>
	<use xlink:href='#gpPt1' transform='translate(537.3,54.1) scale(4.50)' color='rgb(  0, 158, 115)'/>
</g>
	</g>
	<g id="gnuplot_plot_3" ><title>"ls.io.txt"</title>
<g fill="none" color="black" stroke="currentColor" stroke-width="1.00" stroke-linecap="butt" stroke-linejoin="miter">
	<g transform="translate(507.9,76.0)" stroke="none" fill="black" font-family="Arial" font-size="12.00"  text-anchor="end">
		<text>"ls.io.txt"</text>
	</g>
</g>
<g fill="none" color="black" stroke="currentColor" stroke-width="1.00" stroke-linecap="butt" stroke-linejoin="miter">
	<path stroke='rgb(255,   0,   0)'  d='M516.2,72.1 L558.4,72.1 M53.9,220.2 L56.6,199.3 L59.2,178.3 L61.9,157.3 L64.5,136.3 L67.2,115.3
		L69.8,94.3 L72.5,84.9 L75.1,79.5 L77.8,74.0 L80.5,68.5 L83.1,63.0 L85.8,57.6 L88.4,60.0
		L91.1,70.2 L93.7,80.5 L96.4,90.8 L99.0,101.1 L101.7,111.4 L104.4,123.5 L107.0,140.9 L109.7,158.4
		L112.3,175.8 L115.0,193.3 L117.6,210.7 L120.3,228.2 L122.9,241.7 L125.6,255.3 L128.2,268.9 L130.9,282.5
		L133.6,296.1 L136.2,309.6 L138.9,315.2 L141.5,318.0 L144.2,320.8 L146.8,323.7 L149.5,326.5 L152.1,329.3
		L154.8,327.0 L157.5,319.5 L160.1,311.9 L162.8,304.4 L165.4,296.8 L168.1,289.3 L170.7,280.7 L173.4,268.8
		L176.0,257.0 L178.7,245.2 L181.4,233.3 L184.0,221.5 L186.7,209.7 L189.3,200.9 L192.0,192.2 L194.6,183.4
		L197.3,174.7 L199.9,165.9 L202.6,157.2 L205.3,154.0 L207.9,152.7 L210.6,151.3 L213.2,150.0 L215.9,148.7
		L218.5,147.3 L221.2,149.4 L223.8,154.9 L226.5,160.4 L229.1,165.8 L231.8,171.3 L234.5,176.8 L237.1,182.9
		L239.8,190.9 L242.4,198.9 L245.1,206.9 L247.7,214.9 L250.4,222.9 L253.0,230.9 L255.7,236.5 L258.4,242.1
		L261.0,247.7 L263.7,253.3 L266.3,258.9 L269.0,264.5 L271.6,266.2 L274.3,266.8 L276.9,267.3 L279.6,267.8
		L282.3,268.3 L284.9,268.8 L287.6,267.1 L290.2,263.2 L292.9,259.2 L295.5,255.3 L298.2,251.3 L300.8,247.4
		L303.5,243.1 L306.2,237.7 L308.8,232.3 L311.5,227.0 L314.1,221.6 L316.8,216.2 L319.4,210.8 L322.1,207.2
		L324.7,203.7 L327.4,200.1 L330.0,196.5 L332.7,193.0 L335.4,189.4 L338.0,188.5 L340.7,188.4 L343.3,188.3
		L346.0,188.2 L348.6,188.1 L351.3,188.0 L353.9,189.4 L356.6,192.2 L359.3,195.0 L361.9,197.8 L364.6,200.6
		L367.2,203.4 L369.9,206.4 L372.5,210.1 L375.2,213.7 L377.8,217.3 L380.5,220.9 L383.2,224.5 L385.8,228.1
		L388.5,230.4 L391.1,232.6 L393.8,234.9 L396.4,237.1 L399.1,239.4 L401.7,241.7 L404.4,242.1 L407.1,242.0
		L409.7,241.9 L412.4,241.8 L415.0,241.7 L417.7,241.6 L420.3,240.5 L423.0,238.5 L425.6,236.5 L428.3,234.5
		L431.0,232.5 L433.6,230.6 L436.3,228.5 L438.9,226.0 L441.6,223.6 L444.2,221.2 L446.9,218.8 L449.5,216.4
		L452.2,214.0 L454.8,212.5 L457.5,211.1 L460.2,209.7 L462.8,208.3 L465.5,206.9 L468.1,205.5 L470.8,205.2
		L473.4,205.4 L476.1,205.6 L478.7,205.8 L481.4,206.0 L484.1,206.2 L486.7,207.0 L489.4,208.4 L492.0,209.8
		L494.7,211.2 L497.3,212.6 L500.0,214.0 L502.6,215.5 L505.3,217.1 L508.0,218.7 L510.6,220.3 L513.3,221.9
		L515.9,223.5 L518.6,225.1 L521.2,226.0 L523.9,226.9 L526.5,227.8 L529.2,228.7 L531.9,229.5 L534.5,230.4
		L537.2,230.5 L539.8,230.3 L542.5,230.1 L545.1,229.9 L547.8,229.7 L550.4,229.5 L553.1,228.9 L555.7,227.9
		L558.4,226.9 L561.1,225.9 L563.7,224.9 L566.4,224.0 L569.0,223.0 L571.7,221.9 L574.3,220.8 L575.0,220.5
		 '/></g>
	</g>
<g fill="none" color="white" stroke="rgb(255,   0,   0)" stroke-width="2.00" stroke-linecap="butt" stroke-linejoin="miter">
</g>
<g fill="none" color="black" stroke="currentColor" stroke-width="2.00" stroke-linecap="butt" stroke-linejoin="miter">
</g>
<g fill="none" color="black" stroke="black" stroke-width="1.00" stroke-linecap="butt" stroke-linejoin="miter">
</g>
<g fill="none" color="black" stroke="currentColor" stroke-width="1.00" stroke-linecap="butt" stroke-linejoin="miter">
	<path stroke='black'  d='M53.9,18.1 L53.9,422.4 L575.0,422.4 L575.0,18.1 L53.9,18.1 Z  '/></g>
<g fill="none" color="black" stroke="currentColor" stroke-width="1.00" stroke-linecap="butt" stroke-linejoin="miter">
</g>
</g>
</svg>

