<?xml version="1.0" encoding="utf-8"  standalone="no"?>
<svg 
 width="600" height="480"
 viewBox="0 0 600 480"
 xmlns="http://www.w3.org/2000/svg"
 xmlns:xlink="http://www.w3.org/1999/xlink"
>

<title>Gnuplot</title>
<desc>Produced by GNUPLOT 5.2 patchlevel 2 </desc>

<g id="gnuplot_canvas">

<rect x="0" y="0" width="600" height="480" fill="none"/>
<defs>

	<circle id='gpDot' r='0.5' stroke-width='0.5'/>
	<path id='gpPt0' stroke-width='0.222' stroke='currentColor' d='M-1,0 h2 M0,-1 v2'/>
	<path id='gpPt1' stroke-width='0.222' stroke='currentColor' d='M-1,-1 L1,1 M1,-1 L-1,1'/>
	<path id='gpPt2' stroke-width='0.222' stroke='currentColor' d='M-1,0 L1,0 M0,-1 L0,1 M-1,-1 L1,1 M-1,1 L1,-1'/>
	<rect id='gpPt3' stroke-width='0.222' stroke='currentColor' x='-1' y='-1' width='2' height='2'/>
	<rect id='gpPt4' stroke-width='0.222' stroke='currentColor' fill='currentColor' x='-1' y='-1' width='2' height='2'/>
	<circle id='gpPt5' stroke-width='0.222' stroke='currentColor' cx='0' cy='0' r='1'/>
	<use xlink:href='#gpPt5' id='gpPt6' fill='currentColor' stroke='none'/>
	<path id='gpPt7' stroke-width='0.222' stroke='currentColor' d='M0,-1.33 L-1.33,0.67 L1.33,0.67 z'/>
	<use xlink:href='#gpPt7' id='gpPt8' fill='currentColor' stroke='none'/>
	<use xlink:href='#gpPt7' id='gpPt9' stroke='currentColor' transform='rotate(180)'/>
	<use xlink:href='#gpPt9' id='gpPt10' fill='currentColor' stroke='none'/>
	<use xlink:href='#gpPt3' id='gpPt11' stroke='currentColor' transform='rotate(45)'/>
	<use xlink:href='#gpPt11' id='gpPt12' fill='currentColor' stroke='none'/>
	<path id='gpPt13' stroke-width='0.222' stroke='currentColor' d='M0,1.330 L1.265,0.411 L0.782,-1.067 L-0.782,-1.076 L-1.265,0.411 z'/>
	<use xlink:href='#gpPt13' id='gpPt14' fill='currentColor' stroke='none'/>
	<filter id='textbox' filterUnits='objectBoundingBox' x='0' y='0' height='1' width='1'>
	  <feFlood flood-color='white' flood-opacity='1' result='bgnd'/>
	  <feComposite in='SourceGraphic' in2='bgnd' operator='atop'/>
	</filter>
	<filter id='greybox' filterUnits='objectBoundingBox' x='0' y='0' height='1' width='1'>
	  <feFlood flood-color='lightgrey' flood-opacity='1' result='grey'/>
	  <feComposite in='SourceGraphic' in2='grey' operator='atop'/>
	</filter>
</defs>
<g fill="none" color="white" stroke="black" stroke-width="1.00" stroke-linecap="butt" stroke-linejoin="miter">
</g>
<g fill="none" color="black" stroke="currentColor" stroke-width="1.00" stroke-linecap="butt" stroke-linejoin="miter">
	<path stroke='black'  d='M71.9,422.4 L80.9,422.4 M575.0,422.4 L566.0,422.4  '/>	<g transform="translate(63.6,426.3)" stroke="none" fill="black" font-family="Arial" font-size="12.00"  text-anchor="end">
		<text><tspan font-family="Arial" >-1</tspan></text>
	</g>
</g>
<g fill="none" color="black" stroke="currentColor" stroke-width="1.00" stroke-linecap="butt" stroke-linejoin="miter">
	<path stroke='black'  d='M71.9,321.3 L80.9,321.3 M575.0,321.3 L566.0,321.3  '/>	<g transform="translate(63.6,325.2)" stroke="none" fill="black" font-family="Arial" font-size="12.00"  text-anchor="end">
		<text><tspan font-family="Arial" >-0.5</tspan></text>
	</g>
</g>
<g fill="none" color="black" stroke="currentColor" stroke-width="1.00" stroke-linecap="butt" stroke-linejoin="miter">
	<path stroke='black'  d='M71.9,220.2 L80.9,220.2 M575.0,220.2 L566.0,220.2  '/>	<g transform="translate(63.6,224.1)" stroke="none" fill="black" font-family="Arial" font-size="12.00"  text-anchor="end">
		<text><tspan font-family="Arial" > 0</tspan></text>
	</g>
</g>
<g fill="none" color="black" stroke="currentColor" stroke-width="1.00" stroke-linecap="butt" stroke-linejoin="miter">
	<path stroke='black'  d='M71.9,119.2 L80.9,119.2 M575.0,119.2 L566.0,119.2  '/>	<g transform="translate(63.6,123.1)" stroke="none" fill="black" font-family="Arial" font-size="12.00"  text-anchor="end">
		<text><tspan font-family="Arial" > 0.5</tspan></text>
	</g>
</g>
<g fill="none" color="black" stroke="currentColor" stroke-width="1.00" stroke-linecap="butt" stroke-linejoin="miter">
	<path stroke='black'  d='M71.9,18.1 L80.9,18.1 M575.0,18.1 L566.0,18.1  '/>	<g transform="translate(63.6,22.0)" stroke="none" fill="black" font-family="Arial" font-size="12.00"  text-anchor="end">
		<text><tspan font-family="Arial" > 1</tspan></text>
	</g>
</g>
<g fill="none" color="black" stroke="currentColor" stroke-width="1.00" stroke-linecap="butt" stroke-linejoin="miter">
	<path stroke='black'  d='M71.9,422.4 L71.9,413.4 M71.9,18.1 L71.9,27.1  '/>	<g transform="translate(71.9,444.3)" stroke="none" fill="black" font-family="Arial" font-size="12.00"  text-anchor="middle">
		<text><tspan font-family="Arial" > 0</tspan></text>
	</g>
</g>
<g fill="none" color="black" stroke="currentColor" stroke-width="1.00" stroke-linecap="butt" stroke-linejoin="miter">
	<path stroke='black'  d='M152.0,422.4 L152.0,413.4 M152.0,18.1 L152.0,27.1  '/>	<g transform="translate(152.0,444.3)" stroke="none" fill="black" font-family="Arial" font-size="12.00"  text-anchor="middle">
		<text><tspan font-family="Arial" > 0.5</tspan></text>
	</g>
</g>
<g fill="none" color="black" stroke="currentColor" stroke-width="1.00" stroke-linecap="butt" stroke-linejoin="miter">
	<path stroke='black'  d='M232.1,422.4 L232.1,413.4 M232.1,18.1 L232.1,27.1  '/>	<g transform="translate(232.1,444.3)" stroke="none" fill="black" font-family="Arial" font-size="12.00"  text-anchor="middle">
		<text><tspan font-family="Arial" > 1</tspan></text>
	</g>
</g>
<g fill="none" color="black" stroke="currentColor" stroke-width="1.00" stroke-linecap="butt" stroke-linejoin="miter">
	<path stroke='black'  d='M312.2,422.4 L312.2,413.4 M312.2,18.1 L312.2,27.1  '/>	<g transform="translate(312.2,444.3)" stroke="none" fill="black" font-family="Arial" font-size="12.00"  text-anchor="middle">
		<text><tspan font-family="Arial" > 1.5</tspan></text>
	</g>
</g>
<g fill="none" color="black" stroke="currentColor" stroke-width="1.00" stroke-linecap="butt" stroke-linejoin="miter">
	<path stroke='black'  d='M392.3,422.4 L392.3,413.4 M392.3,18.1 L392.3,27.1  '/>	<g transform="translate(392.3,444.3)" stroke="none" fill="black" font-family="Arial" font-size="12.00"  text-anchor="middle">
		<text><tspan font-family="Arial" > 2</tspan></text>
	</g>
</g>
<g fill="none" color="black" stroke="currentColor" stroke-width="1.00" stroke-linecap="butt" stroke-linejoin="miter">
	<path stroke='black'  d='M472.5,422.4 L472.5,413.4 M472.5,18.1 L472.5,27.1  '/>	<g transform="translate(472.5,444.3)" stroke="none" fill="black" font-family="Arial" font-size="12.00"  text-anchor="middle">
		<text><tspan font-family="Arial" > 2.5</tspan></text>
	</g>
</g>
<g fill="none" color="black" stroke="currentColor" stroke-width="1.00" stroke-linecap="butt" stroke-linejoin="miter">
	<path stroke='black'  d='M552.6,422.4 L552.6,413.4 M552.6,18.1 L552.6,27.1  '/>	<g transform="translate(552.6,444.3)" stroke="none" fill="black" font-family="Arial" font-size="12.00"  text-anchor="middle">
		<text><tspan font-family="Arial" > 3</tspan></text>
	</g>
</g>
<g fill="none" color="black" stroke="currentColor" stroke-width="1.00" stroke-linecap="butt" stroke-linejoin="miter">
</g>
<g fill="none" color="black" stroke="currentColor" stroke-width="1.00" stroke-linecap="butt" stroke-linejoin="miter">
	<path stroke='black'  d='M71.9,18.1 L71.9,422.4 L575.0,422.4 L575.0,18.1 L71.9,18.1 Z  '/></g>
<g fill="none" color="black" stroke="currentColor" stroke-width="1.00" stroke-linecap="butt" stroke-linejoin="miter">
	<g transform="translate(16.3,220.3) rotate(270)" stroke="none" fill="black" font-family="Arial" font-size="12.00"  text-anchor="middle">
		<text><tspan font-family="Arial" >sin(8*x)exp(-x) - qspline </tspan></text>
	</g>
</g>
<g fill="none" color="black" stroke="currentColor" stroke-width="1.00" stroke-linecap="butt" stroke-linejoin="miter">
	<g transform="translate(323.4,471.3)" stroke="none" fill="black" font-family="Arial" font-size="12.00"  text-anchor="middle">
		<text><tspan font-family="Arial" >x</tspan></text>
	</g>
</g>
<g fill="none" color="black" stroke="currentColor" stroke-width="1.00" stroke-linecap="butt" stroke-linejoin="miter">
</g>
	<g id="gnuplot_plot_1" ><title>"f_se.io.txt"</title>
<g fill="none" color="black" stroke="currentColor" stroke-width="1.00" stroke-linecap="butt" stroke-linejoin="miter">
	<g transform="translate(507.9,40.0)" stroke="none" fill="black" font-family="Arial" font-size="12.00"  text-anchor="end">
		<text>"f_se.io.txt"</text>
	</g>
</g>
<g fill="none" color="black" stroke="currentColor" stroke-width="1.00" stroke-linecap="butt" stroke-linejoin="miter">
	<path stroke='rgb(  0,   0,   0)'  d='M516.2,36.1 L558.4,36.1 M71.9,220.2 L73.5,204.3 L75.1,188.7 L76.7,173.6 L78.3,159.2 L79.9,145.4
		L81.5,132.3 L83.1,120.1 L84.7,108.8 L86.3,98.4 L87.9,89.0 L89.5,80.7 L91.1,73.4 L92.7,67.2
		L94.3,62.1 L95.9,58.1 L97.5,55.2 L99.1,53.5 L100.7,52.8 L102.3,53.3 L103.9,54.8 L105.5,57.4
		L107.1,60.9 L108.8,65.4 L110.4,70.8 L112.0,77.1 L113.6,84.2 L115.2,92.0 L116.8,100.4 L118.4,109.5
		L120.0,119.1 L121.6,129.2 L123.2,139.6 L124.8,150.4 L126.4,161.4 L128.0,172.5 L129.6,183.8 L131.2,195.0
		L132.8,206.2 L134.4,217.3 L136.0,228.2 L137.6,238.8 L139.2,249.0 L140.8,258.9 L142.4,268.3 L144.0,277.3
		L145.6,285.7 L147.2,293.5 L148.8,300.7 L150.4,307.2 L152.0,313.0 L153.6,318.2 L155.2,322.6 L156.8,326.2
		L158.4,329.1 L160.0,331.2 L161.6,332.6 L163.2,333.2 L164.8,333.1 L166.4,332.3 L168.0,330.8 L169.6,328.5
		L171.2,325.7 L172.8,322.2 L174.4,318.1 L176.0,313.5 L177.6,308.3 L179.2,302.7 L180.9,296.7 L182.5,290.3
		L184.1,283.6 L185.7,276.6 L187.3,269.4 L188.9,262.0 L190.5,254.5 L192.1,246.9 L193.7,239.3 L195.3,231.8
		L196.9,224.3 L198.5,216.9 L200.1,209.7 L201.7,202.7 L203.3,195.9 L204.9,189.5 L206.5,183.3 L208.1,177.6
		L209.7,172.2 L211.3,167.2 L212.9,162.7 L214.5,158.6 L216.1,155.0 L217.7,151.9 L219.3,149.3 L220.9,147.2
		L222.5,145.6 L224.1,144.6 L225.7,144.0 L227.3,144.0 L228.9,144.4 L230.5,145.3 L232.1,146.7 L233.7,148.5
		L235.3,150.7 L236.9,153.4 L238.5,156.4 L240.1,159.8 L241.7,163.5 L243.3,167.5 L244.9,171.7 L246.5,176.2
		L248.1,180.9 L249.7,185.7 L251.3,190.7 L253.0,195.7 L254.6,200.8 L256.2,206.0 L257.8,211.1 L259.4,216.2
		L261.0,221.2 L262.6,226.1 L264.2,230.9 L265.8,235.5 L267.4,239.9 L269.0,244.1 L270.6,248.1 L272.2,251.8
		L273.8,255.2 L275.4,258.3 L277.0,261.2 L278.6,263.7 L280.2,265.9 L281.8,267.7 L283.4,269.2 L285.0,270.4
		L286.6,271.2 L288.2,271.7 L289.8,271.8 L291.4,271.6 L293.0,271.1 L294.6,270.2 L296.2,269.1 L297.8,267.6
		L299.4,265.9 L301.0,263.9 L302.6,261.7 L304.2,259.3 L305.8,256.6 L307.4,253.8 L309.0,250.8 L310.6,247.7
		L312.2,244.5 L313.8,241.1 L315.4,237.7 L317.0,234.3 L318.6,230.8 L320.2,227.4 L321.8,223.9 L323.5,220.5
		L325.1,217.2 L326.7,213.9 L328.3,210.8 L329.9,207.8 L331.5,204.9 L333.1,202.2 L334.7,199.6 L336.3,197.3
		L337.9,195.1 L339.5,193.1 L341.1,191.4 L342.7,189.8 L344.3,188.5 L345.9,187.4 L347.5,186.6 L349.1,186.0
		L350.7,185.6 L352.3,185.5 L353.9,185.5 L355.5,185.8 L357.1,186.3 L358.7,187.1 L360.3,188.0 L361.9,189.1
		L363.5,190.4 L365.1,191.8 L366.7,193.4 L368.3,195.2 L369.9,197.1 L371.5,199.1 L373.1,201.1 L374.7,203.3
		L376.3,205.5 L377.9,207.8 L379.5,210.1 L381.1,212.5 L382.7,214.8 L384.3,217.2 L385.9,219.5 L387.5,221.7
		L389.1,223.9 L390.7,226.1 L392.3,228.1 L393.9,230.1 L395.6,232.0 L397.2,233.7 L398.8,235.4 L400.4,236.9
		L402.0,238.2 L403.6,239.4 L405.2,240.5 L406.8,241.5 L408.4,242.2 L410.0,242.8 L411.6,243.3 L413.2,243.6
		L414.8,243.7 L416.4,243.7 L418.0,243.6 L419.6,243.3 L421.2,242.8 L422.8,242.2 L424.4,241.5 L426.0,240.7
		L427.6,239.7 L429.2,238.7 L430.8,237.5 L432.4,236.3 L434.0,234.9 L435.6,233.5 L437.2,232.1 L438.8,230.6
		L440.4,229.1 L442.0,227.5 L443.6,225.9 L445.2,224.3 L446.8,222.8 L448.4,221.2 L450.0,219.7 L451.6,218.2
		L453.2,216.7 L454.8,215.3 L456.4,214.0 L458.0,212.7 L459.6,211.5 L461.2,210.3 L462.8,209.3 L464.4,208.4
		L466.0,207.5 L467.7,206.7 L469.3,206.1 L470.9,205.5 L472.5,205.1 L474.1,204.8 L475.7,204.5 L477.3,204.4
		L478.9,204.4 L480.5,204.5 L482.1,204.7 L483.7,204.9 L485.3,205.3 L486.9,205.8 L488.5,206.3 L490.1,206.9
		L491.7,207.6 L493.3,208.4 L494.9,209.2 L496.5,210.1 L498.1,211.0 L499.7,212.0 L501.3,213.0 L502.9,214.0
		L504.5,215.1 L506.1,216.1 L507.7,217.2 L509.3,218.3 L510.9,219.3 L512.5,220.4 L514.1,221.4 L515.7,222.4
		L517.3,223.3 L518.9,224.3 L520.5,225.1 L522.1,226.0 L523.7,226.7 L525.3,227.5 L526.9,228.1 L528.5,228.7
		L530.1,229.2 L531.7,229.7 L533.3,230.1 L534.9,230.4 L536.5,230.7 L538.1,230.8 L539.8,230.9 L541.4,231.0
		L543.0,230.9 L544.6,230.8 L546.2,230.7 L547.8,230.4 L549.4,230.1 L551.0,229.8 L552.6,229.4 L554.2,228.9
		L555.8,228.4 L557.4,227.9 L559.0,227.3 L560.6,226.7 L562.2,226.0 L563.8,225.3 L565.4,224.6 L567.0,223.9
		L568.6,223.2 L570.2,222.5 L571.8,221.8 L573.4,221.1 L575.0,220.4  '/></g>
	</g>
	<g id="gnuplot_plot_2" ><title>"se.io.txt"</title>
<g fill="none" color="black" stroke="currentColor" stroke-width="1.00" stroke-linecap="butt" stroke-linejoin="miter">
	<g transform="translate(507.9,58.0)" stroke="none" fill="black" font-family="Arial" font-size="12.00"  text-anchor="end">
		<text>"se.io.txt"</text>
	</g>
</g>
<g fill="none" color="black" stroke="currentColor" stroke-width="1.00" stroke-linecap="butt" stroke-linejoin="miter">
	<use xlink:href='#gpPt1' transform='translate(71.9,220.2) scale(4.50)' color='rgb(  0, 158, 115)'/>
	<use xlink:href='#gpPt1' transform='translate(87.9,89.0) scale(4.50)' color='rgb(  0, 158, 115)'/>
	<use xlink:href='#gpPt1' transform='translate(103.9,54.8) scale(4.50)' color='rgb(  0, 158, 115)'/>
	<use xlink:href='#gpPt1' transform='translate(120.0,119.1) scale(4.50)' color='rgb(  0, 158, 115)'/>
	<use xlink:href='#gpPt1' transform='translate(136.0,228.2) scale(4.50)' color='rgb(  0, 158, 115)'/>
	<use xlink:href='#gpPt1' transform='translate(152.0,313.0) scale(4.50)' color='rgb(  0, 158, 115)'/>
	<use xlink:href='#gpPt1' transform='translate(168.0,330.8) scale(4.50)' color='rgb(  0, 158, 115)'/>
	<use xlink:href='#gpPt1' transform='translate(184.1,283.6) scale(4.50)' color='rgb(  0, 158, 115)'/>
	<use xlink:href='#gpPt1' transform='translate(200.1,209.7) scale(4.50)' color='rgb(  0, 158, 115)'/>
	<use xlink:href='#gpPt1' transform='translate(216.1,155.0) scale(4.50)' color='rgb(  0, 158, 115)'/>
	<use xlink:href='#gpPt1' transform='translate(232.1,146.7) scale(4.50)' color='rgb(  0, 158, 115)'/>
	<use xlink:href='#gpPt1' transform='translate(248.1,180.9) scale(4.50)' color='rgb(  0, 158, 115)'/>
	<use xlink:href='#gpPt1' transform='translate(264.2,230.9) scale(4.50)' color='rgb(  0, 158, 115)'/>
	<use xlink:href='#gpPt1' transform='translate(280.2,265.9) scale(4.50)' color='rgb(  0, 158, 115)'/>
	<use xlink:href='#gpPt1' transform='translate(296.2,269.1) scale(4.50)' color='rgb(  0, 158, 115)'/>
	<use xlink:href='#gpPt1' transform='translate(312.2,244.5) scale(4.50)' color='rgb(  0, 158, 115)'/>
	<use xlink:href='#gpPt1' transform='translate(328.3,210.8) scale(4.50)' color='rgb(  0, 158, 115)'/>
	<use xlink:href='#gpPt1' transform='translate(344.3,188.5) scale(4.50)' color='rgb(  0, 158, 115)'/>
	<use xlink:href='#gpPt1' transform='translate(360.3,188.0) scale(4.50)' color='rgb(  0, 158, 115)'/>
	<use xlink:href='#gpPt1' transform='translate(376.3,205.5) scale(4.50)' color='rgb(  0, 158, 115)'/>
	<use xlink:href='#gpPt1' transform='translate(392.3,228.1) scale(4.50)' color='rgb(  0, 158, 115)'/>
	<use xlink:href='#gpPt1' transform='translate(408.4,242.2) scale(4.50)' color='rgb(  0, 158, 115)'/>
	<use xlink:href='#gpPt1' transform='translate(424.4,241.5) scale(4.50)' color='rgb(  0, 158, 115)'/>
	<use xlink:href='#gpPt1' transform='translate(440.4,229.1) scale(4.50)' color='rgb(  0, 158, 115)'/>
	<use xlink:href='#gpPt1' transform='translate(456.4,214.0) scale(4.50)' color='rgb(  0, 158, 115)'/>
	<use xlink:href='#gpPt1' transform='translate(472.5,205.1) scale(4.50)' color='rgb(  0, 158, 115)'/>
	<use xlink:href='#gpPt1' transform='translate(488.5,206.3) scale(4.50)' color='rgb(  0, 158, 115)'/>
	<use xlink:href='#gpPt1' transform='translate(504.5,215.1) scale(4.50)' color='rgb(  0, 158, 115)'/>
	<use xlink:href='#gpPt1' transform='translate(520.5,225.1) scale(4.50)' color='rgb(  0, 158, 115)'/>
	<use xlink:href='#gpPt1' transform='translate(536.5,230.7) scale(4.50)' color='rgb(  0, 158, 115)'/>
	<use xlink:href='#gpPt1' transform='translate(552.6,229.4) scale(4.50)' color='rgb(  0, 158, 115)'/>
	<use xlink:href='#gpPt1' transform='translate(568.6,223.2) scale(4.50)' color='rgb(  0, 158, 115)'/>
	<use xlink:href='#gpPt1' transform='translate(537.3,54.1) scale(4.50)' color='rgb(  0, 158, 115)'/>
</g>
	</g>
	<g id="gnuplot_plot_3" ><title>"qs.io.txt"</title>
<g fill="none" color="black" stroke="currentColor" stroke-width="1.00" stroke-linecap="butt" stroke-linejoin="miter">
	<g transform="translate(507.9,76.0)" stroke="none" fill="black" font-family="Arial" font-size="12.00"  text-anchor="end">
		<text>"qs.io.txt"</text>
	</g>
</g>
<g fill="none" color="black" stroke="currentColor" stroke-width="1.00" stroke-linecap="butt" stroke-linejoin="miter">
	<path stroke='rgb(255,   0,   0)'  d='M516.2,72.1 L558.4,72.1 M71.9,220.2 L73.6,204.3 L75.3,188.9 L77.0,173.9 L78.7,159.4 L80.4,145.3
		L82.2,131.6 L83.9,118.5 L85.6,105.8 L87.3,93.5 L89.0,82.0 L90.7,72.1 L92.4,63.9 L94.1,57.6
		L95.8,52.9 L97.5,50.0 L99.2,48.9 L101.0,49.5 L102.7,51.9 L104.4,56.0 L106.1,60.9 L107.8,66.3
		L109.5,72.2 L111.2,78.6 L112.9,85.5 L114.6,92.9 L116.3,100.7 L118.0,109.1 L119.8,118.0 L121.5,127.3
		L123.2,137.2 L124.9,147.6 L126.6,158.5 L128.3,170.0 L130.0,182.0 L131.7,194.5 L133.4,207.6 L135.1,221.2
		L136.8,235.1 L138.6,248.1 L140.3,260.1 L142.0,270.9 L143.7,280.7 L145.4,289.4 L147.1,297.1 L148.8,303.6
		L150.5,309.1 L152.2,313.5 L153.9,317.3 L155.6,320.5 L157.4,323.3 L159.1,325.7 L160.8,327.6 L162.5,329.1
		L164.2,330.1 L165.9,330.7 L167.6,330.8 L169.3,330.3 L171.0,328.8 L172.7,326.3 L174.4,322.7 L176.2,318.2
		L177.9,312.5 L179.6,305.9 L181.3,298.3 L183.0,289.6 L184.7,280.0 L186.4,270.5 L188.1,261.4 L189.8,252.8
		L191.5,244.6 L193.2,236.7 L195.0,229.3 L196.7,222.4 L198.4,215.8 L200.1,209.7 L201.8,203.7 L203.5,197.8
		L205.2,192.0 L206.9,186.1 L208.6,180.3 L210.3,174.5 L212.0,168.7 L213.8,162.9 L215.5,157.2 L217.2,151.6
		L218.9,147.1 L220.6,143.6 L222.3,141.1 L224.0,139.6 L225.7,139.1 L227.4,139.7 L229.1,141.4 L230.8,144.0
		L232.6,147.7 L234.3,151.6 L236.0,155.4 L237.7,159.2 L239.4,162.9 L241.1,166.5 L242.8,170.1 L244.5,173.6
		L246.2,177.1 L247.9,180.5 L249.6,184.0 L251.3,187.9 L253.1,192.3 L254.8,197.1 L256.5,202.3 L258.2,207.9
		L259.9,213.9 L261.6,220.4 L263.3,227.3 L265.0,234.4 L266.7,241.0 L268.4,246.7 L270.1,251.8 L271.9,256.0
		L273.6,259.5 L275.3,262.2 L277.0,264.2 L278.7,265.4 L280.4,265.9 L282.1,266.1 L283.8,266.3 L285.5,266.6
		L287.2,266.9 L288.9,267.2 L290.7,267.6 L292.4,268.0 L294.1,268.4 L295.8,268.9 L297.5,269.3 L299.2,268.9
		L300.9,268.0 L302.6,266.3 L304.3,264.0 L306.0,261.0 L307.7,257.3 L309.5,252.9 L311.2,247.9 L312.9,242.3
		L314.6,237.0 L316.3,232.1 L318.0,227.6 L319.7,223.7 L321.4,220.2 L323.1,217.1 L324.8,214.6 L326.5,212.4
		L328.3,210.8 L330.0,209.3 L331.7,207.6 L333.4,205.6 L335.1,203.5 L336.8,201.2 L338.5,198.6 L340.2,195.9
		L341.9,192.9 L343.6,189.8 L345.3,186.6 L347.1,184.0 L348.8,182.2 L350.5,181.0 L352.2,180.6 L353.9,180.8
		L355.6,181.8 L357.3,183.4 L359.0,185.8 L360.7,188.8 L362.4,191.8 L364.1,194.5 L365.9,196.9 L367.6,199.1
		L369.3,200.9 L371.0,202.5 L372.7,203.8 L374.4,204.8 L376.1,205.5 L377.8,206.2 L379.5,207.2 L381.2,208.7
		L382.9,210.6 L384.7,212.9 L386.4,215.5 L388.1,218.6 L389.8,222.1 L391.5,226.0 L393.2,230.2 L394.9,233.9
		L396.6,237.0 L398.3,239.5 L400.0,241.4 L401.7,242.8 L403.5,243.5 L405.2,243.6 L406.9,243.1 L408.6,242.1
		L410.3,240.9 L412.0,240.1 L413.7,239.4 L415.4,239.1 L417.1,239.0 L418.8,239.2 L420.5,239.6 L422.3,240.3
		L424.0,241.2 L425.7,242.2 L427.4,242.7 L429.1,242.6 L430.8,242.1 L432.5,241.0 L434.2,239.4 L435.9,237.2
		L437.6,234.5 L439.3,231.3 L441.1,227.7 L442.8,224.3 L444.5,221.4 L446.2,218.9 L447.9,216.9 L449.6,215.4
		L451.3,214.3 L453.0,213.7 L454.7,213.6 L456.4,214.0 L458.1,214.4 L459.9,214.5 L461.6,214.2 L463.3,213.7
		L465.0,212.8 L466.7,211.6 L468.4,210.0 L470.1,208.2 L471.8,206.0 L473.5,203.7 L475.2,201.8 L476.9,200.5
		L478.7,199.8 L480.4,199.6 L482.1,200.0 L483.8,200.9 L485.5,202.4 L487.2,204.4 L488.9,207.0 L490.6,209.4
		L492.3,211.5 L494.0,213.1 L495.7,214.4 L497.5,215.3 L499.2,215.9 L500.9,216.0 L502.6,215.8 L504.3,215.2
		L506.0,214.5 L507.7,214.2 L509.4,214.3 L511.1,214.9 L512.8,215.8 L514.5,217.2 L516.3,218.9 L518.0,221.1
		L519.7,223.7 L521.4,226.6 L523.1,229.1 L524.8,231.0 L526.5,232.5 L528.2,233.4 L529.9,233.8 L531.6,233.8
		L533.3,233.2 L535.1,232.0 L536.8,230.4 L538.5,228.8 L540.2,227.6 L541.9,226.7 L543.6,226.2 L545.3,226.0
		L547.0,226.2 L548.7,226.8 L550.4,227.7 L552.1,229.0 L553.9,230.4 L555.6,231.3 L557.3,231.8 L559.0,231.9
		L560.7,231.4 L562.4,230.5 L564.1,229.1 L565.8,227.2 L567.5,224.9 L569.2,222.2 L570.9,219.7 L572.7,217.7
		L574.4,216.2 L575.0,215.8  '/></g>
	</g>
<g fill="none" color="white" stroke="rgb(255,   0,   0)" stroke-width="2.00" stroke-linecap="butt" stroke-linejoin="miter">
</g>
<g fill="none" color="black" stroke="currentColor" stroke-width="2.00" stroke-linecap="butt" stroke-linejoin="miter">
</g>
<g fill="none" color="black" stroke="black" stroke-width="1.00" stroke-linecap="butt" stroke-linejoin="miter">
</g>
<g fill="none" color="black" stroke="currentColor" stroke-width="1.00" stroke-linecap="butt" stroke-linejoin="miter">
	<path stroke='black'  d='M71.9,18.1 L71.9,422.4 L575.0,422.4 L575.0,18.1 L71.9,18.1 Z  '/></g>
<g fill="none" color="black" stroke="currentColor" stroke-width="1.00" stroke-linecap="butt" stroke-linejoin="miter">
</g>
</g>
</svg>

